<?xml version="1.0" encoding="UTF-8"?>

<kml xmlns:xsd="http://www.w3.org/2001/XMLSchema" xmlns:gx="http://www.google.com/kml/ext/2.2" xmlns:atom="http://www.w3.org/2005/Atom" xmlns="http://www.opengis.net/kml/2.2">
<Document>
<name>olle_17_course</name>
<visibility>1</visibility>
<Schema name="olle_17_course" id="kml_schema_ft_olle_17_course">
<SimpleField type="xsd:string" name="MEMO">
<displayName>MEMO</displayName>
</SimpleField>
</Schema>
<Folder id="kml_ft_olle_17_course">
<name>olle_17_course</name>
<Placemark id="kml_1">
<name>kml_1</name>
<snippet> </snippet>
<description><![CDATA[<center><table><tr><th colspan='2' align='center'><em>Attributes</em></th></tr><tr bgcolor="#E3E3F3">
<th>MEMO</th>
<td>올레 17코스</td>
</tr></table></center>]]></description>
<ExtendedData>
<SchemaData schemaUrl="#kml_schema_ft_olle_17_course">
<SimpleData name="MEMO">올레 17코스</SimpleData>
</SchemaData>
</ExtendedData>
<MultiGeometry>
<LineString>
<coordinates>126.439230215823,33.460896947406,0.0 126.439353937344,33.4608977572198,0.0 126.43942389798,33.4608973511583,0.0 126.439504808504,33.4608972402089,0.0 126.439594715126,33.4608969325712,0.0 126.439700272594,33.4608963926646,0.0 126.43991501601,33.4609023919838,0.0 126.439918114735,33.4609870919889,0.0 126.440021970346,33.4609928898195,0.0 126.44020638581,33.4610018210032,0.0 126.440319800572,33.4610016339943,0.0 126.440408400124,33.4610040438846,0.0 126.440629028471,33.4609986510506,0.0 126.441012800645,33.4609584794348,0.0 126.441214100862,33.4609463438308,0.0 126.44177271473,33.4609620468579,0.0 126.442232339184,33.4609884309459,0.0 126.442265293991,33.4609911017837,0.0 126.442326952199,33.4609938628306,0.0 126.442450629733,33.461000962843,0.0 126.442755201335,33.4610151176239,0.0 126.44332940126,33.4610191640444,0.0 126.443705600375,33.4609989367138,0.0 126.444319401013,33.4609139781855,0.0 126.444650143278,33.4608388779614,0.0 126.44473454718,33.4608142621873,0.0 126.444838321263,33.4607884251169,0.0 126.445028400827,33.4607354939307,0.0 126.44550171456,33.4605856132946,0.0 126.446078371102,33.4603844418844,0.0 126.446132143848,33.4603690864227,0.0 126.446176713651,33.4603576194815,0.0 126.446289600881,33.4603351802653,0.0 126.446358428991,33.4603205389386,0.0 126.446449885015,33.4603020443875,0.0 126.446507742264,33.4602939447054,0.0 126.446556429541,33.4602904852578,0.0 126.446663315274,33.4602893209466,0.0 126.446749714688,33.4602912567573,0.0 126.446795913445,33.4602927981253,0.0 126.446833861301,33.4603008063612,0.0 126.446866030154,33.4603024217287,0.0 126.447158278029,33.4603901959257,0.0 126.447212658751,33.460410698643,0.0 126.447260779725,33.4604365968551,0.0 126.447501305594,33.4605844532717,0.0 126.44756751075,33.4606242570629,0.0 126.44762091463,33.4606626810809,0.0 126.448075379421,33.4609652330116,0.0 126.448174491873,33.4611109461886,0.0 126.448194442887,33.46114413287,0.0 126.448210471894,33.4611981324994,0.0 126.44822461591,33.4612444176333,0.0 126.448290401359,33.4614070929183,0.0 126.448292601503,33.4614223770188,0.0 126.448301251475,33.4616521778214,0.0 126.44829861565,33.4616703054219,0.0 126.448289589746,33.4616983073133,0.0 126.448280912075,33.4617173778254,0.0 126.448258275391,33.4617509710909,0.0 126.448241101317,33.4617729041361,0.0 126.448220113488,33.4617979271578,0.0 126.448193599791,33.46182423821,0.0 126.44818264345,33.4618438772956,0.0 126.448177928473,33.4618647060848,0.0 126.448178400762,33.4618931397663,0.0 126.448183200192,33.461935303418,0.0 126.44818468232,33.4619635425395,0.0 126.44818358513,33.4619896756484,0.0 126.448177516114,33.4620109201225,0.0 126.448162843413,33.4620529345154,0.0 126.448139268862,33.4621035357652,0.0 126.448127015116,33.4621277614661,0.0 126.448110694823,33.4621554509754,0.0 126.447982177889,33.4623543550866,0.0 126.447969199086,33.4623744404928,0.0 126.447945987018,33.4624000759902,0.0 126.447922029072,33.4624227022704,0.0 126.44788564224,33.4624548476938,0.0 126.447849429096,33.462480497235,0.0 126.447803357137,33.4625107080546,0.0 126.447768729783,33.4625350757464,0.0 126.447742558086,33.4625553381438,0.0 126.44771837234,33.4625756652857,0.0 126.447687198083,33.4626088529217,0.0 126.447665015114,33.462634590682,0.0 126.447646457069,33.4626602584732,0.0 126.447618814487,33.4626963061031,0.0 126.447592939036,33.462729981837,0.0 126.447550175953,33.4627768551303,0.0 126.447529244225,33.4627973623442,0.0 126.44749722445,33.4628221346815,0.0 126.447456258196,33.4628496104325,0.0 126.447415834877,33.4628712881441,0.0 126.447407259125,33.4628749998918,0.0 126.447326143093,33.4629101006986,0.0 126.447236540113,33.4629541649934,0.0 126.447203956897,33.4629747906376,0.0 126.447156428643,33.4630079669507,0.0 126.447122871868,33.4630388194241,0.0 126.447089872079,33.4630766198539,0.0 126.447048558082,33.4631305531015,0.0 126.447021042313,33.463171505916,0.0 126.446993700344,33.4632147039665,0.0 126.446971074525,33.4632554715088,0.0 126.446940144508,33.4633211003993,0.0 126.446921101023,33.4633705326799,0.0 126.446907488241,33.4634026026384,0.0 126.446781008049,33.4637964457655,0.0 126.446758930062,33.4638704186078,0.0 126.446737754672,33.4639581661267,0.0 126.446650835652,33.4643666296761,0.0 126.446639186132,33.4644050204035,0.0 126.446624884213,33.4644435421742,0.0 126.44661314317,33.4644688653229,0.0 126.446598643963,33.4644968189064,0.0 126.446577900479,33.464523048709,0.0 126.446548656452,33.4645515331551,0.0 126.446526351124,33.4645700511808,0.0 126.446396872616,33.4646765628422,0.0 126.446323329195,33.4647375058569,0.0 126.446211686417,33.4648346521883,0.0 126.446170329462,33.4648654810097,0.0 126.446126271206,33.4648956488417,0.0 126.44607329425,33.4649295127319,0.0 126.445932968673,33.4650122873537,0.0 126.445892443078,33.4650368190271,0.0 126.445850571988,33.4650658289771,0.0 126.44581334679,33.4651005555461,0.0 126.445791556326,33.4651239908667,0.0 126.445779299711,33.4651425039343,0.0 126.445769161127,33.4651612986952,0.0 126.445762329218,33.4651926483499,0.0 126.445754399688,33.465238057341,0.0 126.445721900758,33.4655300120808,0.0 126.445713928375,33.4655625735504,0.0 126.445702928943,33.4655922484173,0.0 126.445692903906,33.4656178244237,0.0 126.445669929096,33.4656670771651,0.0 126.445651088605,33.4657170520693,0.0 126.445629000865,33.4657867170668,0.0 126.445553824494,33.4661569142401,0.0 126.445550184938,33.4661947344253,0.0 126.445544407471,33.4662403114319,0.0 126.445544529322,33.4662873054691,0.0 126.445545732415,33.4663235489819,0.0 126.445551687155,33.4663970256839,0.0 126.44555207279,33.4664801616596,0.0 126.445550718109,33.4665551984507,0.0 126.445547434379,33.4665909149656,0.0 126.445538342907,33.4666499197593,0.0 126.445528500465,33.46669847607,0.0 126.445520247073,33.4667336163387,0.0 126.445491860006,33.4668282955568,0.0 126.445469099903,33.4668921048172,0.0 126.445448214139,33.4669438882253,0.0 126.44543138604,33.4669808189167,0.0 126.445424473509,33.4670019365971,0.0 126.445418187197,33.4670232478697,0.0 126.445414972015,33.467053569687,0.0 126.445419358551,33.4671012060819,0.0 126.445424785616,33.4671320203431,0.0 126.445454013678,33.4672415622467,0.0 126.44547664387,33.467307904539,0.0 126.445501492512,33.46737996539,0.0 126.445536043919,33.467472990209,0.0 126.445552554821,33.4675144834201,0.0 126.445578472403,33.4675709631492,0.0 126.445608643288,33.467635762155,0.0 126.445633124662,33.4676836036035,0.0 126.445680299883,33.4677630485791,0.0 126.445703460255,33.467795937597,0.0 126.445744028122,33.4678472770921,0.0 126.445763272464,33.4678756755394,0.0 126.445779300457,33.4679049907048,0.0 126.445786457124,33.4679331982638,0.0 126.445791188108,33.4679649913988,0.0 126.445794387228,33.4679867631935,0.0 126.445793436671,33.4680105348266,0.0 126.445798341129,33.4680511101734,0.0 126.445787787189,33.4680585047641,0.0 126.445777415776,33.4680947632229,0.0 126.445764215737,33.4681155918359,0.0 126.445748045757,33.4681353195454,0.0 126.44573837147,33.4681470379419,0.0 126.445721401452,33.4681647605936,0.0 126.445715743711,33.4684028740536,0.0 126.445733657024,33.4685454327734,0.0 126.445714800291,33.468624034228,0.0 126.445628058175,33.4689261054412,0.0 126.445606372977,33.4690232004701,0.0 126.445577801148,33.4692204994622,0.0 126.445574314615,33.4692524511432,0.0 126.445573371446,33.4695325601759,0.0 126.445577799436,33.4695657247362,0.0 126.44563720127,33.4698084612894,0.0 126.445658229553,33.4698519696836,0.0 126.445733657777,33.4700392234869,0.0 126.445744971071,33.4700800647207,0.0 126.445769486654,33.470303921302,0.0 126.445786306353,33.470412230163,0.0 126.445795887308,33.4705062023615,0.0 126.445798177643,33.4705639205803,0.0 126.44579476745,33.4706368683826,0.0 126.445787502869,33.4707000035434,0.0 126.445769454245,33.4707792003135,0.0 126.445730828734,33.4708872594142,0.0 126.445698771152,33.4709388877944,0.0 126.445637486786,33.4710090130986,0.0 126.445461172328,33.471230557273,0.0 126.445302578139,33.4714431370949,0.0 126.445195709233,33.471623006356,0.0 126.445120707002,33.4717582945986,0.0 126.445109486824,33.4717861525568,0.0 126.445098774639,33.4718230955809,0.0 126.445068943292,33.4719591508149,0.0 126.445040658314,33.4721286818696,0.0 126.445029344386,33.4721910987993,0.0 126.445016637264,33.4722345458364,0.0 126.444998228288,33.4722789467648,0.0 126.444970886489,33.4723274927444,0.0 126.44493694446,33.4723698749413,0.0 126.44471289461,33.4726075689782,0.0 126.444585395933,33.4727569304746,0.0 126.444384767644,33.4730431473315,0.0 126.444363208397,33.4730806815925,0.0 126.444349141886,33.4731197857844,0.0 126.444321013462,33.4734247699491,0.0 126.444305228622,33.4734891601699,0.0 126.444271285037,33.4735523486977,0.0 126.444216599892,33.4736217015255,0.0 126.444165903088,33.4736391762645,0.0 126.444129299453,33.4736521332399,0.0 126.444075557621,33.4736752767294,0.0 126.444022399922,33.4736994314519,0.0 126.444004457982,33.4737091635778,0.0 126.444001072083,33.4737141275947,0.0 126.443992701276,33.4737264013671,0.0 126.443987020216,33.4737418770858,0.0 126.443982799689,33.4737533726077,0.0 126.443983537849,33.4737624271581,0.0 126.44398465815,33.4737762047909,0.0 126.443988444967,33.4737921217439,0.0 126.4439912587,33.473803946385,0.0 126.443998801192,33.473841704855,0.0 126.443999185847,33.4738534763212,0.0 126.443993094504,33.4738681723656,0.0 126.443922959494,33.4740242109193,0.0 126.443916801344,33.4740379144227,0.0 126.443918101432,33.4740471053262,0.0 126.443927142703,33.4740647911602,0.0 126.443935333028,33.4740739482929,0.0 126.44394505726,33.4740848271888,0.0 126.44395392923,33.4740972478765,0.0 126.443961471509,33.4741149913972,0.0 126.443963915912,33.4741372263456,0.0 126.443967686154,33.4741711323341,0.0 126.443956834928,33.474521476232,0.0 126.443957699174,33.4745346483544,0.0 126.443963356948,33.4745493052328,0.0 126.44397561588,33.4745593343115,0.0 126.44398787104,33.4745685915822,0.0 126.444004457468,33.4745756920877,0.0 126.444027228829,33.474578308221,0.0 126.444062358193,33.474581705079,0.0 126.443922574424,33.4756041927114,0.0 126.443897271425,33.4756894238814,0.0 126.443871515633,33.4757412116604,0.0 126.443797971042,33.4758144187581,0.0 126.443611286938,33.4759642980538,0.0 126.443487772256,33.4760652454884,0.0 126.443464200147,33.4760945277576,0.0 126.443449146681,33.4761226512172,0.0 126.443451017705,33.4762141384012,0.0 126.443465079574,33.4763439527105,0.0 126.443475001927,33.4765000039848,0.0 126.443463207208,33.4765496080193,0.0 126.443448201436,33.4765808844872,0.0 126.443413520355,33.4766442271826,0.0 126.443405076985,33.4766801957417,0.0 126.443408828235,33.4767239882094,0.0 126.443424589793,33.4768118384244,0.0 126.443429452787,33.4768389409774,0.0 126.443447265226,33.4769851745193,0.0 126.443453831692,33.4771251434946,0.0 126.443441641648,33.4772400961491,0.0 126.44343038913,33.4774222936358,0.0 126.443419142766,33.4775153468376,0.0 126.443412583128,33.4775982395819,0.0 126.443418207705,33.4777084916112,0.0 126.443431329512,33.4777775005688,0.0 126.443467418672,33.4778686029033,0.0 126.443486828929,33.47792468127,0.0 126.442796658527,33.4777605451542,0.0 126.442287514632,33.4776603676923,0.0 126.441914685102,33.4776159266773,0.0 126.441862499445,33.4777583342023,0.0 126.441652972919,33.4780938263169,0.0 126.441564344225,33.4782564212813,0.0 126.441514285571,33.4783231331313,0.0 126.441500417247,33.4783338795216,0.0 126.441490800408,33.4783400293765,0.0 126.441470914189,33.4783447334826,0.0 126.441442582427,33.4783460229298,0.0 126.441371845763,33.4783443221608,0.0 126.441337028467,33.4783401047739,0.0 126.441111800743,33.4783141157999,0.0 126.441073028435,33.4783115622295,0.0 126.441042000883,33.4783130597532,0.0 126.441005142845,33.4783177338154,0.0 126.440976500412,33.4783249045895,0.0 126.44095139976,33.4783362474395,0.0 126.440937342823,33.4783485065265,0.0 126.440919343081,33.478371733825,0.0 126.440906143356,33.4783933336335,0.0 126.440896489923,33.4784177089938,0.0 126.440891056902,33.4784419332568,0.0 126.440885043202,33.4784705822751,0.0 126.440882657736,33.4784937624472,0.0 126.440877499739,33.4785325778982,0.0 126.4408787766,33.4785560706639,0.0 126.440882572218,33.4785699911777,0.0 126.44089105863,33.4785939061204,0.0 126.440895772867,33.4786216768708,0.0 126.440896941774,33.4786436229638,0.0 126.440893971753,33.478660210538,0.0 126.440885401406,33.4786841624741,0.0 126.440875972591,33.4787042195787,0.0 126.440852485996,33.4787249393257,0.0 126.440820342309,33.478745105612,0.0 126.440776541595,33.47876611193,0.0 126.440352800848,33.4789317430771,0.0 126.440451799272,33.4790908708384,0.0 126.440548885967,33.479260886097,0.0 126.440634685429,33.4793864922107,0.0 126.440747828576,33.4795487022305,0.0 126.440969039752,33.47976638335,0.0 126.440989700299,33.4797867157471,0.0 126.44101842883,33.4798430667657,0.0 126.441082734728,33.4800271547196,0.0 126.441115101149,33.4801198024576,0.0 126.441172805824,33.4803298882019,0.0 126.441187700347,33.4803841155828,0.0 126.441195686884,33.4804264056735,0.0 126.441200899731,33.4807333854816,0.0 126.441401229833,33.480913417876,0.0 126.441570499871,33.4810907482521,0.0 126.44159168708,33.4811141572793,0.0 126.44180854372,33.4814096789502,0.0 126.441887743181,33.4815083148503,0.0 126.441909429271,33.4815468437267,0.0 126.441935827794,33.4816219762969,0.0 126.441956601577,33.4817137695726,0.0 126.441958457426,33.4817448864625,0.0 126.441963199349,33.4818621082731,0.0 126.441966943409,33.4818805103217,0.0 126.441980142126,33.4819487080802,0.0 126.441998058188,33.4819818419728,0.0 126.442096599301,33.4821610603503,0.0 126.442104143113,33.4821818883203,0.0 126.44212725588,33.4822243421512,0.0 126.442141883463,33.4823762542883,0.0</coordinates>
</LineString>
<LineString>
<coordinates>126.442141883463,33.4823762542883,0.0 126.44214374287,33.4823955744081,0.0 126.442146571478,33.4824603752359,0.0 126.442154114478,33.4824819755194,0.0 126.442175314986,33.4824939009889,0.0 126.44220454257,33.4824985229387,0.0 126.442479099416,33.4825116534081,0.0 126.44254509991,33.482554806181,0.0 126.442563772063,33.4825547777961,0.0 126.442589228476,33.4825463007224,0.0 126.442601200806,33.482533229881,0.0 126.442618457216,33.4825062296282,0.0 126.44263825842,33.4824538298986,0.0 126.442653829011,33.4823246042469,0.0 126.442563314895,33.4823323186919,0.0 126.442141883463,33.4823762542883,0.0</coordinates>
</LineString>
<LineString>
<coordinates>126.442141883463,33.4823762542883,0.0 126.441791700733,33.4824127609541,0.0 126.440508000408,33.4825449158736,0.0 126.440111516904,33.4825921008829,0.0 126.440089261641,33.4826638252792,0.0 126.440048841074,33.4827967541303,0.0 126.440009707626,33.4828841406339,0.0 126.439994486928,33.4829169555825,0.0 126.43998730572,33.4829585060575,0.0 126.439978272696,33.48301719916,0.0 126.439967447649,33.4831097501815,0.0 126.439971765443,33.4832333121202,0.0 126.439979401123,33.4832633351175,0.0 126.440044570298,33.4834663564087,0.0 126.440100087049,33.4836413103461,0.0 126.440105742938,33.4836613450039,0.0 126.440101971493,33.4836960221731,0.0 126.440040215041,33.4838238890528,0.0 126.439920716132,33.4840796757599,0.0 126.439743194714,33.4843219514632,0.0 126.439579480787,33.4845448547499,0.0 126.43950820074,33.4846645142002,0.0 126.439432163404,33.484855654007,0.0 126.439393391781,33.485012984054,0.0 126.4393283715,33.4854172609785,0.0 126.439257262595,33.4856782012973,0.0 126.439260000923,33.4858263214537,0.0 126.439287343837,33.4858906649476,0.0 126.439347685907,33.4860201253121,0.0 126.439345344674,33.4860901709062,0.0 126.439315628497,33.4861337870482,0.0 126.439046324995,33.4862745221794,0.0 126.438868715035,33.486366891243,0.0 126.438710314625,33.4863749815118,0.0 126.438603772204,33.4863780643682,0.0 126.438468000204,33.4863849989185,0.0 126.43839540044,33.4863888518264,0.0 126.438215315595,33.4864786268971,0.0 126.438124799741,33.4865294857334,0.0 126.437956028368,33.4866219567316,0.0 126.437807999622,33.4866943916818,0.0 126.43763438995,33.4867370260142,0.0 126.437571087828,33.4867530334686,0.0 126.437487428391,33.486777230329,0.0 126.437292258744,33.4868057417164,0.0 126.437180999679,33.4868080540574,0.0 126.437130231946,33.4868077325676,0.0 126.437056473064,33.4869152471323,0.0 126.436994244352,33.4869985601861,0.0 126.436943327715,33.4870618177415,0.0 126.436922443716,33.4870883170253,0.0 126.436888643836,33.4871212171208,0.0 126.436887505097,33.4872250002876,0.0 126.436887498758,33.4874785313314,0.0 126.436883487131,33.4875162906426,0.0 126.436869908014,33.4875643829437,0.0 126.436684849142,33.4879787248016,0.0 126.436677348476,33.4880146915268,0.0 126.436768282109,33.488416179625,0.0 126.436770152039,33.4884560509377,0.0 126.436746405317,33.4885835479675,0.0 126.436738285519,33.4886139968783,0.0 126.436720160858,33.4886471739899,0.0 126.436672608626,33.4887186607673,0.0 126.436547671129,33.488895249233,0.0 126.436526143474,33.4889195371409,0.0 126.43649297815,33.4889510283738,0.0 126.435970799167,33.4893826634255,0.0 126.435685114256,33.4896527550086,0.0 126.435502200942,33.4898511811688,0.0 126.435329657075,33.4900630953567,0.0 126.435221229634,33.4901964068529,0.0 126.435194651676,33.4902345452153,0.0 126.435200006493,33.4902666632535,0.0 126.4351875055,33.4903249991093,0.0 126.435062160697,33.4907319128859,0.0 126.435031807317,33.490835748178,0.0 126.434948302888,33.4911213798108,0.0 126.434942144024,33.491162341974,0.0 126.434930752963,33.4912164976359,0.0 126.434875617231,33.4916917114328,0.0 126.434855229048,33.4918855398705,0.0 126.434836316531,33.4920084258816,0.0 126.434832000547,33.4920324766429,0.0 126.434825400558,33.4920679247055,0.0 126.434809200783,33.4920993807389,0.0 126.434561798723,33.4920962545328,0.0 126.434458900162,33.4921483566082,0.0 126.434463154662,33.4921855967703,0.0 126.434485163281,33.4922562478988,0.0 126.434669304917,33.4922172455371,0.0 126.434775314479,33.4922289744087,0.0 126.434837561764,33.4922131492942,0.0 126.434906371748,33.4921965757603,0.0 126.434941256232,33.4921888611948,0.0 126.434955400759,33.4921888600184,0.0 126.434981499879,33.492194129492,0.0 126.435250885982,33.4923396061024,0.0 126.435268796792,33.4923465551253,0.0 126.435292372821,33.4923542629441,0.0 126.43531656879,33.4923586649536,0.0 126.435338955066,33.4923622878942,0.0 126.435395082584,33.4923645382933,0.0 126.435425315328,33.4923689194862,0.0 126.435472594026,33.49237946661,0.0 126.435762600945,33.4924917486848,0.0 126.436165457608,33.4926342911397,0.0 126.436209773075,33.4926512630569,0.0 126.436236170746,33.4926620616417,0.0 126.436275771557,33.4926813469076,0.0 126.436300286615,33.4926952340191,0.0 126.43632951367,33.4927114339538,0.0 126.436384201401,33.4927453769433,0.0 126.436438885859,33.4927924333945,0.0 126.436492398366,33.4928425459317,0.0 126.436520913556,33.492871891759,0.0 126.436537887188,33.492898120244,0.0 126.436551085461,33.4929251194728,0.0 126.436562914391,33.4929558931431,0.0 126.436570484203,33.4929796077958,0.0 126.43657277245,33.4929991771503,0.0 126.436574657042,33.4930308051387,0.0 126.436570885125,33.4930570344731,0.0 126.436552029295,33.4931172045996,0.0 126.436517143831,33.4932205774607,0.0 126.436497083178,33.493266007516,0.0 126.43646210061,33.4933394830055,0.0 126.436448829423,33.4933631503382,0.0 126.436439829291,33.4933764051369,0.0 126.436426629642,33.4933949194959,0.0 126.436407772217,33.4934057193159,0.0 126.436393900752,33.493410506663,0.0 126.436258600838,33.4934185970673,0.0 126.435950003355,33.4938083298719,0.0 126.435962315408,33.4938979407368,0.0 126.435969857371,33.4939950340326,0.0 126.435919981741,33.4941850340064,0.0</coordinates>
</LineString>
<LineString>
<coordinates>126.435919981741,33.4941850340064,0.0 126.435775076954,33.4941619850091,0.0 126.435729022084,33.4941565261226,0.0 126.435605556563,33.4943789831207,0.0 126.435720943662,33.4943421861286,0.0 126.435804857958,33.4942990326185,0.0 126.435856715244,33.494264356348,0.0 126.435897256951,33.4942312205503,0.0 126.435914228244,33.4942069481557,0.0 126.435919981741,33.4941850340064,0.0</coordinates>
</LineString>
<LineString>
<coordinates>126.466814028816,33.5084829165761,0.0 126.46683084821,33.5084095187973,0.0 126.466834300976,33.5083707943603,0.0 126.466839430177,33.5083251484084,0.0 126.466843200376,33.5082838762446,0.0 126.466846972494,33.508241833975,0.0 126.466856648336,33.5081868408085,0.0 126.466865886265,33.5081411586591,0.0 126.466899829329,33.5080113143377,0.0 126.466950743224,33.5078491056865,0.0 126.467003072799,33.5076946017707,0.0 126.46700495834,33.5076526048629,0.0 126.467001993942,33.507627896622,0.0 126.466997828874,33.5076038620649,0.0 126.466994114621,33.5075944244909,0.0 126.466986572032,33.5075674541337,0.0 126.466978087163,33.5075289240962,0.0 126.466974927805,33.5075030384033,0.0 126.466977143502,33.5074811477768,0.0 126.466984471284,33.5074473906952,0.0 126.466987514718,33.5074333716781,0.0 126.466995527043,33.5074103568654,0.0 126.46700442947,33.5073870896479,0.0 126.467015298147,33.5073657440365,0.0 126.467035601197,33.5073293410943,0.0 126.467062471451,33.5072858025374,0.0 126.467057575134,33.507255342186,0.0 126.467055344356,33.5072281766639,0.0 126.467053514198,33.5072029653832,0.0 126.467054058124,33.5071865535038,0.0 126.467057229667,33.5071695486479,0.0 126.467062885491,33.5071556631582,0.0 126.467070429971,33.5071440911196,0.0 126.467085514244,33.5071340616378,0.0 126.467100658483,33.5071274467311,0.0 126.467123868176,33.5071202197777,0.0 126.467153659938,33.5071184330436,0.0 126.467170372581,33.5071194058099,0.0 126.467196542709,33.5071225101622,0.0 126.467210029663,33.5071251355448,0.0 126.467265820572,33.5071377492039,0.0 126.467291999424,33.5071410049908,0.0 126.467333934817,33.5071405321536,0.0 126.467383771193,33.5071336548194,0.0 126.467414607949,33.5071262095412,0.0 126.467436571264,33.5071174726323,0.0 126.467470676911,33.5070983734001,0.0 126.467504143475,33.5070762054104,0.0 126.467531801557,33.5070564369862,0.0 126.46766710116,33.5069431599297,0.0 126.467723200137,33.5068919153066,0.0 126.467779300943,33.5068447172513,0.0 126.467712065542,33.506817799467,0.0 126.467663800837,33.5068034558144,0.0 126.46760669961,33.5067925736853,0.0 126.467589986391,33.5067924288957,0.0 126.46753755434,33.5067919721051,0.0 126.467481812769,33.5067914860569,0.0 126.467315629084,33.5067893505417,0.0 126.467283515337,33.5067861476748,0.0 126.467254277152,33.506781558442,0.0 126.467200544418,33.5067691766258,0.0 126.46713264862,33.5067506863778,0.0 126.467077972509,33.5067321488821,0.0 126.467040545589,33.5067205233447,0.0 126.466911037433,33.5066723746028,0.0 126.466858760033,33.5066529388141,0.0 126.466794640808,33.5066267632487,0.0 126.466768714406,33.5066002346172,0.0 126.466701771514,33.5065547196594,0.0 126.466621942924,33.5065487757794,0.0 126.466546131705,33.5065540709336,0.0 126.466483972687,33.506556261833,0.0 126.46641545858,33.506557251928,0.0 126.466387589314,33.5065534335755,0.0 126.466361401091,33.5065470045543,0.0 126.466341127967,33.5065401503692,0.0 126.466321846222,33.5065312682273,0.0 126.466173143,33.5066007909998,0.0 126.46604868475,33.506606954777,0.0 126.466035570753,33.5065896659434,0.0 126.466028106037,33.5065798271151,0.0 126.466020086593,33.5065639768186,0.0 126.466011913887,33.5065414545257,0.0 126.466008121067,33.5065248781924,0.0 126.466004162688,33.5065075809997,0.0 126.466000376094,33.5064962827202,0.0 126.465995571307,33.5064860620391,0.0 126.46598811792,33.5064767082757,0.0 126.465978600862,33.5064667763477,0.0 126.465972943375,33.5064528906087,0.0 126.465968961164,33.5064415758325,0.0 126.465943315949,33.5063290027477,0.0 126.465885000029,33.5063263167967,0.0 126.4644976855,33.5063083520933,0.0 126.464352243838,33.5063050004305,0.0 126.464051715258,33.5063056551209,0.0 126.464036629289,33.5062709769947,0.0 126.463858799717,33.5062683299059,0.0 126.463768858617,33.5062594189495,0.0 126.463744343195,33.5062547946315,0.0 126.463730174281,33.5062467772741,0.0 126.463721715504,33.5062432357409,0.0 126.46346997296,33.5047529138207,0.0 126.463390771216,33.5043248502048,0.0 126.463219171531,33.503269139815,0.0 126.463199371187,33.5031431492246,0.0 126.463168145609,33.5028492508009,0.0 126.463162951526,33.5028334239651,0.0 126.46315376107,33.5028141815329,0.0 126.463140466705,33.5028005416695,0.0 126.463123028105,33.5027958861861,0.0 126.463081315532,33.5027955370678,0.0 126.462870314931,33.5028013917044,0.0 126.462730771415,33.5028067857116,0.0 126.462535417209,33.5028332893718,0.0 126.462498456586,33.5028401030627,0.0 126.462466928882,33.5028449744586,0.0 126.462282365335,33.5028842869279,0.0 126.462249543965,33.5028917880848,0.0 126.46222815422,33.5028983209146,0.0 126.461465457432,33.5031350585373,0.0 126.461018542716,33.5032799293242,0.0 126.460451000265,33.5034822225295,0.0 126.460404800507,33.5033797334976,0.0 126.460458067129,33.503358460737,0.0 126.460509399257,33.5033379583573,0.0 126.46049720033,33.5030830564689,0.0 126.460503246077,33.5029934180543,0.0 126.460550003796,33.502666667301,0.0 126.460582944026,33.502303205224,0.0 126.460533600139,33.5022802342057,0.0 126.460510214724,33.5022707304775,0.0 126.460487401537,33.5022655764847,0.0 126.460460056719,33.5022632618224,0.0 126.460262999754,33.502263461099,0.0 126.460205485475,33.5022671196592,0.0 126.460155206635,33.5022733843417,0.0 126.460096115248,33.5022817775034,0.0 126.460043418443,33.5022921548479,0.0 126.459736258692,33.5023536778267,0.0 126.459706692671,33.5023179940714,0.0 126.459693515714,33.5023041489501,0.0 126.459679164618,33.502292880673,0.0 126.459516258166,33.5021760907321,0.0 126.459394629822,33.5020920050606,0.0 126.459380487216,33.5020858326418,0.0 126.459358799717,33.5020873767791,0.0 126.459191915539,33.5021082049108,0.0 126.459166405019,33.5021098165335,0.0 126.458983543976,33.502105891594,0.0 126.458957144498,33.5020958624122,0.0 126.458942057369,33.5020827481621,0.0 126.458894915354,33.5020187187397,0.0 126.45888360038,33.5019948043889,0.0 126.458849679427,33.5017987411498,0.0 126.458840227966,33.501771862157,0.0 126.458830799882,33.5017533479021,0.0 126.458781206735,33.5017059327892,0.0 126.458757257809,33.5016854622904,0.0 126.458734630068,33.5016754339351,0.0 126.458703092759,33.5016711949537,0.0 126.458223600819,33.501632233197,0.0 126.458168286422,33.5016189193026,0.0 126.45796934371,33.501588096612,0.0 126.457688370587,33.5015549601292,0.0 126.457639510929,33.5016657828652,0.0 126.457548829138,33.501851638589,0.0 126.457253099622,33.5016943268731,0.0 126.4572222858,33.5016800627616,0.0 126.457199827252,33.5016722688485,0.0 126.456579428301,33.5015287851637,0.0 126.456553799635,33.5015203765228,0.0 126.456533058105,33.5015088052462,0.0 126.456438771045,33.5014069760203,0.0 126.456385971236,33.5013684055846,0.0 126.456364029715,33.5013572375821,0.0 126.456263400505,33.5013144058654,0.0 126.456230755422,33.5013050941618,0.0 126.456069170712,33.5012604050079,0.0 126.456043714188,33.5012488335553,0.0 126.456023227139,33.5012364909146,0.0 126.4558915721,33.5011384480129,0.0 126.455911787644,33.5011215760772,0.0 126.455843256184,33.5010716155228,0.0 126.455825669173,33.501086768984,0.0 126.455700228827,33.5009827317899,0.0 126.455587505764,33.5008833332277,0.0 126.455522574106,33.5008037209755,0.0 126.455475001103,33.5007333357549,0.0 126.45543694508,33.5006235129143,0.0 126.455412504568,33.5004916662145,0.0 126.455385595639,33.5004099143756,0.0 126.455375885283,33.5003886071014,0.0 126.455345839924,33.5003319339894,0.0 126.455287258282,33.5002406543407,0.0 126.455218429779,33.5001651360165,0.0 126.454814056458,33.5000628095883,0.0 126.454776192075,33.5000000007874,0.0 126.454726071534,33.4999185054749,0.0 126.454712872827,33.4998814756407,0.0 126.454706593162,33.499854704572,0.0 126.454702501571,33.4998359630962,0.0 126.454700999855,33.499806692425,0.0 126.454699715745,33.499741717268,0.0 126.454675158583,33.4994556470095,0.0 126.454655357401,33.4993345345681,0.0 126.454649439785,33.4993171136971,0.0 126.454642201126,33.4992990128465,0.0 126.454634614085,33.4992882486037,0.0 126.454624243979,33.4992797624341,0.0 126.454608800212,33.4992743832992,0.0 126.454437274947,33.4992586047007,0.0 126.454424357869,33.4992527629941,0.0 126.454417800158,33.4992469969742,0.0 126.454410214093,33.4992334764736,0.0 126.454406971048,33.499220784215,0.0 126.454404634946,33.4990413989033,0.0 126.454401728767,33.4990228766028,0.0 126.454394390768,33.4990066503842,0.0 126.453935854811,33.4983144217664,0.0 126.453925521168,33.4983047220388,0.0 126.453915215453,33.4982969613363,0.0 126.453897300264,33.4982923330201,0.0 126.453879386973,33.49829464792,0.0 126.453723815509,33.4983386189263,0.0 126.453651215579,33.498359447555,0.0 126.453635186276,33.4983594475986,0.0 126.453621086405,33.498356579421,0.0 126.453605199577,33.4983443561581,0.0 126.453226101588,33.4979312428571,0.0 126.453209957927,33.4979081619114,0.0 126.453196799725,33.4978857485978,0.0 126.453185442733,33.4978580196544,0.0 126.453181714198,33.497837971603,0.0 126.453176601604,33.4977963897463,0.0 126.453172286242,33.4977004211587,0.0 126.453172286512,33.4976798200022,0.0 126.453168471515,33.4976643902961,0.0 126.453159987162,33.4976466487565,0.0 126.453144919774,33.4976295743741,0.0 126.453122549994,33.4976131043688,0.0 126.453115556608,33.4976085065711,0.0 126.452769487653,33.4973810059766,0.0 126.45273570124,33.4973604489756,0.0 126.452689648417,33.4973354323309,0.0 126.452670917401,33.4973272072641,0.0 126.452361601326,33.4972156202901,0.0 126.452343385504,33.4972005757822,0.0 126.452325325057,33.4971949413872,0.0 126.452022642071,33.4971323704412,0.0 126.451866893086,33.4971039957768,0.0 126.451637314832,33.4970696929127,0.0 126.45122811567,33.4969849283491,0.0 126.451040356937,33.4969552605514,0.0 126.450938657352,33.496947554277,0.0 126.450795027393,33.4969438543007,0.0 126.450603916104,33.4969467453047,0.0 126.450391277276,33.4969494536448,0.0 126.450302367349,33.4969577194713,0.0 126.450216012281,33.4969772807058,0.0 126.450151157506,33.4969992788282,0.0 126.450089013921,33.4970285458553,0.0 126.450024901328,33.4970748329607,0.0 126.449916736772,33.4971503597385,0.0 126.449821371293,33.4972184175535,0.0 126.449698671239,33.4972970032521,0.0 126.449613815018,33.4973425175698,0.0 126.449495142015,33.4974245496252,0.0 126.44910449998,33.4976916533296,0.0 126.448856828391,33.4977871132767,0.0 126.448798457968,33.4978085436489,0.0 126.448414629739,33.497977063057,0.0 126.448272130002,33.4980283174942,0.0 126.448167600273,33.498046030825,0.0 126.44791761512,33.4980807750098,0.0 126.44789605809,33.4978980788305,0.0 126.447443357102,33.4979149180338,0.0 126.447361514594,33.4979745745335,0.0 126.447258556806,33.4978416320259,0.0 126.44721250579,33.4977750026346,0.0 126.447192744103,33.4977493183385,0.0 126.446919315814,33.4978094894266,0.0 126.446817485954,33.4978249175069,0.0 126.446747656289,33.4978314217836,0.0 126.446690142667,33.4978321917912,0.0 126.446540228898,33.4978237163871,0.0 126.446311113792,33.4978167807323,0.0 126.446291314909,33.4978144693337,0.0 126.446055113297,33.4977651663953,0.0 126.44602920077,33.4977597560451,0.0 126.445922658568,33.4977543638066,0.0 126.445897200885,33.4977578304754,0.0 126.44578782976,33.4977794079089,0.0 126.445677515321,33.4977855726039,0.0 126.445601215802,33.4977867596956,0.0 126.445569086133,33.4977836452348,0.0 126.445507800724,33.4977655363831,0.0 126.445298485502,33.4977015775263,0.0 126.444944914912,33.4975863739867,0.0 126.444484800288,33.4974361078784,0.0 126.444085170404,33.4973129910587,0.0 126.443622086893,33.4971856668673,0.0 126.443572425639,33.4971642305421,0.0 126.443094086672,33.4969556457847,0.0 126.44285742842,33.496854312605,0.0 126.442842382062,33.4968731999781,0.0 126.442836170827,33.4968867911589,0.0 126.442828628256,33.4969029918113,0.0 126.442826349531,33.496921488287,0.0 126.442827930477,33.4969561258184,0.0 126.442823486879,33.4969706717488,0.0 126.442811657592,33.496980133188,0.0 126.442792813289,33.4969860689509,0.0 126.442429000282,33.4970736725614,0.0 126.442408115126,33.4970750202163,0.0 126.442380771749,33.4970757914353,0.0 126.442359086004,33.497074247737,0.0 126.442337401626,33.4970696202623,0.0 126.442292143291,33.4970464770952,0.0 126.442088487293,33.496936933597,0.0 126.441542142321,33.4966316116609,0.0 126.441385708257,33.4965321770232,0.0 126.441254971939,33.4964490748607,0.0 126.441221029316,33.4964243897753,0.0 126.441196513987,33.4963989325515,0.0 126.44117442955,33.4963746196249,0.0 126.441051123264,33.4962308717029,0.0 126.441032456128,33.4962137887761,0.0 126.441012337062,33.4961962662649,0.0 126.440952037166,33.4961506517533,0.0 126.440929687132,33.4961351034444,0.0 126.440898208426,33.4961190636897,0.0 126.440792028257,33.4960664456515,0.0 126.440637496825,33.4960416680152,0.0 126.440179714494,33.4959712161052,0.0 126.439729971042,33.4959007063443,0.0 126.439567799858,33.4958567829479,0.0 126.439515000382,33.495834436284,0.0 126.439313228869,33.4957435056398,0.0 126.439101086673,33.4956826290044,0.0 126.438974996824,33.4956166698341,0.0 126.438900258573,33.4955874610278,0.0 126.438762600622,33.4955535555036,0.0 126.438515572973,33.4954988438928,0.0 126.438432601262,33.4954946044589,0.0 126.438363772923,33.4955038528886,0.0 126.438260455892,33.4955306632814,0.0 126.437741487007,33.4957007388665,0.0 126.437537499238,33.4957499999462,0.0 126.437442600645,33.4957727890276,0.0 126.437336058091,33.4957774108998,0.0 126.43724837209,33.4957635414447,0.0 126.437177656883,33.4957388811401,0.0 126.437087499388,33.4956999986281,0.0 126.436900004513,33.4955666670148,0.0 126.436589314459,33.4952880864833,0.0 126.43655118084,33.4952499407346,0.0 126.436526143098,33.4952248981321,0.0 126.436467686651,33.495157085462,0.0 126.436423371152,33.4950831093341,0.0 126.436412497651,33.4950416695226,0.0 126.436402628639,33.495019150587,0.0 126.436387499148,33.4948333309537,0.0 126.436394143917,33.4947760286381,0.0 126.436412506577,33.4947416690337,0.0 126.436450715766,33.4947151523617,0.0 126.436512502299,33.4947000023145,0.0 126.436571401139,33.4946885668554,0.0 126.436637498711,33.4946666674411,0.0 126.43671000069,33.4946276903943,0.0 126.436787503847,33.4945750047036,0.0 126.436872173072,33.4945028533086,0.0 126.436913656247,33.4944481426238,0.0 126.436960190494,33.4944019262143,0.0 126.436887815468,33.4943309892545,0.0 126.436853145137,33.4943291889637,0.0 126.43680971552,33.4943245374359,0.0 126.436760065081,33.4943175386647,0.0 126.436609672775,33.4942947320007,0.0 126.435919981741,33.4941850340064,0.0</coordinates>
</LineString>
<LineString>
<coordinates>126.466814028816,33.5084829165761,0.0 126.466871544258,33.5084104807967,0.0 126.466940099049,33.5083186539146,0.0 126.466956400196,33.5082968190999,0.0 126.466973721654,33.5082644934879,0.0 126.467012971893,33.5081912469481,0.0 126.467029436184,33.508158056532,0.0 126.467041258418,33.5081342240982,0.0 126.467066714336,33.5080941538892,0.0 126.467079352151,33.5080758424094,0.0 126.467089285684,33.5080636335699,0.0 126.467104371833,33.5080482055478,0.0 126.467123471476,33.5080362228622,0.0 126.467140257529,33.5080286533481,0.0 126.467162886573,33.5080247998451,0.0 126.467176972257,33.5080281480501,0.0 126.467191172964,33.5080359742659,0.0 126.467209085246,33.5080667974472,0.0 126.467219399876,33.5080852331394,0.0 126.467230772694,33.5080976212724,0.0 126.467247685293,33.5081060613061,0.0 126.467272376771,33.5081113034926,0.0 126.467304571225,33.5081153872573,0.0 126.467346579257,33.5081184645212,0.0 126.467375028316,33.5081161149641,0.0 126.467404352505,33.5081112889296,0.0 126.467515514143,33.5080929976657,0.0 126.467554172102,33.5080852911094,0.0 126.467624573033,33.5080691658121,0.0 126.467664428711,33.5080636336899,0.0 126.467704320802,33.5080610111449,0.0 126.467826655087,33.5080664844429,0.0 126.467863372206,33.5080667199075,0.0 126.467893858397,33.5080641416898,0.0 126.467950713875,33.5080567743356,0.0 126.468069914222,33.5080278817911,0.0 126.468112599831,33.5080179411833,0.0 126.46820499998,33.5079963651889,0.0 126.468252772724,33.5079841763559,0.0 126.468305572757,33.5079687479616,0.0 126.468343286043,33.5079548624088,0.0 126.468391839997,33.5079348709178,0.0 126.468434742328,33.507915519895,0.0 126.468407399964,33.5078553476829,0.0 126.468398412578,33.5078309790556,0.0 126.468387601382,33.5077959489558,0.0 126.468378520896,33.5077629249044,0.0 126.468372514636,33.5077296055236,0.0 126.46837119716,33.5077041843929,0.0 126.468373515753,33.5076795741227,0.0 126.468381943117,33.5076540051435,0.0 126.468391429442,33.5076341105229,0.0 126.468404572495,33.5076131189693,0.0 126.468427201265,33.5075845761999,0.0 126.46845124804,33.5075617960992,0.0 126.468467801302,33.507548574887,0.0 126.46848543248,33.5075371049174,0.0 126.468514000334,33.5075185218773,0.0 126.468527142568,33.5075035767762,0.0 126.468532857436,33.5074892386644,0.0 126.468542285477,33.5074499380218,0.0 126.468548884946,33.5074152626313,0.0 126.468551902574,33.5073918218913,0.0 126.46855448635,33.5073500614146,0.0 126.468550499886,33.5072659093586,0.0 126.468547853024,33.5072376631044,0.0 126.468542287077,33.5071783058324,0.0 126.468537572209,33.5071328409564,0.0 126.468533586217,33.5070845956184,0.0 126.468530914067,33.5070222045221,0.0 126.468530029148,33.5069806480151,0.0 126.46852620049,33.5069234625371,0.0 126.46852431482,33.5068733190145,0.0 126.46852714208,33.5068146910984,0.0 126.468533744259,33.5067745769836,0.0 126.468544113934,33.5067282908761,0.0 126.468552657552,33.5066982276269,0.0 126.468573878813,33.506684668184,0.0 126.468599114459,33.5066766943029,0.0 126.468679487627,33.5066648939641,0.0 126.468812247284,33.5066541153596,0.0 126.468834515089,33.5066503774424,0.0 126.468853542149,33.5066464628158,0.0 126.468867571072,33.5066369654506,0.0 126.468877887159,33.5066226061661,0.0 126.468886936841,33.506582330192,0.0 126.468902714186,33.5065033101673,0.0 126.468917281809,33.5063423399913,0.0 126.468923457002,33.5062590338209,0.0 126.46891859612,33.5061440310743,0.0 126.46891591582,33.5060806424365,0.0 126.468909314689,33.5060070493907,0.0 126.468910885988,33.5059715201618,0.0 126.468916544435,33.5059530045133,0.0 126.468929743589,33.5059314050807,0.0 126.468943001088,33.5059201226824,0.0 126.468962600278,33.5059040769109,0.0 126.468995485134,33.5058781950782,0.0 126.469064429948,33.5058239349572,0.0 126.46912100082,33.505793111466,0.0 126.469381989144,33.505617515275,0.0 126.469406199845,33.5056071138867,0.0 126.469438865944,33.5056074830689,0.0 126.469632899377,33.5056301364006,0.0 126.470198664563,33.5057393846386,0.0 126.470229314175,33.5057423521825,0.0 126.470263987673,33.5057486670578,0.0 126.470316057752,33.5057492875754,0.0 126.470364142917,33.5057593052302,0.0 126.470395920448,33.505775063711,0.0 126.470652600143,33.5059133288785,0.0 126.470670571565,33.5059207439928,0.0 126.470702628079,33.50592382605,0.0 126.470725200251,33.5059187229251,0.0 126.470820751163,33.5058279663772,0.0 126.470856315683,33.5058063108747,0.0 126.470885571881,33.5058014850902,0.0 126.471223085991,33.505798220464,0.0 126.471285313346,33.505794366396,0.0 126.471332457829,33.505787432628,0.0 126.471957570778,33.5056899521377,0.0 126.472031999507,33.5056827309185,0.0 126.472459699701,33.5056554104384,0.0 126.472579858356,33.5056487261717,0.0 126.472616630041,33.5056556600167,0.0 126.472643116254,33.5056660839255,0.0 126.472808412958,33.5057595395437,0.0 126.472845743952,33.5057762583463,0.0 126.472895875989,33.5057919773554,0.0 126.473325657887,33.5059084153809,0.0 126.473599086996,33.5059962615717,0.0 126.473632085704,33.5060124444088,0.0 126.473649056907,33.5060332511551,0.0 126.473675002835,33.5063083331578,0.0 126.473687497599,33.5063333387603,0.0 126.473708246478,33.5063478649849,0.0 126.47375000107,33.5063583342276,0.0 126.473947000669,33.5064046755122,0.0 126.474145943805,33.506457845327,0.0 126.474300001718,33.5065166643542,0.0 126.474440159406,33.5065748088304,0.0 126.474607337508,33.5066606567957,0.0 126.474925004325,33.5068499966828,0.0 126.475092572435,33.5069479412855,0.0 126.475441429654,33.5070970517114,0.0 126.475777086342,33.507210712822,0.0 126.475960001539,33.5072642685353,0.0 126.47608162956,33.5072881573749,0.0 126.476224000365,33.5073051102653,0.0 126.47638994326,33.5073058809696,0.0 126.476512286579,33.5073041911602,0.0 126.476504028056,33.5073274572527,0.0 126.47643497229,33.5075163340533,0.0 126.47631451542,33.5078202504661,0.0 126.476243571968,33.5080324183342,0.0 126.476222999807,33.5081141361567,0.0 126.476213629262,33.5081658605861,0.0 126.476203972826,33.5082198754028,0.0 126.476200800093,33.5083005716476,0.0 126.476191715595,33.508415048263,0.0 126.476194314522,33.5085125262627,0.0 126.47619714252,33.5086288865344,0.0 126.47620185773,33.5086512331756,0.0 126.476205144412,33.5086732955226,0.0 126.476166485121,33.508718760579,0.0 126.476164372547,33.5087290194887,0.0 126.47615798738,33.5087354805515,0.0 126.476039380065,33.5087944409319,0.0 126.476087285902,33.508876345451,0.0 126.476198721104,33.5088283474722,0.0 126.476296778836,33.5088113938374,0.0 126.476715683728,33.5088180851044,0.0 126.47680132469,33.508818962055,0.0 126.476913559312,33.5088143913849,0.0 126.477286600217,33.5088293389694,0.0 126.477364858728,33.5088362748248,0.0 126.477402572276,33.5088420551764,0.0 126.477774058395,33.5089668897072,0.0 126.477842124906,33.509007981051,0.0 126.477881066265,33.5090288914392,0.0 126.477932521261,33.5090625529034,0.0 126.477981486036,33.5090921119881,0.0 126.478286972621,33.5091961416771,0.0 126.478514199867,33.5092493126796,0.0 126.47866600028,33.5092870716525,0.0 126.478676807075,33.5092889498134,0.0 126.478730247766,33.5092974934771,0.0 126.478767156524,33.5093045130691,0.0 126.478813087261,33.5093009414617,0.0 126.479630722621,33.509444433255,0.0 126.479862665157,33.5094887421163,0.0 126.479979579782,33.5095284295309,0.0 126.480162493797,33.5096097255159,0.0 126.480257722403,33.5096544196618,0.0 126.480654665367,33.5098859830973,0.0 126.481082722713,33.5101541477941,0.0 126.481139294125,33.5101861275703,0.0 126.481207943117,33.5102152483683,0.0 126.481451378134,33.5102928554449,0.0 126.481492687257,33.5103050205242,0.0 126.482150035633,33.5104758694209,0.0 126.482827008279,33.510627676325,0.0 126.483134377969,33.5107135976937,0.0 126.483445159456,33.5108182912755,0.0 126.483463971695,33.5108265338683,0.0 126.483485453053,33.5108379405056,0.0 126.483509229839,33.5108550772134,0.0 126.483518657987,33.5108697346135,0.0 126.48352642881,33.5108899002863,0.0 126.483558486412,33.5109253467673,0.0 126.483618829518,33.5110116530441,0.0 126.483697086595,33.5111488187579,0.0 126.483764029484,33.5112952316104,0.0 126.483813057431,33.5114574399363,0.0 126.48388848635,33.5118327180997,0.0 126.483977114552,33.5122569288029,0.0 126.483989142001,33.5123076766342,0.0 126.484112885516,33.5126842206619,0.0 126.484295800284,33.5132378901947,0.0 126.48451360098,33.5140924761071,0.0 126.48469557142,33.5145313279167,0.0 126.484734386429,33.5145825913906,0.0 126.484846586273,33.5147492199365,0.0 126.484906771522,33.5148160609408,0.0 126.484920914199,33.5148526648928,0.0 126.484931444394,33.5148795915173,0.0 126.484945586709,33.5149112202202,0.0 126.484960258654,33.5149403221519,0.0 126.485017499099,33.5150361625075,0.0 126.485080386621,33.5151482238767,0.0 126.485143585878,33.5152529625233,0.0 126.485226579576,33.5153818378333,0.0 126.485231829198,33.5153918489422,0.0 126.485283128293,33.5154813055701,0.0 126.485355749416,33.5156110877859,0.0 126.485374740785,33.5156520510235,0.0 126.485448915273,33.5158120491224,0.0 126.48550020128,33.5159818217582,0.0 126.485525999361,33.5160845908703,0.0 126.485566929467,33.5161509061294,0.0 126.485646129346,33.5162619915845,0.0 126.485745915801,33.5163838279995,0.0 126.485912799468,33.5165876495645,0.0 126.485927340302,33.5166981581108,0.0 126.485933699941,33.5167348765797,0.0 126.485943606886,33.516773696098,0.0 126.485962007831,33.5168182187709,0.0 126.485979696017,33.5168566351815,0.0 126.48600064421,33.5168991909168,0.0 126.48602327223,33.5169385334837,0.0 126.486058000076,33.5169910886412,0.0 126.486130780112,33.5170960169558,0.0 126.486172455603,33.5171452181737,0.0 126.486203357685,33.51717921886,0.0 126.486236847656,33.5172139651517,0.0 126.486274071233,33.5172486489603,0.0 126.486308668687,33.5172723473466,0.0 126.486353293697,33.5173033055002,0.0 126.486425180634,33.5173445550145,0.0 126.486481501635,33.5173790196078,0.0 126.486526297282,33.5174069646651,0.0 126.486668499909,33.5175062286925,0.0 126.486793900699,33.5176033221942,0.0 126.486962200537,33.5177435706979,0.0 126.487110699708,33.5178865145991,0.0 126.487261192836,33.5180413974833,0.0 126.487267844455,33.5180540193378,0.0 126.487269750011,33.5180669607494,0.0 126.487263150915,33.5181008675822,0.0 126.487241700395,33.5181917339482,0.0 126.487242492152,33.5182015604423,0.0 126.487248042559,33.518218334375,0.0 126.487270694066,33.5182472794332,0.0 126.487297012923,33.5182724886356,0.0 126.487326300811,33.5182985621401,0.0 126.487365423098,33.5183281851679,0.0 126.487398578744,33.518350697291,0.0 126.487413986041,33.5183595048765,0.0 126.487494912859,33.5183999623247,0.0 126.487588607978,33.518444696178,0.0 126.487698453037,33.5184895619544,0.0 126.487858094163,33.5185497377167,0.0 126.487923658076,33.5185680644415,0.0 126.489051750702,33.518896887707,0.0 126.48911097156,33.5189125230316,0.0 126.489154344083,33.5189113670438,0.0 126.489427770768,33.5190022971604,0.0 126.48958932361,33.519047915087,0.0 126.489780557907,33.5190969913529,0.0 126.48987939985,33.5191298293974,0.0 126.48992560005,33.5191336819035,0.0 126.489980285321,33.5191371494384,0.0 126.490627086438,33.5192007235349,0.0 126.491017428042,33.5192450325608,0.0 126.4912474856,33.5192812509296,0.0 126.49132951396,33.5193059100165,0.0 126.491458684956,33.5193671712457,0.0 126.491818857115,33.5195120421586,0.0 126.49204042825,33.5195744605725,0.0 126.492071542672,33.5195806248384,0.0 126.492362886511,33.5195979634958,0.0 126.492564657456,33.5196156876598,0.0 126.492733169287,33.5196403077314,0.0 126.492765643803,33.5196431618346,0.0 126.492776957961,33.5196400759175,0.0 126.492787329793,33.5196393048144,0.0 126.492801472687,33.5196385346503,0.0 126.492884188017,33.5196491263629,0.0 126.492918386813,33.5196570489601,0.0 126.492972128606,33.519667848717,0.0 126.493044729204,33.5196886757442,0.0 126.493104128929,33.5197071918402,0.0 126.493183328767,33.5197303343596,0.0 126.493240844364,33.5197488471854,0.0 126.4933087297,33.519771991789,0.0 126.493373786986,33.519796677287,0.0 126.493597264189,33.5198886389597,0.0 126.493820721129,33.5199745590928,0.0 126.493848986597,33.5199818199988,0.0 126.493869572537,33.5199840289586,0.0 126.493904636152,33.5199857334746,0.0 126.494022303599,33.5199850515497,0.0 126.494044943375,33.5199878815896,0.0 126.494227094401,33.5200466103051,0.0 126.494186834105,33.5201808951718,0.0 126.494182756899,33.520203990509,0.0 126.494184486657,33.5202232978038,0.0 126.49419108574,33.5202448746384,0.0 126.494202399972,33.520267221902,0.0 126.494226914472,33.5202988165385,0.0 126.494246714037,33.5203157691812,0.0 126.494263257853,33.5203260136489,0.0 126.49427610021,33.5203335912559,0.0 126.494303141657,33.5203429344975,0.0 126.494338328397,33.5203513337374,0.0 126.494755425129,33.5204486586501,0.0 126.494769000172,33.5204518768409,0.0 126.494813372482,33.5204548600021,0.0 126.49485810036,33.5204518766199,0.0 126.494902943797,33.5204440730489,0.0 126.494927878593,33.520435436873,0.0 126.494950499894,33.5204276037868,0.0 126.494972872812,33.5204253918416,0.0 126.49500154927,33.5204291310932,0.0 126.495016500265,33.520432997328,0.0 126.495060098604,33.5204473828342,0.0 126.495072814508,33.5204601057778,0.0 126.495079462268,33.5204707316977,0.0 126.495088686659,33.5205061055674,0.0 126.495095443515,33.5205318485728,0.0 126.49510015733,33.52054341994,0.0 126.495104873041,33.5205511335533,0.0 126.495118072662,33.5205603912873,0.0 126.495135095254,33.5205663017358,0.0 126.495188100396,33.5205732456002,0.0 126.49522917129,33.5205754581302,0.0 126.495248186143,33.5205735056943,0.0 126.495262329194,33.5205673339347,0.0 126.495270600465,33.5205597581569,0.0 126.495275564186,33.5205456262957,0.0 126.495287865431,33.5205106037589,0.0 126.495298158107,33.5204809332159,0.0 126.495307586154,33.5204655059537,0.0 126.495315856354,33.520450518491,0.0 126.495327767371,33.5204373639354,0.0 126.495345300075,33.5204192191804,0.0 126.495370585434,33.5204016877871,0.0 126.495396214972,33.5203860489807,0.0 126.495427843822,33.5203724917533,0.0 126.495488614,33.520352875566,0.0 126.495580027733,33.5203264732621,0.0 126.495727180183,33.5202874197547,0.0 126.495895006173,33.5203012901018,0.0 126.496164664245,33.5203093814715,0.0 126.496266787167,33.5203052162515,0.0 126.496378985649,33.5202982805489,0.0 126.496469207273,33.5202885744687,0.0 126.496548701169,33.5202767038957,0.0 126.496602442656,33.5202674563214,0.0 126.496709456465,33.5202471864051,0.0 126.49680515761,33.5202262307993,0.0 126.496880114584,33.5202098115237,0.0 126.497888972964,33.5200059917779,0.0 126.498639838656,33.5198628622384,0.0 126.498704071565,33.51984709995,0.0 126.498765357454,33.519827064642,0.0 126.498817469632,33.5198091102831,0.0 126.498862001053,33.5197886851719,0.0 126.49892346529,33.519759950873,0.0 126.499055533117,33.5196872801907,0.0 126.499093471968,33.5196648552165,0.0 126.499136453595,33.5196324434161,0.0 126.499209915542,33.5195748456614,0.0 126.499279880198,33.5195057927184,0.0 126.499296185536,33.5194868491852,0.0 126.499325642159,33.5194520512522,0.0 126.499385757638,33.5193716448193,0.0 126.499407724598,33.5193413019555,0.0 126.499711409864,33.518853982439,0.0 126.49973461488,33.5188133511085,0.0 126.499754111065,33.5187730801133,0.0 126.499828574716,33.5186128187085,0.0 126.499847757836,33.5185629100955,0.0 126.499869202729,33.5185058321084,0.0 126.499999999974,33.5181202598706,0.0 126.500075636794,33.5178766263598,0.0 126.500090971556,33.5178465507506,0.0 126.500105157849,33.5178204452974,0.0 126.500124914772,33.5178003167981,0.0 126.500259492679,33.5176901436726,0.0 126.500341866887,33.5176350761381,0.0 126.500432979844,33.5175741696518,0.0 126.500491728441,33.5175414915488,0.0 126.500561500177,33.5175129803288,0.0 126.500628442092,33.5174906319959,0.0 126.500675586127,33.517479072973,0.0 126.500986435774,33.5174235190465,0.0 126.501654785995,33.5173318139007,0.0 126.50175040067,33.5173202372273,0.0 126.501820238629,33.5173160631606,0.0 126.501973777362,33.5173131519672,0.0 126.502335834425,33.5173062883112,0.0 126.50261114271,33.5173029621502,0.0 126.502648893043,33.5173011451184,0.0 126.502693172512,33.5172991059557,0.0 126.502736542912,33.5172952489241,0.0 126.502778971172,33.5172890766736,0.0 126.502840257654,33.5172728756226,0.0 126.503387115544,33.5170869633063,0.0 126.503696458302,33.516987343079,0.0 126.504034043911,33.5168641424892,0.0 126.504145299888,33.5168317763762,0.0 126.504232043252,33.5168117426157,0.0 126.5042619226,33.5168062754246,0.0 126.504287357024,33.5168035342612,0.0 126.504344893033,33.5168039626365,0.0 126.504418600295,33.5168069342777,0.0 126.504551380094,33.5168174482679,0.0 126.504663522577,33.5168337811187,0.0 126.504729557731,33.516843648462,0.0 126.504775535962,33.5168488230525,0.0 126.504915016726,33.516864605208,0.0 126.504961500192,33.5168691055951,0.0 126.505031297229,33.5168725959418,0.0 126.505172722039,33.5168794805743,0.0 126.505267172435,33.516877905086,0.0 126.50532923632,33.516873702383,0.0 126.505362401256,33.5168709619738,0.0 126.505403886812,33.5168663325068,0.0 126.505451157225,33.5168560514384,0.0 126.505501104678,33.5168374729654,0.0 126.505563064678,33.5168128249689,0.0 126.505737743621,33.516734202614,0.0 126.506047042705,33.516590196825,0.0 126.506116280583,33.5165590110755,0.0 126.506152329871,33.5165435620535,0.0 126.50620638576,33.5165208436043,0.0 126.506260000768,33.5165014481556,0.0 126.506354122325,33.5164660597022,0.0 126.506424184913,33.5164376201417,0.0 126.506461228524,33.5164260136609,0.0 126.506480444204,33.5164201339601,0.0 126.506508833283,33.5164161752515,0.0 126.506565572354,33.5164124813485,0.0 126.5067190086,33.5164132736783,0.0 126.506909215129,33.5164243028841,0.0 126.50695120129,33.5164267373896,0.0 126.507377122806,33.5164217510062,0.0 126.507728114379,33.516405545776,0.0 126.50791738864,33.5163877196112,0.0 126.507959972573,33.5163841913382,0.0 126.507996742836,33.5163764768661,0.0 126.508035485919,33.5163677878652,0.0 126.508068399836,33.5163571909918,0.0 126.508258692407,33.5162865113256,0.0 126.50840848887,33.5162120314381,0.0 126.508563236125,33.5161350907035,0.0 126.50868510254,33.5160707370777,0.0 126.508707657549,33.5160609621198,0.0 126.508729342595,33.516053247806,0.0 126.508761401296,33.5160455333818,0.0 126.508921772785,33.5160121599608,0.0 126.509177287363,33.5159744009775,0.0 126.509322486368,33.5159466598549,0.0 126.509563608748,33.5158981331321,0.0 126.510063486279,33.5157832487014,0.0 126.510245957878,33.5157423131494,0.0 126.510296372738,33.5157307908854,0.0 126.510350879666,33.5157208437462,0.0 126.510412585727,33.5157101713125,0.0 126.510607227904,33.5156713819018,0.0 126.510605442597,33.5157196774071,0.0 126.510599786058,33.5157351057282,0.0 126.51058703249,33.5157433282477,0.0 126.510579699846,33.5157450427791,0.0 126.510553884278,33.5157573495763,0.0 126.510545101631,33.5157636468471,0.0 126.51054023293,33.5157745823678,0.0 126.510537456957,33.5157855527713,0.0 126.510540101269,33.5158124688017,0.0 126.510545000309,33.5158356964467,0.0 126.510554428377,33.515856524386,0.0 126.510565931418,33.5158758881024,0.0 126.510574329504,33.5158855335753,0.0 126.510586586395,33.5158778190385,0.0 126.51061714616,33.5158469851186,0.0 126.510629958791,33.5158323053616,0.0 126.510652586721,33.5158137911736,0.0 126.510675214579,33.5157975917583,0.0 126.510696900641,33.5157752188659,0.0 126.510727070414,33.5157543912202,0.0 126.510759028151,33.5157361805262,0.0 126.510788257962,33.5157222957465,0.0 126.510819898587,33.5157092526327,0.0 126.510849544253,33.5156983811959,0.0 126.510873783241,33.5156942110851,0.0 126.510896114515,33.5156904374967,0.0 126.510917428617,33.5156937536995,0.0 126.510933557883,33.5157003902928,0.0 126.510945675447,33.5157098221278,0.0 126.511002285839,33.5157608678599,0.0 126.511048900584,33.5158097733062,0.0 126.511060743876,33.5158202670223,0.0 126.511074315556,33.5158279890966,0.0 126.511088085981,33.5158310666863,0.0 126.511103171142,33.5158326101178,0.0 126.511119497609,33.5158285033995,0.0 126.511134722436,33.5158226813893,0.0 126.511137215266,33.5158153341871,0.0 126.511133006794,33.5158031360336,0.0 126.511126872115,33.5157907650643,0.0 126.511114900258,33.5157666189198,0.0 126.51111597861,33.5157569808786,0.0 126.51112203007,33.5157446675618,0.0 126.511134701399,33.5157342539614,0.0 126.511220501024,33.5156803139989,0.0 126.51126123425,33.5156500064669,0.0 126.511292785792,33.515629419262,0.0 126.511316072252,33.5156193193732,0.0 126.511345857132,33.5156149198463,0.0 126.511378586281,33.5156178487109,0.0 126.511411602099,33.5156247521346,0.0 126.511438300502,33.5156317653214,0.0 126.511507599793,33.5156587354641,0.0 126.511551970767,33.5156760097239,0.0 126.511572815041,33.5156880483094,0.0 126.51159521157,33.5157061556836,0.0 126.51161241556,33.5157165908352,0.0 126.511634101527,33.5157135044708,0.0 126.51172935139,33.5156835233318,0.0 126.511775551495,33.5156735059838,0.0 126.511870238204,33.5156900425995,0.0 126.511885865208,33.5156927704921,0.0 126.511970721228,33.5156973937905,0.0 126.512001835731,33.5156989356077,0.0 126.512287501325,33.5157000033344,0.0 126.512560949881,33.5157000911379,0.0 126.512604084708,33.5156962138955,0.0 126.512653985689,33.5156872050283,0.0 126.512695347697,33.51567618873,0.0 126.512735378727,33.5156607909797,0.0 126.512766186402,33.5156455487056,0.0 126.512800129185,33.5156224061161,0.0 126.512827472772,33.5155961761147,0.0 126.512901957625,33.5154989754224,0.0 126.512938728772,33.5154480620292,0.0 126.512995725375,33.5153529838472,0.0 126.5130188716,33.5153230915754,0.0 126.513035848431,33.5153045803577,0.0 126.513066957309,33.5152814327267,0.0 126.513136729676,33.5152544336857,0.0 126.513259299546,33.5152305189924,0.0 126.513347641666,33.5152129593515,0.0 126.513493976545,33.5151922657775,0.0 126.513637835732,33.5151719227905,0.0 126.513661899704,33.5151657200074,0.0 126.513687356743,33.5151587774541,0.0 126.513718472462,33.5151456628038,0.0 126.513752414174,33.515124833616,0.0 126.513891200169,33.5150372679601,0.0 126.513939286795,33.5150094952427,0.0 126.513977943156,33.5149855811864,0.0 126.514143064644,33.5148940527703,0.0 126.514533099703,33.5148455707133,0.0 126.514723794719,33.5148104701515,0.0 126.51469099361,33.5147460813273,0.0 126.514683299719,33.5147276196969,0.0 126.514682357034,33.5147137334327,0.0 126.514684244082,33.5146975339804,0.0 126.514694800905,33.5146729579888,0.0 126.514747685903,33.5145877224655,0.0 126.51475684396,33.5145725618052,0.0 126.51476907686,33.514565059693,0.0 126.514785162763,33.5145553549178,0.0 126.514837641396,33.5145236967902,0.0 126.51485772981,33.5145100774289,0.0 126.514876892192,33.5144921156494,0.0 126.514890267902,33.5144778291084,0.0 126.51494371764,33.5144178266033,0.0 126.514953900771,33.5144128767234,0.0 126.514959377076,33.5144204651869,0.0 126.514973058065,33.5144764820927,0.0 126.514979628706,33.5144871316836,0.0 126.514985201475,33.5144909060689,0.0 126.514997540663,33.5144871276926,0.0 126.515000101629,33.5144853914675,0.0 126.515012357938,33.5144776764803,0.0 126.515015146101,33.5144684180657,0.0 126.515015434407,33.5144577652176,0.0 126.515020743498,33.5142625363993,0.0 126.51502017152,33.5142256186903,0.0 126.515017696627,33.514190882275,0.0 126.514988886803,33.5138590892479,0.0 126.514983129462,33.5138196481763,0.0 126.514978789314,33.5137819171632,0.0 126.514971814996,33.5137587045498,0.0 126.514961600259,33.5137168141644,0.0 126.514952200833,33.5136871801518,0.0 126.514926827669,33.5136192756158,0.0 126.514888172648,33.5135274746884,0.0 126.514866486232,33.513484273743,0.0 126.514845744399,33.5134503306167,0.0 126.514816514258,33.513410217326,0.0 126.514669430209,33.5132453526045,0.0 126.514660943874,33.5132335603694,0.0 126.51465520145,33.5132205866055,0.0 126.514552514473,33.5128316469668,0.0 126.514424958109,33.5124233613698,0.0 126.514423343564,33.5124096756342,0.0 126.514421458648,33.5123880745584,0.0 126.51442539845,33.5123735148102,0.0 126.514430636015,33.5123645874672,0.0 126.514516435797,33.5123996510387,0.0 126.514537908289,33.5124677106962,0.0 126.514664715707,33.5128562036728,0.0 126.514684413889,33.5129245123194,0.0 126.514730885256,33.5131671714064,0.0 126.514766714963,33.5132407548096,0.0 126.514909311684,33.5133941727765,0.0 126.514924943316,33.5134148460548,0.0 126.514934655114,33.5134332664704,0.0 126.514954170523,33.5134726765814,0.0 126.51503431575,33.5136707186203,0.0 126.515047348408,33.5137145845195,0.0 126.515051199985,33.5137492124287,0.0 126.515073724175,33.5144099943315,0.0 126.515074857418,33.5144346743202,0.0 126.515067314644,33.5144779131022,0.0 126.515052229468,33.5145118168287,0.0 126.515036199152,33.5145380178418,0.0 126.514974915659,33.5146181613506,0.0 126.514885342593,33.5147079345833,0.0 126.51478445762,33.514811194327,0.0 126.514775051515,33.5148257992302,0.0 126.514773142601,33.5148551176093,0.0 126.514794827569,33.5150327392274,0.0 126.514835371875,33.515258521166,0.0 126.514785129142,33.5153108203443,0.0 126.514775250976,33.5153243370406,0.0 126.514772871769,33.5153347332452,0.0 126.51477373249,33.5153484889418,0.0 126.514775972519,33.5153583125032,0.0 126.514801429487,33.5154211164009,0.0 126.514807758064,33.5154458195437,0.0 126.514812020554,33.5154727180917,0.0 126.514820453155,33.5156579779219,0.0 126.514822842404,33.515677248948,0.0 126.51482755772,33.5156973052964,0.0 126.514832271303,33.5157088764943,0.0 126.514842808206,33.5157257791895,0.0 126.51485650075,33.5157477394921,0.0 126.514893362821,33.5157930758883,0.0 126.51490608661,33.5158087243559,0.0 126.515014900778,33.5159850812999,0.0 126.515033899085,33.5160123562953,0.0 126.514912496599,33.5160250042864,0.0 126.51489355637,33.5160290191562,0.0 126.514873087088,33.5160418273791,0.0 126.514852343784,33.5160626335803,0.0 126.514836314987,33.5160919156198,0.0 126.514840756986,33.5161115618854,0.0 126.514887497408,33.5162166689605,0.0 126.515090335925,33.516691200875,0.0 126.515175000859,33.5168500039794,0.0 126.515204028952,33.5168879362113,0.0 126.515350000089,33.5170166704282,0.0 126.515386942168,33.5170513015315,0.0 126.515452942492,33.5170929136156,0.0 126.515493485989,33.5171121779731,0.0 126.515557601309,33.5171275907746,0.0 126.515627372781,33.5171252789227,0.0 126.515704687102,33.5171137194155,0.0 126.515737499449,33.5170916685561,0.0 126.515774996073,33.5169999985178,0.0 126.515871571353,33.5165404001658,0.0 126.515990500286,33.5162080388948,0.0 126.516072999958,33.5162215243561,0.0 126.516054399334,33.5163208664007,0.0 126.516056372096,33.5163435146084,0.0 126.516066585708,33.516356668049,0.0 126.5160841696,33.5163622822754,0.0 126.516103901383,33.5163667179127,0.0 126.516472885458,33.5164223289381,0.0 126.516412770642,33.5167195629782,0.0 126.516657914378,33.5167500007057,0.0 126.516710715604,33.5165134289043,0.0 126.516738057343,33.5164263515355,0.0 126.516862503357,33.5164416673074,0.0 126.517887501534,33.5166000027881,0.0 126.517949997494,33.5160833336552,0.0 126.518049998402,33.5156083321915,0.0 126.518067872443,33.5155240480099,0.0 126.518155556844,33.5155240489242,0.0 126.518235700467,33.5155194204518,0.0 126.51824984404,33.5154376477012,0.0 126.518222500597,33.5154322487337,0.0 126.518115415361,33.5154124385449,0.0 126.518201372347,33.5152338629046,0.0 126.518624999569,33.5145749974312,0.0 126.519174997989,33.5147999971242,0.0 126.519626414298,33.5149153914386,0.0 126.519651872424,33.5148621619638,0.0 126.519846100173,33.5144833902249,0.0 126.51986495761,33.5144679613244,0.0 126.519893242926,33.5144455905644,0.0 126.519975272679,33.5143537903962,0.0 126.520054472122,33.5142473331913,0.0 126.520101699795,33.5141554084362,0.0 126.520210600982,33.5141446189079,0.0 126.520262496769,33.5141166663032,0.0 126.520367114732,33.5141103413052,0.0 126.52057454317,33.5141226714308,0.0 126.521037502662,33.5141500041274,0.0 126.521174998022,33.5141499996473,0.0 126.521211913915,33.5141484857703,0.0 126.521247186463,33.5141447327441,0.0 126.521283015484,33.51414087621,0.0 126.521344300513,33.5141308478471,0.0 126.521193057201,33.5137308256733,0.0 126.521187506265,33.5136999998997,0.0 126.521172809266,33.5135923452501,0.0 126.521145015095,33.5132548864814,0.0 126.52121041515,33.5132614475746,0.0 126.52137219966,33.5132518901328,0.0 126.521450983749,33.5132413883707,0.0 126.521573028547,33.5132349495381,0.0 126.521613572949,33.5130376793727,0.0 126.521192401548,33.5129668132961,0.0 126.521116971492,33.5129537130153,0.0 126.521138657701,33.5129040084159,0.0 126.521151857644,33.5128577747077,0.0 126.521149996236,33.5126500043665,0.0 126.521156572986,33.5126088735927,0.0 126.521166943882,33.5125811313737,0.0 126.52117661924,33.5125564465458,0.0 126.521249999653,33.5124166674779,0.0 126.521337502432,33.5122416666234,0.0 126.521412504418,33.5122416635354,0.0 126.521525002008,33.5120250023514,0.0 126.521579269161,33.5119405883219,0.0 126.521614514931,33.5118998997468,0.0 126.521736143192,33.5118205288734,0.0 126.521835143549,33.5117642773011,0.0 126.521925006281,33.5117250019663,0.0 126.521935736495,33.5114673669365,0.0 126.52194668692,33.5114211995892,0.0 126.521982514384,33.5112782555159,0.0</coordinates>
</LineString>
<LineString>
<coordinates>126.466814028816,33.5084829165761,0.0 126.466763587083,33.5085029511459,0.0</coordinates>
</LineString>
<LineString>
<coordinates>126.521982514384,33.5112782555159,0.0 126.521909792906,33.5112498142252,0.0 126.521950519763,33.5111588172161,0.0 126.522030996665,33.5111831277802,0.0 126.522309685434,33.5112763286176,0.0 126.522419058597,33.5112979048437,0.0 126.522584815101,33.5113484249451,0.0 126.522583771601,33.5111300801548,0.0 126.52258750475,33.5110416662022,0.0 126.522601686094,33.5110137216113,0.0 126.522615829187,33.5109805867596,0.0 126.522638482275,33.5109540020919,0.0 126.5226723999,33.5109166276409,0.0 126.522716930752,33.5108892180878,0.0 126.522886428897,33.5108152941984,0.0 126.523125915364,33.5107929468754,0.0 126.523274886728,33.5104053398828,0.0 126.523412500923,33.5100500000093,0.0 126.523471970886,33.5098430290268,0.0 126.523397799097,33.509788854184,0.0 126.523319801382,33.5097701377043,0.0 126.523366628897,33.5096553908822,0.0 126.523310849945,33.50959460601,0.0 126.523376057504,33.5095471217988,0.0 126.523395858269,33.5095740936069,0.0 126.523612715175,33.5096203288984,0.0 126.523684371006,33.5096885260695,0.0 126.523740001612,33.5096523089004,0.0 126.523760558673,33.50964202493,0.0 126.523774001604,33.5096405146492,0.0 126.523833057489,33.5096513159093,0.0 126.524439601051,33.5098291583871,0.0 126.524490515573,33.5098430302241,0.0 126.524408486618,33.5100445388662,0.0 126.524507486194,33.5100730507597,0.0 126.52473320757,33.5102109158418,0.0 126.524865486181,33.5102439011996,0.0 126.524938750524,33.5102594620661,0.0 126.524968257771,33.5102500652627,0.0 126.524999093774,33.5102401977879,0.0 126.525066884339,33.5101887700855,0.0 126.525094320806,33.5101679553379,0.0 126.525186720579,33.5102030167008,0.0 126.52513109393,33.5104363131785,0.0 126.525802686848,33.510569860938,0.0 126.525610629184,33.5107446201871,0.0 126.525546917814,33.5108188730424,0.0 126.525528599719,33.5108367060854,0.0 126.525504936342,33.510859173984,0.0 126.525435257766,33.5109249398222,0.0 126.525320315804,33.5113556134684,0.0 126.525480229532,33.5113454600904,0.0 126.526130114549,33.511384153283,0.0 126.526193501499,33.5113856039364,0.0 126.526189077595,33.5114740577395,0.0 126.526215941961,33.5118022563778,0.0 126.526236400715,33.5120044958517,0.0 126.526531643095,33.5119919748062,0.0 126.526860700995,33.5124725985476,0.0 126.527216070825,33.5129820972304,0.0 126.52729719846,33.5129801382333,0.0 126.527305111034,33.5131903369786,0.0 126.527321737555,33.5131901372469,0.0 126.527323581158,33.5131901142906,0.0 126.52738240068,33.5131894069202,0.0</coordinates>
</LineString>
<LineString>
<coordinates>126.521982514384,33.5112782555159,0.0 126.522028272855,33.5111911818663,0.0</coordinates>
</LineString>
</MultiGeometry>
</Placemark>
</Folder>
</Document></kml>
