<?xml version="1.0" encoding="UTF-8"?>

<kml xmlns:xsd="http://www.w3.org/2001/XMLSchema" xmlns:gx="http://www.google.com/kml/ext/2.2" xmlns:atom="http://www.w3.org/2005/Atom" xmlns="http://www.opengis.net/kml/2.2">
<Document>
<name>olle_1_1_course</name>
<visibility>1</visibility>
<Schema name="olle_1_1_course" id="kml_schema_ft_olle_1_1_course">
<SimpleField type="xsd:string" name="MEMO">
<displayName>MEMO</displayName>
</SimpleField>
</Schema>
<Folder id="kml_ft_olle_1_1_course">
<name>olle_1_1_course</name>
<Placemark id="kml_1">
<name>kml_1</name>
<snippet> </snippet>
<description><![CDATA[<center><table><tr><th colspan='2' align='center'><em>Attributes</em></th></tr><tr bgcolor="#E3E3F3">
<th>MEMO</th>
<td>올레 1-1 코스</td>
</tr></table></center>]]></description>
<ExtendedData>
<SchemaData schemaUrl="#kml_schema_ft_olle_1_1_course">
<SimpleData name="MEMO">올레 1-1 코스</SimpleData>
</SchemaData>
</ExtendedData>
<MultiGeometry>
<LineString>
<coordinates>126.933325003078,33.4733083336512,0.0 126.933436507807,33.4737936209114,0.0 126.933453785754,33.4738975250629,0.0 126.933467295822,33.4739869919939,0.0 126.933525200247,33.4746637472699,0.0 126.93357477552,33.4750040905682,0.0 126.933594271589,33.4751102096012,0.0 126.933611545326,33.4751920091663,0.0 126.933729634566,33.4756282544475,0.0 126.933763044158,33.4757196393711,0.0 126.933794053245,33.4758070210391,0.0 126.934076030787,33.4764076484298,0.0 126.934100586043,33.4764856672454,0.0 126.934115615848,33.4765597862625,0.0 126.934140199804,33.4770734767019,0.0 126.934130598823,33.477283376536,0.0 126.934118501572,33.4773704946851,0.0 126.93410033456,33.4774223190719,0.0 126.934014799758,33.4776155881596,0.0 126.933750102307,33.4781127021416,0.0 126.93371590052,33.4781866678225,0.0 126.933678929145,33.4782972730561,0.0 126.933537824617,33.4788420756845,0.0 126.933517901574,33.4789341802577,0.0 126.933500973302,33.4790217634366,0.0 126.933424349506,33.4795519842147,0.0 126.933417014682,33.4796168945532,0.0 126.93341226646,33.4796770223492,0.0 126.933396828153,33.48011441384,0.0 126.933402872901,33.4801815813095,0.0 126.933410008038,33.4802464493405,0.0 126.933535821695,33.4807562945973,0.0 126.93355655724,33.4808203235954,0.0 126.933576523691,33.4808771616558,0.0 126.933708055161,33.4811658204292,0.0 126.933733815298,33.4812129822498,0.0 126.933761829767,33.4812659517528,0.0 126.933953943543,33.4815761514567,0.0 126.934004414676,33.4816488374764,0.0 126.934065213633,33.4817212496905,0.0 126.934403668307,33.4820838419213,0.0 126.93449187223,33.4821710951378,0.0 126.934595001911,33.4822490126265,0.0 126.935024074488,33.4825460151656,0.0 126.935138672884,33.4826092666832,0.0 126.935298339542,33.4826912342478,0.0 126.935876000054,33.4829315094404,0.0 126.936182373417,33.4830801829172,0.0 126.936297442536,33.4831407815148,0.0 126.93643703884,33.4832214683335,0.0 126.936534100373,33.4832858108476,0.0 126.93662597512,33.4833556645038,0.0 126.936766539202,33.483470546231,0.0 126.936858444157,33.4835504097183,0.0 126.936945464763,33.4836314879356,0.0 126.937868249242,33.4845433674447,0.0 126.937949328864,33.4846280964944,0.0 126.938031333289,33.4847209199322,0.0 126.939223524803,33.486134711964,0.0 126.939293843819,33.486212610295,0.0 126.939370692528,33.4862845260417,0.0 126.940267929006,33.4870564262729,0.0 126.940295158299,33.487083552157,0.0 126.940322421084,33.4871103765087,0.0 126.940687401392,33.4875300113364,0.0 126.940951401038,33.4878968132804,0.0 126.941283777492,33.4883939823336,0.0 126.941300243159,33.4884127236961,0.0 126.941320941133,33.4884381326047,0.0 126.941493034471,33.4885958313229,0.0 126.941520872518,33.4886163805756,0.0 126.941558360401,33.4886395276583,0.0 126.941879729532,33.4888020167766,0.0 126.941906500061,33.4888138664343,0.0 126.941938070853,33.4888271227779,0.0 126.942284310033,33.488950926445,0.0 126.942330786369,33.4889642954622,0.0 126.942372932608,33.4889748627175,0.0 126.943028132756,33.4890885937378,0.0 126.943068101366,33.489093894733,0.0 126.943117116677,33.4891001656246,0.0 126.944218400508,33.4891860110127,0.0 126.946160574549,33.4892963881375,0.0 126.946209701309,33.4893014097565,0.0 126.946249112688,33.4893073909663,0.0 126.946629691873,33.4893895954549,0.0 126.946666986245,33.4894001522489,0.0 126.946707113563,33.489412375953,0.0 126.94730551253,33.489649787821,0.0 126.947351501498,33.4896716960999,0.0 126.947390236588,33.4896939915006,0.0 126.947608132117,33.4898430850615,0.0 126.947636243144,33.4898653242192,0.0 126.947664377226,33.4898870388405,0.0 126.947849094063,33.4900505862814,0.0 126.947873844209,33.490073609746,0.0 126.947897232003,33.4901019720052,0.0 126.948227857883,33.4905238924071,0.0 126.9482481586,33.4905526663954,0.0 126.948268050701,33.4905853713805,0.0 126.948585979832,33.4911810435344,0.0 126.948604558449,33.491210695565,0.0 126.948625152503,33.4912400879131,0.0 126.948991113464,33.4917100988251,0.0 126.949017529666,33.4917383532245,0.0 126.949045015404,33.4917619583911,0.0 126.949209671199,33.4918727806645,0.0 126.949241927787,33.4918926387754,0.0 126.949271496812,33.4919086049633,0.0 126.949483999626,33.4920112910784,0.0 126.949781001173,33.4921407499412,0.0 126.950112185757,33.4918895534677,0.0 126.950130800669,33.4918656493967,0.0 126.951352986926,33.4925761246919,0.0 126.951338842586,33.4926324377935,0.0 126.951183446617,33.4929305183713,0.0</coordinates>
</LineString>
<LineString>
<coordinates>126.962748753451,33.4925281493837,0.0 126.963256399699,33.4922640519684,0.0 126.96365982952,33.4920921099216,0.0 126.963722058268,33.492085174758,0.0 126.96379760066,33.4920806522423,0.0 126.964163901236,33.4921372901734,0.0 126.964438343065,33.492188320053,0.0 126.964718300989,33.4922397794281,0.0 126.965203401385,33.4923449652101,0.0 126.965612601446,33.4924380134268,0.0</coordinates>
</LineString>
<LineString>
<coordinates>126.962748753451,33.4925281493837,0.0 126.962590841225,33.4926052578861,0.0 126.962210226303,33.492791888819,0.0</coordinates>
</LineString>
<LineString>
<coordinates>126.962748753451,33.4925281493837,0.0 126.962784986363,33.4925440906054,0.0 126.962807284992,33.4925579961916,0.0 126.962870300612,33.4925890493019,0.0 126.962939601036,33.4926241108854,0.0 126.963112772079,33.4927007095977,0.0 126.963155877519,33.4927127443623,0.0 126.964492894447,33.4930406939245,0.0 126.964554599787,33.4930511108189,0.0 126.96458854207,33.4930457160764,0.0 126.964765977395,33.4929341934847,0.0</coordinates>
</LineString>
<LineString>
<coordinates>126.964817372792,33.492606433829,0.0 126.964778999799,33.4926292115772,0.0 126.964668685806,33.4927132065137,0.0 126.964616542728,33.4927506915228,0.0 126.964545829271,33.4928016046082,0.0 126.964557430081,33.4928129973827,0.0 126.964583543317,33.4928347770709,0.0 126.96461980932,33.4928537445885,0.0 126.964636343129,33.4928602343831,0.0 126.964677171924,33.4928665533289,0.0 126.964693856155,33.4928741183554,0.0 126.964712475842,33.4928901475284,0.0 126.964732801533,33.4929112487325,0.0 126.96475071332,33.4929274311858,0.0 126.964765977395,33.4929341934847,0.0</coordinates>
</LineString>
<LineString>
<coordinates>126.965153184237,33.4927072623414,0.0 126.965612601446,33.4924380134268,0.0</coordinates>
</LineString>
<LineString>
<coordinates>126.965153184237,33.4927072623414,0.0 126.965224214697,33.4927620393731,0.0</coordinates>
</LineString>
<LineString>
<coordinates>126.962210226303,33.492791888819,0.0 126.962177890713,33.4927985131098,0.0 126.962157686194,33.4928018077313,0.0 126.962124018965,33.4928061713517,0.0 126.962075543447,33.4928115981189,0.0 126.962027095812,33.4928125152353,0.0 126.961954455736,33.4928088175386,0.0 126.961880470093,33.4928051139561,0.0 126.961825308541,33.4928037469612,0.0 126.961760741926,33.4928000842141,0.0 126.961694836719,33.4927952881803,0.0 126.961581843423,33.4927891600842,0.0 126.961505173648,33.4927843171769,0.0 126.961288089074,33.4927767675355,0.0 126.961071400148,33.4928389910308,0.0 126.960442515621,33.4930524802227,0.0 126.960359542855,33.4930825674478,0.0 126.96023225638,33.4931303954595,0.0 126.959748101276,33.4933649192788,0.0 126.959659001384,33.4934134669869,0.0 126.959438371132,33.4935608519848,0.0 126.958791868167,33.4940126671162,0.0 126.958764063986,33.4940320980226,0.0 126.958720450439,33.4940559932883,0.0 126.958694640411,33.4940701370151,0.0 126.95868031437,33.4940777099607,0.0 126.95853532473,33.4941112838733,0.0 126.958486087136,33.4941324812196,0.0 126.958458743481,33.4941525383437,0.0 126.958312504906,33.494258336316,0.0 126.958212505716,33.4943416636758,0.0 126.958061800184,33.4944541668038,0.0 126.958052728915,33.494481912302,0.0 126.958001203223,33.4945769130281,0.0 126.957988257247,33.494595176712,0.0 126.957966302827,33.4946204458226,0.0 126.95794677195,33.4946360630384,0.0 126.957915658139,33.4946599763611,0.0 126.957899710844,33.4946796973086,0.0 126.95767499768,33.4949749972274,0.0 126.957612499058,33.4950416669284,0.0 126.957512503946,33.4951500043365,0.0 126.957187347697,33.4955080072019,0.0 126.957088451057,33.4955850335022,0.0 126.957015230166,33.4956288902643,0.0 126.956979400267,33.495587302681,0.0 126.956847400095,33.4954254791309,0.0 126.956836085561,33.4954051769497,0.0 126.956832601137,33.4953880354176,0.0 126.956832313346,33.4953658338792,0.0 126.956841982123,33.49534801783,0.0 126.956880399884,33.4953068079521,0.0 126.957018953192,33.4951635270703,0.0 126.957035029359,33.4951428907611,0.0 126.957056686541,33.4951084628408,0.0 126.957089715006,33.4950379775639,0.0 126.957213229513,33.4947764621203,0.0 126.957224543981,33.4947502343501,0.0 126.957233029152,33.4947170616561,0.0 126.957234914922,33.4946885195426,0.0 126.957234914772,33.4946653773452,0.0 126.957234913855,33.4946237199555,0.0 126.957233972169,33.494602891817,0.0 126.957200029305,33.4945805191834,0.0 126.957163256778,33.4945620053069,0.0 126.957014287076,33.4945041489211,0.0 126.95690208602,33.4944532346553,0.0 126.956830900408,33.4944167758219,0.0 126.956803915928,33.4944020729619,0.0 126.9567710289,33.4943892060333,0.0 126.956725804466,33.4943744501671,0.0 126.956565173935,33.494339443193,0.0 126.956526827961,33.4943336631528,0.0 126.956453286201,33.4943259478307,0.0 126.956411800228,33.4943259480634,0.0 126.956313743129,33.4943259489113,0.0 126.956101601057,33.4943413756834,0.0 126.955419138553,33.4944112377915,0.0 126.955352972213,33.4944208340807,0.0 126.955266205981,33.4944307620159,0.0 126.955231343188,33.4944347199342,0.0 126.95519631068,33.4944390233651,0.0 126.954978657551,33.4944586342553,0.0 126.954936229737,33.4944594055147,0.0 126.95489474273,33.4944540042148,0.0 126.954854200777,33.494443746086,0.0 126.954785355181,33.4944216409259,0.0 126.954751428229,33.4944146620597,0.0 126.95460245669,33.4944115765242,0.0 126.954560250197,33.4944106910539,0.0 126.954418600599,33.4943871074868,0.0 126.954505428531,33.4942890817545,0.0 126.954546915202,33.4942420237624,0.0 126.954598770757,33.4941818537373,0.0 126.954634294158,33.4941405310691,0.0 126.954691172924,33.4940669100137,0.0 126.954731688193,33.4940074965166,0.0 126.954765100907,33.4939528807973,0.0 126.954802428239,33.4938933392933,0.0 126.954826902082,33.4938409825914,0.0 126.954843515467,33.4938054357036,0.0 126.954858915699,33.4937604907325,0.0 126.954865183303,33.4937360504891,0.0 126.954870700779,33.4936939610064,0.0 126.954874000258,33.4936130488474,0.0 126.954874001067,33.4935545195378,0.0 126.95487965793,33.4934928056558,0.0 126.954890028447,33.4934179768699,0.0 126.954901343536,33.493343919093,0.0 126.954904977606,33.4933150868795,0.0 126.954909957588,33.4932834810782,0.0 126.954916515204,33.4932522807831,0.0 126.954927742697,33.4932035200486,0.0 126.954944165823,33.4931578347257,0.0 126.9549683719,33.4931010821156,0.0 126.954989499157,33.4930601507326,0.0 126.955020229349,33.4930054240437,0.0 126.955041914472,33.4929676247348,0.0 126.955061677654,33.4929447334988,0.0 126.955087086315,33.4929211761994,0.0 126.955128571441,33.4928934055424,0.0 126.955157801538,33.492876748567,0.0 126.955240075976,33.4928388175934,0.0 126.955278486279,33.4928162626309,0.0 126.955315131637,33.4927908945162,0.0 126.955385500216,33.4927257133269,0.0 126.955441294744,33.4926864982104,0.0 126.955472714663,33.4926704623956,0.0 126.955501436227,33.4926616538794,0.0 126.955586799943,33.4926461495777,0.0 126.955609429751,33.4926396049313,0.0 126.955635829361,33.4926241767991,0.0 126.955649029376,33.4926079761201,0.0 126.955682499507,33.4925328738292,0.0 126.95569418015,33.4925031730002,0.0 126.955704785993,33.4924773391629,0.0 126.95571700082,33.4924600248775,0.0 126.95574242369,33.4924367708317,0.0 126.955791399324,33.4924034149256,0.0 126.9558837995,33.4923494730072,0.0 126.955896058274,33.492337204291,0.0 126.955898886466,33.4923248616858,0.0 126.955895114829,33.4923055762872,0.0 126.955887100776,33.4922874404358,0.0 126.955855642188,33.4922374247342,0.0 126.955814499744,33.492166072896,0.0 126.955785060674,33.4921161018277,0.0 126.955778476661,33.4921027489966,0.0 126.955772855436,33.4920848421974,0.0 126.955767914463,33.4920596529786,0.0 126.95576829973,33.4920366132091,0.0 126.955772544288,33.4920124343247,0.0 126.955783944272,33.4919917666185,0.0 126.955797057346,33.4919746346326,0.0 126.955816858221,33.4919545774446,0.0 126.955847510821,33.4919365827612,0.0 126.955882943306,33.4919184813408,0.0 126.955925729554,33.4918963384474,0.0 126.956007399793,33.4918529091394,0.0 126.956096185412,33.4918060367594,0.0 126.956115367735,33.4917927342789,0.0 126.956128942978,33.4917833196383,0.0 126.956146978164,33.4917632838236,0.0 126.956156964048,33.4917521886942,0.0 126.956184100309,33.4917156610956,0.0 126.956233000521,33.4916357301468,0.0 126.956245857091,33.4916151486111,0.0 126.956253485944,33.4916091386221,0.0 126.95627328679,33.4916021960834,0.0 126.956292057966,33.4916012627605,0.0 126.956316571404,33.4916043485558,0.0 126.956343914231,33.4916066617367,0.0 126.956382545862,33.4916064888002,0.0 126.956411801092,33.4916035772375,0.0 126.95645139963,33.4915942932286,0.0 126.956491649913,33.4915741797422,0.0 126.956353484632,33.4913689188928,0.0 126.956306968259,33.4913381660846,0.0 126.956283111005,33.491326606462,0.0 126.956193180445,33.4913166693572,0.0 126.956099756076,33.4913162593384,0.0 126.956041630435,33.4913207754453,0.0 126.955951570051,33.4913299225672,0.0 126.955925321506,33.4913374467077,0.0 126.955553440594,33.4914955996429,0.0 126.955321040098,33.491594436989,0.0 126.954632364486,33.4918644103957,0.0 126.954575309246,33.4918784818149,0.0 126.954368942691,33.4919052544528,0.0 126.954222960842,33.4919294240251,0.0 126.954169322521,33.4919444670866,0.0 126.953556394127,33.4921250421039,0.0 126.952508683403,33.4924201535568,0.0 126.95241168383,33.4924454936195,0.0 126.95231232809,33.4924841900434,0.0 126.951873598198,33.4927794785893,0.0 126.951714799575,33.4929099485681,0.0 126.951682044216,33.4929317534305,0.0 126.95165302628,33.4929482084849,0.0 126.951600137294,33.4929774155226,0.0 126.951575500243,33.4929880672386,0.0 126.951538889764,33.4929957339571,0.0 126.951499128465,33.4929988665087,0.0 126.951406013651,33.4930037898204,0.0 126.951346387017,33.4930027248433,0.0</coordinates>
</LineString>
<LineString>
<coordinates>126.964765977395,33.4929341934847,0.0 126.965153184237,33.4927072623414,0.0</coordinates>
</LineString>
<LineString>
<coordinates>126.951183446617,33.4929305183713,0.0 126.951318771713,33.4929971046611,0.0</coordinates>
</LineString>
<LineString>
<coordinates>126.951183446617,33.4929305183713,0.0 126.951169742715,33.4929543810396,0.0 126.951130693465,33.4930237722903,0.0 126.951124236346,33.493031647862,0.0 126.950704509107,33.4938165047052,0.0 126.950683036633,33.4938550495663,0.0 126.950574997415,33.4939166693551,0.0 126.95042500616,33.4939750008891,0.0 126.950250005124,33.4940166703101,0.0 126.950062503239,33.4940416702712,0.0 126.94979999635,33.4940250005109,0.0 126.948958495938,33.4940009585714,0.0 126.948925001293,33.4939999976206,0.0 126.948774997629,33.4939666710881,0.0 126.948600003835,33.4939000046106,0.0 126.948475003058,33.493825001686,0.0 126.948212506618,33.4936166643174,0.0 126.948012502628,33.49350833342,0.0 126.947837497882,33.4934249981391,0.0 126.947700002124,33.4933666697466,0.0 126.94762465685,33.4933631354619,0.0 126.947574999994,33.4933749966112,0.0 126.947424999026,33.4934500015088,0.0 126.946537496054,33.493925002643,0.0 126.946274996891,33.4940999985255,0.0 126.946443767296,33.4942650230999,0.0 126.946464943324,33.4942909276324,0.0 126.946478142649,33.49431943951,0.0 126.946509257148,33.4944284763371,0.0 126.946527247616,33.4944711488121,0.0 126.946587499599,33.4945916677492,0.0 126.946625001858,33.4946666699492,0.0 126.946643142893,33.4946924040023,0.0 126.94673749858,33.4947916681716,0.0 126.946756286247,33.4948122314378,0.0 126.946787500399,33.4948749969359,0.0 126.946825000314,33.4949249972733,0.0 126.947000000611,33.495058337536,0.0 126.947286172867,33.4952657244195,0.0 126.94741911533,33.4953485624189,0.0 126.947477572739,33.4953847805075,0.0 126.947482941965,33.4954020908937,0.0 126.947483365091,33.4954182303188,0.0 126.947479116419,33.4954274604286,0.0 126.947462200283,33.4954443593062,0.0 126.947412701519,33.4954875118558,0.0 126.947363440283,33.495522020846,0.0 126.947344343488,33.4955378618176,0.0 126.947329900223,33.4955521100085,0.0 126.94730709965,33.4955792126745,0.0 126.947295600299,33.4956005463449,0.0 126.947287771632,33.49561654822,0.0 126.947287299969,33.4956412451257,0.0 126.947302201219,33.4956880071767,0.0 126.947305685985,33.4957044905615,0.0 126.947302200134,33.4957180620555,0.0 126.947296300098,33.4957270045849,0.0 126.947289657809,33.4957361188641,0.0 126.947278241476,33.4957446943719,0.0 126.947247021291,33.4957675585561,0.0 126.947228370467,33.4957870331873,0.0 126.947213937716,33.4958062343144,0.0 126.947202258021,33.4958244034117,0.0 126.947185001261,33.495865101863,0.0 126.94716614343,33.4958981191127,0.0 126.947142101084,33.4959325280282,0.0 126.947105800231,33.4959756809808,0.0 126.947083172778,33.4959960902207,0.0 126.947045743935,33.4960151237515,0.0 126.946967199081,33.4960458057979,0.0 126.94690120003,33.4960727755812,0.0 126.946825299038,33.4960997457149,0.0 126.946727249517,33.4961277933396,0.0 126.946687172403,33.496140348141,0.0 126.946648514026,33.4961573199198,0.0 126.946627977683,33.4961712479466,0.0 126.946610800464,33.4961858620389,0.0 126.946603258536,33.4962043765577,0.0 126.946599770574,33.4962270374267,0.0 126.946587513853,33.4962401370287,0.0 126.946575913718,33.4962468046964,0.0 126.946558001231,33.4962507813711,0.0 126.946478801263,33.4962642673232,0.0 126.946393000179,33.4962858447977,0.0 126.946352457163,33.4962984909942,0.0 126.946320401237,33.496312815059,0.0 126.946278915738,33.4963386058572,0.0 126.946247800982,33.4963586648769,0.0 126.946224230008,33.4963802621365,0.0 126.946195000225,33.4964103487771,0.0 126.946179552915,33.4964304348632,0.0 126.946132114475,33.4965183197577,0.0 126.946092229477,33.4965970328365,0.0 126.946053572433,33.4966826624434,0.0 126.946028114429,33.4967328054244,0.0 126.946003256918,33.4967797559475,0.0 126.945924687155,33.4969051561741,0.0 126.945870944368,33.4969795182146,0.0 126.945854628452,33.496997404955,0.0 126.94583388581,33.4970159192902,0.0 126.945812201394,33.4970302351046,0.0 126.945736301643,33.4970626006255,0.0 126.945682115135,33.4970838571381,0.0 126.94565568675,33.4970969196696,0.0 126.945640885455,33.4971143711009,0.0 126.945634001019,33.4971408146828,0.0 126.945630699285,33.4973889454262,0.0 126.945636172236,33.4974106637001,0.0 126.945644370866,33.49742246194,0.0 126.945656628347,33.497434034464,0.0 126.945682370998,33.4974403318115,0.0 126.945711600357,33.4974364796588,0.0 126.945749501262,33.4974294012374,0.0 126.94620820101,33.4973026393001,0.0 126.946310500098,33.4972837588474,0.0 126.946357457164,33.4972792783575,0.0 126.946399601315,33.4972837600537,0.0 126.946425058275,33.4972890056053,0.0 126.946449857539,33.4973008542852,0.0 126.946478801303,33.4973167770522,0.0 126.946489172633,33.4973360619151,0.0 126.946492942655,33.4973530332394,0.0 126.946495143173,33.4973772983629,0.0 126.946488701241,33.4974159162069,0.0 126.946487571328,33.4974530466409,0.0 126.94649105734,33.4974810906744,0.0 126.946499542892,33.4975003764707,0.0 126.946511800118,33.4975227470841,0.0 126.946528301294,33.4975372825845,0.0 126.946548858483,33.4975424363102,0.0 126.946574500545,33.4975399805291,0.0 126.946617400455,33.497528146879,0.0 126.946680011225,33.4975086616724,0.0 126.946936371139,33.4974095073152,0.0 126.947074028703,33.4973671260545,0.0 126.947108629461,33.4973599763382,0.0 126.947150113673,33.4973530340372,0.0 126.947182173019,33.4973507201664,0.0 126.947224570071,33.4973533645712,0.0 126.947245342654,33.4973584343645,0.0 126.9472566564,33.4973676898456,0.0 126.947263543004,33.4973929408978,0.0 126.947248930246,33.4974426992573,0.0 126.947236857065,33.4974926621715,0.0 126.94721752785,33.4975381765542,0.0 126.947194899808,33.4975844628891,0.0 126.947176044242,33.4976384632253,0.0 126.947167556925,33.4976716335304,0.0 126.947162923205,33.4977086486963,0.0 126.947162656257,33.4977427898858,0.0 126.947166428397,33.4977651368896,0.0 126.947170369692,33.4977825801903,0.0 126.947176043476,33.4978089477656,0.0 126.947193448501,33.4978473312753,0.0 126.947216841787,33.4978859727102,0.0 126.947243928257,33.4979262045127,0.0 126.947274719031,33.4979690693883,0.0 126.94736820058,33.4980845459548,0.0 126.947397430054,33.4981115167848,0.0 126.94742212911,33.4981252337915,0.0 126.94745324359,33.4981337187674,0.0 126.947473927049,33.4981333006821,0.0 126.947509628277,33.4981253872572,0.0 126.947728558419,33.4980673759928,0.0 126.947776642883,33.4980511764175,0.0 126.947808700259,33.4981400784634,0.0 126.947845001037,33.4982344758429,0.0 126.94789380456,33.4983461905861,0.0 126.947345632631,33.4987119169018,0.0 126.947311814503,33.4987385195439,0.0 126.947292073341,33.4987580361013,0.0 126.94726920084,33.4987830861347,0.0 126.947237504719,33.4988166648739,0.0 126.947104200266,33.4988204609434,0.0 126.947016514477,33.4988254700996,0.0 126.946854416234,33.4988543434036,0.0 126.946820400864,33.4988655396732,0.0 126.946706314687,33.4989360499378,0.0 126.946645028462,33.4989799736131,0.0 126.946580915777,33.4990404642175,0.0 126.946315030184,33.4993614141939,0.0 126.946295228221,33.4993714329907,0.0 126.946262503694,33.4993750010093,0.0 126.946212496721,33.4993666691145,0.0 126.946112501421,33.4993250030262,0.0 126.945970659932,33.499261964638,0.0 126.945953915574,33.49925854214,0.0 126.945915267478,33.4992583946401,0.0 126.945893572747,33.4992654767682,0.0 126.945851143503,33.4993005392041,0.0 126.945788915606,33.4993999437153,0.0 126.94573045637,33.4994592794236,0.0 126.945672000348,33.4995039749674,0.0 126.945588086211,33.499553293124,0.0 126.945489087095,33.4995860417532,0.0 126.945432514127,33.4995983725684,0.0 126.945220372067,33.4996407542913,0.0 126.945016714767,33.4996711924478,0.0 126.944801742969,33.4996896858941,0.0 126.944786436887,33.4997499830121,0.0 126.94478307058,33.4997892046713,0.0 126.944780057861,33.4998310901602,0.0 126.944777415623,33.499854775939,0.0 126.944768743887,33.4998711619679,0.0 126.944744530246,33.4999054209802,0.0 126.944733101412,33.4999215920647,0.0 126.944718014803,33.4999512060691,0.0 126.944710000816,33.4999728369563,0.0 126.944704558174,33.5000000003885,0.0 126.944683771613,33.5000873963428,0.0 126.944679286199,33.5001093331585,0.0 126.944662314302,33.5001448192068,0.0 126.944644000495,33.5001696221804,0.0 126.944609890981,33.5001992422882,0.0 126.94459348616,33.500220418822,0.0 126.944581229481,33.5002481908397,0.0 126.94457462974,33.5003021917333,0.0 126.944573813957,33.5003261130519,0.0 126.944577712745,33.5005922361466,0.0 126.944576515478,33.5006107618999,0.0 126.944570741945,33.5006429086681,0.0 126.944566228029,33.500651808826,0.0 126.94455471469,33.5006745024536,0.0 126.944535856559,33.5006937665331,0.0 126.944514171528,33.500705325721,0.0 126.944488514373,33.5007096807959,0.0 126.944449300798,33.5007144297996,0.0 126.944304655098,33.5007120657777,0.0 126.944271658527,33.5007143097317,0.0 126.944251229564,33.5007179918173,0.0 126.944238100615,33.5007252188697,0.0 126.944234258412,33.500731105808,0.0 126.944228600453,33.5007488485477,0.0 126.944225457707,33.5007706240127,0.0 126.944225130168,33.5007898990475,0.0 126.944224714797,33.500823225894,0.0 126.94422188595,33.5008871863585,0.0 126.944215401541,33.5009463344199,0.0 126.944205606052,33.5010019801747,0.0 126.94409289995,33.5014237596517,0.0 126.944086114345,33.5014373883498,0.0 126.944075543486,33.501445624377,0.0 126.944068200508,33.5014497169183,0.0 126.944052286834,33.5014523908849,0.0 126.944038972671,33.5014528001736,0.0 126.94401370099,33.5014453358727,0.0 126.94398051582,33.5014346904654,0.0 126.943809100093,33.5013509378934,0.0 126.943670609,33.5012953784293,0.0 126.943593803382,33.5014575251527,0.0</coordinates>
</LineString>
<LineString>
<coordinates>126.96451000099,33.4969911283893,0.0 126.964725447099,33.4967965760131,0.0 126.964785399902,33.4967503248799,0.0 126.965047430015,33.4965299193038,0.0 126.965264950385,33.4963698404929,0.0 126.965302942959,33.4963401482616,0.0 126.965334724748,33.4963145508633,0.0 126.965427021977,33.4962319712026,0.0 126.965527740233,33.4961418572253,0.0 126.965564114096,33.4961033184423,0.0 126.965608457559,33.4960557730461,0.0 126.965796698384,33.4958091528448,0.0 126.965827172009,33.4957646628886,0.0 126.965872457672,33.4956835779735,0.0 126.965908062844,33.4956127623082,0.0 126.965931828803,33.4955586899164,0.0 126.965949346177,33.4955046087553,0.0 126.965985653881,33.4953859080521,0.0 126.966006314372,33.495297176661,0.0 126.96602562955,33.4952077414249,0.0 126.966084745386,33.4948534229277,0.0 126.96614680062,33.4944815041241,0.0 126.966151906364,33.4944535911966,0.0 126.966159999823,33.4944023193679,0.0 126.966161102899,33.4943598332411,0.0 126.966158114776,33.4943120622379,0.0 126.96614179038,33.494232417779,0.0 126.966130771161,33.4941878629173,0.0 126.966105794862,33.4941260908197,0.0 126.966094318101,33.4940820079693,0.0 126.966088342851,33.494050547725,0.0 126.966084901744,33.4940166392845,0.0 126.966078582723,33.4939391722399,0.0 126.966077971434,33.4938970343515,0.0 126.966083137698,33.4938455566825,0.0 126.966127028488,33.493649602345,0.0 126.966138016765,33.4935802445139,0.0 126.966140200393,33.4935352340078,0.0 126.966139373947,33.4934902501696,0.0 126.966123701045,33.493279961624,0.0 126.966119525902,33.4932488587049,0.0 126.966112857628,33.4932127772683,0.0 126.966103522972,33.4931842097743,0.0 126.966097301541,33.4931680327434,0.0 126.965993310196,33.4930084154367,0.0 126.965953515009,33.4929497200804,0.0 126.965863001132,33.4928376430817,0.0 126.96573430062,33.492662331986,0.0 126.96566647915,33.4925642948203,0.0 126.96564991412,33.4925331478153,0.0 126.965627315649,33.4924817706289,0.0 126.965612601446,33.4924380134268,0.0</coordinates>
</LineString>
<LineString>
<coordinates>126.96451000099,33.4969911283893,0.0 126.964205840942,33.4972159847945,0.0 126.964147000255,33.4972542905836,0.0 126.964091697178,33.4972852387094,0.0 126.964048944448,33.4973067476092,0.0 126.96399897291,33.4973298899992,0.0 126.963967943221,33.4973423959497,0.0 126.96392920002,33.497352261322,0.0 126.963864936564,33.4973665425271,0.0 126.963510100416,33.4974361437002,0.0 126.963466601478,33.4974479943819,0.0 126.963444712423,33.4974551371084,0.0 126.96342768631,33.4974619667321,0.0 126.963411372539,33.4974710201818,0.0 126.963371500131,33.4974981768549,0.0 126.963299168248,33.4975572946123,0.0 126.963261658197,33.4975829189623,0.0 126.963225068931,33.4976006243991,0.0 126.963183401529,33.4976195437118,0.0 126.963125673162,33.4976474239311,0.0 126.963110800015,33.4976546052543,0.0 126.963080629367,33.4976646902719,0.0 126.963060829796,33.4976677759427,0.0 126.963037258116,33.4976670060309,0.0 126.963006144065,33.4976592912673,0.0 126.962985400315,33.4976465143918,0.0 126.962961829903,33.4976245763933,0.0 126.962945886676,33.4976046802475,0.0 126.962933629802,33.4975884807647,0.0 126.962926000536,33.4975656027751,0.0 126.962918456358,33.4975327769498,0.0 126.962911858364,33.4974911201455,0.0 126.962909501575,33.4974631150195,0.0 126.962910914638,33.4974270915909,0.0 126.962915898086,33.4973943888794,0.0 126.96292325687,33.4973585954599,0.0 126.962932601402,33.4973275763822,0.0 126.962942046022,33.4973074819899,0.0 126.962953427861,33.4972860813835,0.0 126.962971322159,33.4972592138449,0.0 126.963031600317,33.4971779191808,0.0 126.963064600538,33.4971270043504,0.0 126.963076765609,33.4971085743563,0.0 126.963093915885,33.4970870522969,0.0 126.963117486518,33.4970639092867,0.0 126.963142944399,33.4970430821723,0.0 126.96316839981,33.4970214821306,0.0 126.963190943589,33.496998948472,0.0 126.963199740056,33.4969865500856,0.0 126.963207057738,33.4969713388094,0.0 126.963214514239,33.4969503489156,0.0 126.96321828654,33.4969248905637,0.0 126.963213573015,33.4969110050845,0.0 126.963205172043,33.496904996244,0.0 126.963188199653,33.4969003678237,0.0 126.963170200286,33.4969021241317,0.0 126.96311080119,33.4969129121387,0.0 126.963010370338,33.4969314468455,0.0 126.96299954338,33.4969009772767,0.0 126.963001433995,33.4968859335183,0.0 126.963008501387,33.4968697599845,0.0 126.963019427965,33.496854080464,0.0 126.963027828726,33.4968454331783,0.0 126.963050543802,33.4968301675248,0.0 126.96307625341,33.4968182613728,0.0 126.963134189383,33.4967958337365,0.0 126.963175857258,33.4967798624008,0.0 126.96321560631,33.4967605125368,0.0 126.963282886082,33.496727266014,0.0 126.963322944272,33.4967034908302,0.0 126.963352196305,33.4966849399338,0.0 126.963425715809,33.4966289497495,0.0 126.963464371398,33.4966032058891,0.0 126.963507363342,33.4965816569352,0.0 126.96354310052,33.4965676873122,0.0 126.963694900406,33.4965299284175,0.0 126.963723657108,33.4965191192656,0.0 126.963755714614,33.4965029200679,0.0 126.96378494261,33.4964844052972,0.0 126.963800972967,33.4964651188519,0.0 126.963808444847,33.4964471463134,0.0 126.963859900583,33.4962952837843,0.0 126.963866970918,33.4962606902573,0.0 126.963871685746,33.4962097761252,0.0 126.96386980142,33.4961847045027,0.0 126.963864628557,33.4961653802545,0.0 126.963846229384,33.4961079472026,0.0 126.963828835056,33.4960642360221,0.0 126.963671799403,33.4957639607461,0.0 126.963643690592,33.4957095921443,0.0 126.963627486609,33.4956636053368,0.0 126.963621355593,33.4956327069294,0.0 126.963617200845,33.4955858523806,0.0 126.96361900143,33.4955441504799,0.0 126.963631544196,33.4954172105702,0.0 126.963631906779,33.4953904833844,0.0 126.963628429462,33.4953388335494,0.0 126.963623756944,33.4953110551203,0.0 126.963618972456,33.495290886412,0.0 126.963610600788,33.4952672532504,0.0 126.963597096351,33.495242212794,0.0 126.963546400947,33.4951719551025,0.0 126.963454001292,33.4950721637934,0.0 126.963328601155,33.4949669782083,0.0 126.963216400845,33.4948698826733,0.0 126.963200792513,33.4948571170678,0.0 126.963173314676,33.494834642498,0.0 126.963146628286,33.4948042341438,0.0 126.963124285838,33.4947683709157,0.0 126.9631117431,33.4947340337597,0.0 126.963104486893,33.4946974783949,0.0 126.963097885869,33.4946312073081,0.0 126.963088458772,33.4945526063849,0.0 126.96308440125,33.4944662093275,0.0 126.963114101417,33.4943844115865,0.0 126.96313501237,33.494317597438,0.0 126.963142857581,33.4942835198211,0.0 126.963146157666,33.4942417231231,0.0 126.963147101239,33.4941875254068,0.0 126.963113006229,33.49354914147,0.0 126.963108914503,33.4935043763374,0.0 126.963102162247,33.4934723075787,0.0 126.963094771668,33.4934418908775,0.0 126.963080715479,33.4934065672523,0.0 126.963064601146,33.4933693767465,0.0 126.963040371444,33.493321587395,0.0 126.962996057013,33.4932399043694,0.0 126.962893000937,33.4930588022606,0.0 126.962867828692,33.4930287626379,0.0 126.962841143002,33.4930052630782,0.0 126.9628204005,33.4929921470651,0.0 126.962779621683,33.4929770036486,0.0 126.962719237849,33.4929496833309,0.0 126.962681721878,33.4929235895824,0.0 126.962620180577,33.4928658233649,0.0 126.962574612121,33.4928363123483,0.0 126.962514228449,33.4928089919316,0.0 126.962479299254,33.4927998209159,0.0 126.962421474413,33.4927939328805,0.0 126.962339415317,33.4927901945473,0.0 126.962210226303,33.492791888819,0.0</coordinates>
</LineString>
<LineString>
<coordinates>126.96451000099,33.4969911283893,0.0 126.964638313594,33.4971051808026,0.0 126.96484385746,33.4972795245473,0.0 126.964887401822,33.4973221908003,0.0 126.965024799892,33.497481994469,0.0 126.965077599796,33.4975548149799,0.0 126.96509748705,33.4975742098537,0.0 126.965119553718,33.4975907366342,0.0 126.96515400087,33.4976100556219,0.0 126.965184229259,33.4976228097662,0.0 126.965222800662,33.4976384245608,0.0 126.965255800865,33.4976546632464,0.0 126.965274742056,33.4976667807152,0.0 126.965285971047,33.4976793482448,0.0 126.965304275693,33.4977033054608,0.0 126.965328400938,33.4977517016584,0.0 126.965342314429,33.497775865628,0.0 126.965357628037,33.4977973761399,0.0 126.965375973497,33.4978175867731,0.0 126.965395307795,33.4978358842555,0.0 126.965409486368,33.4978575489601,0.0 126.965413286047,33.4978705138196,0.0 126.965416086727,33.4978930333659,0.0 126.965413285074,33.4979148229919,0.0 126.965397522962,33.4979483149706,0.0 126.965366707543,33.4979904163288,0.0 126.965347343294,33.498015466704,0.0 126.965344458205,33.4980284858472,0.0 126.965345372409,33.4980419194005,0.0 126.965353858744,33.4980550344037,0.0 126.965360487029,33.498064702925,0.0 126.965398434748,33.4981036779234,0.0 126.965460134336,33.4981555100664,0.0 126.965487743827,33.4981807774142,0.0 126.965501630784,33.4981976228158,0.0 126.965570800124,33.4982900946937,0.0 126.965633915763,33.4983871949582,0.0 126.965673009943,33.4984503002164,0.0 126.965899997366,33.4983416702434,0.0 126.966062501562,33.4982999970188,0.0 126.966160455752,33.4982791777865,0.0 126.96624984775,33.4982449371262,0.0 126.966918600296,33.4978743039356,0.0 126.967069074879,33.4978003294942,0.0 126.967094833274,33.4977903924314,0.0 126.967167990929,33.4977739254028,0.0 126.967201159749,33.4977664611308,0.0 126.967232024935,33.4977594141381,0.0 126.967422057701,33.4976749966785,0.0 126.967667134347,33.4975904768543,0.0 126.967712707845,33.4975747585905,0.0 126.967873806441,33.4975191992097,0.0 126.967895842869,33.4974900597341,0.0 126.967909400383,33.4974722055657,0.0 126.967929829496,33.4974457665737,0.0 126.967974142739,33.4974010239388,0.0 126.968008086945,33.4973632243514,0.0 126.968028230007,33.4973370279886,0.0 126.968048000505,33.4973094339378,0.0 126.968077228685,33.4972770332726,0.0 126.968113719166,33.4972541324908,0.0 126.968479447859,33.4970341036184,0.0 126.968522887018,33.4970029666613,0.0 126.968569041625,33.4969706764625,0.0 126.968595598744,33.4969497461362,0.0 126.968621800638,33.4969290955897,0.0 126.968642944225,33.496916004926,0.0 126.968664628041,33.4969075188122,0.0 126.968676571854,33.4969049958581,0.0 126.968691170472,33.4969122199994,0.0 126.968702971206,33.4969250528169,0.0 126.968713724687,33.4969417401957,0.0 126.968725914566,33.4969669186938,0.0 126.968731347235,33.4969869220811,0.0 126.968736914081,33.4970191671129,0.0 126.968738554199,33.4970509967415,0.0 126.968740600429,33.4971178887882,0.0 126.968740600693,33.4972905023963,0.0 126.968737075481,33.4974361612846,0.0 126.968787499313,33.4974333359193,0.0 126.968999999712,33.4974666627989,0.0 126.969149995584,33.4975000012045,0.0 126.969375000755,33.4976083336143,0.0 126.969383264313,33.4976160535262,0.0 126.969433316374,33.4976627686136,0.0 126.96949999766,33.4977250037502,0.0 126.969624996021,33.4978750008949,0.0 126.969825000875,33.4981500047996,0.0 126.969844372769,33.4981877406968,0.0 126.969857572079,33.4982193346019,0.0 126.969938657344,33.498522947955,0.0 126.969961285027,33.4985687984668,0.0 126.969987502096,33.4986083312988,0.0 126.970328056646,33.4988635496902,0.0 126.970358761633,33.4989005274588,0.0 126.970387496909,33.4989833319879,0.0 126.970417628546,33.4991359533314,0.0 126.97041857113,33.4991660067672,0.0 126.970399998694,33.4993416672813,0.0 126.970394057619,33.499364818218,0.0 126.970269601061,33.4995763452042,0.0 126.970257342802,33.4995894455002,0.0 126.970171543924,33.4996718990635,0.0 126.970065000118,33.4997897990433,0.0 126.970041454223,33.4998211383185,0.0 126.969969135646,33.4999999996076,0.0 126.969960343298,33.5000217477434,0.0 126.969824570781,33.5003916319003,0.0 126.969798173022,33.5004972024362,0.0 126.969762502524,33.5006333381421,0.0 126.969751029492,33.5007172060552,0.0 126.969685029196,33.5007241412751,0.0 126.969599228706,33.5007303057695,0.0 126.969489701051,33.5007292632269,0.0 126.969423857073,33.5007341587998,0.0 126.969391799954,33.500744177264,0.0 126.969347801214,33.5007778119519,0.0 126.969229629608,33.5009395213306,0.0 126.969183429117,33.5009853716235,0.0 126.968878886899,33.5012693351264,0.0 126.968808172607,33.5013221189657,0.0 126.968739342863,33.5013648883242,0.0 126.96867156083,33.501395123252,0.0 126.968332028834,33.5015243993695,0.0 126.968156657704,33.5015852764542,0.0 126.9680906578,33.5015976063342,0.0 126.968024657597,33.5016029997972,0.0 126.96795677156,33.5015991470796,0.0 126.967738973006,33.5015721759877,0.0 126.967535314822,33.5015405826756,0.0 126.967426648482,33.5015165495564,0.0 126.967197982977,33.5018417095313,0.0 126.967120317193,33.5019541913353,0.0 126.967023010263,33.5020970205874,0.0 126.966992658191,33.502125590114,0.0 126.966948019913,33.5021488034008,0.0 126.966887504718,33.5021749970613,0.0 126.966832887205,33.5022240967637,0.0 126.966786686533,33.5022934494568,0.0 126.966599998618,33.5026083370001,0.0 126.966537211754,33.5026871678184,0.0 126.966410486013,33.5028047376319,0.0 126.966289259175,33.5028928860738,0.0 126.966234876507,33.5029347495596,0.0 126.965911714491,33.5031488057749,0.0 126.965843829287,33.5032000504082,0.0 126.965791971848,33.5032485967169,0.0 126.965776740955,33.5032739914041,0.0 126.96576114927,33.5033073052161,0.0 126.965599995614,33.5037916694276,0.0 126.965585227085,33.5038385705022,0.0 126.965528254438,33.5040199482618,0.0 126.965500485164,33.5041083564483,0.0 126.965460007654,33.5042952283627,0.0 126.965425492463,33.5045820797114,0.0 126.965337413503,33.5051843638792,0.0 126.965323127845,33.5053521911327,0.0 126.965282663047,33.5055402531952,0.0 126.965237501538,33.5056499965083,0.0 126.965074999346,33.5058833326678,0.0 126.964694429103,33.5064468431853,0.0 126.964552731851,33.5066605136041,0.0 126.964370914689,33.5069614389778,0.0 126.964100724453,33.5074315926448,0.0 126.963870621666,33.5078501204246,0.0 126.964096114322,33.5081358049122,0.0 126.964258797659,33.5083773376839,0.0 126.964420117004,33.5086954583913,0.0 126.964539395644,33.5088644397198,0.0 126.964652057271,33.5087953107701,0.0 126.964669972734,33.508777587036,0.0 126.964713708983,33.5087668352681,0.0 126.964896258577,33.5088018620317,0.0 126.965024116344,33.5087968491572,0.0 126.965268912256,33.5087161355457,0.0 126.965456111912,33.5086327551262,0.0 126.965677714175,33.5085400348367,0.0 126.965796907045,33.5085200298538,0.0 126.965887310522,33.5084806703757,0.0 126.965960115406,33.5084720010828,0.0 126.966328910901,33.50850535667,0.0 126.966776115723,33.5085186920652,0.0 126.966902515723,33.5085120205582,0.0 126.967249999241,33.5084249978436,0.0 126.967262498698,33.5085833346567,0.0 126.96723749613,33.508708336723,0.0 126.967164915849,33.5089457241379,0.0 126.96710000172,33.5091916674043,0.0 126.96702500289,33.5093000024814,0.0 126.966899996827,33.5093916710213,0.0 126.966662502348,33.5095000012624,0.0 126.966474996219,33.5096000046868,0.0 126.966337504345,33.5097416675437,0.0 126.966211292622,33.5099049988517,0.0 126.966062503157,33.5102083325283,0.0 126.965962506206,33.5103333352949,0.0 126.965637498172,33.5108000000394,0.0 126.965574996866,33.5109083335993,0.0 126.965575004268,33.5109666717969,0.0 126.965600001535,33.5110583363967,0.0 126.96566151581,33.5112342955536,0.0 126.96569357215,33.5113460322799,0.0 126.965681314684,33.5114007436935,0.0 126.965625686761,33.5114593087418,0.0 126.965448428391,33.5115980145475,0.0 126.965362495415,33.5116333318815,0.0 126.965233457953,33.5116839350462,0.0 126.965192570568,33.5117031110059,0.0 126.965100004147,33.5117833378235,0.0 126.964987500415,33.5119333331943,0.0 126.964999999671,33.5120333319727,0.0 126.964962499668,33.5123583315003,0.0 126.964962496378,33.5125250024754,0.0 126.964925001145,33.5127250004014,0.0 126.964864914199,33.5130504346366,0.0</coordinates>
</LineString>
<LineString>
<coordinates>126.943593803382,33.5014575251527,0.0 126.943492300234,33.5014750036542,0.0 126.943451414026,33.5014809713526,0.0 126.943431887142,33.501485562935,0.0 126.943419628193,33.5014917346342,0.0 126.943407258344,33.501502502555,0.0 126.943390399919,33.5015272193872,0.0 126.943386513482,33.5015379494466,0.0 126.943376801403,33.5015774926657,0.0 126.943362943431,33.501775676792,0.0 126.943371599719,33.5019669899077,0.0 126.943373428346,33.502003961812,0.0 126.943369370113,33.5020468653894,0.0 126.943359289486,33.5021392516172,0.0 126.943347970553,33.502203762391,0.0 126.943333389842,33.5022453635376,0.0 126.943296943873,33.50234167531,0.0 126.943247110136,33.5024314843461,0.0 126.943228229679,33.5024598771482,0.0 126.94320242556,33.5024992037993,0.0 126.94296694394,33.502820212446,0.0 126.942867591553,33.5029410057255,0.0 126.942843544128,33.5029682483464,0.0 126.942814413482,33.5029990469378,0.0 126.942700383803,33.503110548702,0.0 126.94266062908,33.5031433616606,0.0 126.942627328936,33.5031720054896,0.0 126.94255974273,33.5032205059223,0.0 126.942497247521,33.503256028492,0.0 126.942447428274,33.5032821823218,0.0 126.942394952123,33.5033036470806,0.0 126.942221800729,33.5033602551079,0.0 126.942076600415,33.5034114996736,0.0 126.942061913467,33.5034241617682,0.0 126.94205531437,33.5034365046569,0.0 126.94205679998,33.5034546515971,0.0 126.942075531276,33.5034914882312,0.0</coordinates>
</LineString>
<LineString>
<coordinates>126.943593803382,33.5014575251527,0.0 126.943549997422,33.5015500016216,0.0 126.943525004102,33.5016416718502,0.0 126.943524998353,33.501689395696,0.0 126.94352499741,33.5017083347322,0.0 126.943547107244,33.5017816088735,0.0 126.943541800576,33.5019200195518,0.0 126.943543915714,33.5020202573796,0.0 126.943541258491,33.5020679907841,0.0 126.943533262939,33.5021280463981,0.0 126.943495599056,33.5022922157698,0.0 126.943430519108,33.5024602938731,0.0 126.943413972033,33.5024999897031,0.0 126.943391794204,33.5025379360519,0.0 126.943304599299,33.5026715543828,0.0 126.943276314637,33.5027206193528,0.0 126.943262031957,33.5027466469276,0.0 126.943214266598,33.5028445532624,0.0 126.943125002515,33.5029333312033,0.0 126.942762503029,33.5032666668038,0.0 126.942637499968,33.5033333355416,0.0 126.942375002152,33.5033916651164,0.0 126.942175002018,33.5034583299765,0.0 126.942075531276,33.5034914882312,0.0</coordinates>
</LineString>
<LineString>
<coordinates>126.942075531276,33.5034914882312,0.0 126.941953485566,33.5035452773059,0.0 126.941930692898,33.5035583719055,0.0 126.941769515922,33.5037144842054,0.0 126.941758199747,33.5037260428236,0.0 126.941687502169,33.5038333375748,0.0 126.941646000889,33.5039868873928,0.0 126.941640481233,33.5040393614476,0.0 126.941650006661,33.5041916658584,0.0 126.9416299722,33.5042816382192,0.0 126.941612058538,33.5043263339254,0.0 126.941512502053,33.5045416689061,0.0 126.941512503586,33.5045916641404,0.0 126.941525005231,33.5046500041269,0.0 126.941575006108,33.5046999990235,0.0 126.941662496461,33.5047750027475,0.0 126.941762498518,33.5048750012186,0.0 126.941800002978,33.5050083335391,0.0 126.941799996944,33.5051333345097,0.0 126.941800004155,33.5053166643064,0.0 126.941724996748,33.5056500017873,0.0 126.941700001356,33.5057499962977,0.0 126.941645999558,33.5058470948927,0.0 126.94158749797,33.5059249990895,0.0 126.941487503516,33.5060416666453,0.0 126.941361256593,33.5061838428542,0.0 126.941310642726,33.5062597120302,0.0 126.941275004248,33.5063500042397,0.0 126.94126231204,33.5064134438974,0.0 126.941293267739,33.5063977113406,0.0 126.941309514968,33.5063849044435,0.0 126.941318829625,33.5063753335295,0.0 126.941334384873,33.5063518916055,0.0 126.94134730048,33.5063324245339,0.0 126.941354772292,33.5063147060908,0.0 126.941367972005,33.5063023621813,0.0 126.941390200503,33.5062946639546,0.0 126.941410286485,33.5062936524068,0.0 126.941429799097,33.5063000596286,0.0 126.941578930829,33.5063926007316,0.0 126.941611228614,33.5064149916613,0.0 126.941636776748,33.5064365952185,0.0 126.941685714988,33.5064828759706,0.0 126.941719125793,33.5065161515183,0.0 126.94179948717,33.506605324938,0.0 126.941837059575,33.5066447666934,0.0 126.941880887208,33.5066857631671,0.0 126.94190811427,33.5067051474391,0.0 126.941927086414,33.5067096760273,0.0 126.941947900484,33.5067100131068,0.0 126.942020499828,33.506704618152,0.0 126.942066347936,33.50670194219,0.0 126.942159099911,33.5066965278071,0.0 126.94220529972,33.506701922129,0.0 126.942221816494,33.5067054745821,0.0 126.94224200108,33.5067143052724,0.0 126.94225376491,33.5067232637521,0.0 126.942263685534,33.5067343625539,0.0 126.942268815061,33.5067473902257,0.0 126.942278772994,33.5067791039549,0.0 126.942282432857,33.5068130772302,0.0 126.942284500494,33.5068637451083,0.0 126.942289143489,33.506887877027,0.0 126.942294400064,33.5069082484554,0.0 126.942307057927,33.5069357051695,0.0 126.942315542634,33.5069480477,0.0 126.942341001172,33.5069665618254,0.0 126.942363701199,33.5069716284552,0.0 126.942442900436,33.506974326207,0.0 126.942496594169,33.5069779215153,0.0 126.942535230048,33.5069827620005,0.0 126.942553771899,33.506987181759,0.0 126.94256926582,33.5069958200832,0.0 126.942591401425,33.5070093877825,0.0 126.942692360601,33.5070649959717,0.0 126.942894999671,33.507176606754,0.0 126.942942428364,33.5071994804576,0.0 126.942966114296,33.5072080201423,0.0 126.942987801007,33.5072103328802,0.0 126.943033942683,33.5072095681339,0.0 126.943069900842,33.5072089700871,0.0 126.94342630065,33.5071846968839,0.0 126.943480799482,33.5071836843535,0.0 126.943502284745,33.5071854389855,0.0 126.943522086394,33.5071916104601,0.0 126.943538499869,33.5071981834457,0.0 126.943604501291,33.5072413366933,0.0 126.943694468339,33.5073148670392,0.0 126.943738314592,33.5073468775995,0.0 126.943785457284,33.5073761917068,0.0 126.943829787864,33.5073960888952,0.0 126.943896101841,33.5074240186247,0.0 126.943876145564,33.5074629670061,0.0 126.943850588307,33.5075072736291,0.0 126.94372500575,33.5077249988011,0.0 126.943574995728,33.507950001351,0.0 126.943600543048,33.5080267116955,0.0 126.943685400599,33.5082944911823,0.0 126.943705200394,33.5083700097235,0.0 126.943712497327,33.5084666682106,0.0 126.943675006222,33.5086249990268,0.0 126.94358750306,33.5089666694126,0.0 126.943557171433,33.509108234779,0.0 126.94345000165,33.5093666695548,0.0 126.943389342592,33.5095752139633,0.0 126.943376977873,33.5096492497471,0.0 126.943387503464,33.5099999977531,0.0 126.943380857937,33.5100495116708,0.0 126.943336543043,33.5102182723681,0.0 126.943319600734,33.5103678834275,0.0 126.943312500668,33.5105666696017,0.0 126.943287496358,33.5107083342179,0.0 126.943272430111,33.5108597879704,0.0 126.943277143491,33.5109025563904,0.0 126.943292228877,33.5109229774408,0.0 126.943374997565,33.5110333379904,0.0 126.943460542922,33.5111539789709,0.0 126.944307400476,33.5113503190165,0.0 126.944333772327,33.5113568903242,0.0 126.944362171677,33.5113673517779,0.0 126.944383858423,33.5113843247661,0.0 126.944402601175,33.5114039484391,0.0 126.944442327511,33.5114524763244,0.0 126.944485600906,33.5115040528328,0.0 126.944614301137,33.5116496950198,0.0 126.94464031422,33.5116743806613,0.0 126.944667101341,33.5117009387303,0.0 126.944693409355,33.5117178327389,0.0 126.944713300717,33.51173060718,0.0 126.944732714225,33.5117515236419,0.0 126.944740208793,33.5117652939765,0.0 126.944745213386,33.511779361433,0.0 126.944753001448,33.5118052117047,0.0 126.944793499719,33.5119483972542,0.0 126.944852457731,33.5121950965224,0.0 126.944865099705,33.5122349579608,0.0 126.944878935569,33.5122933778538,0.0 126.94489017155,33.5123285531491,0.0 126.944898542616,33.5123443191266,0.0 126.944917514102,33.5123632671754,0.0 126.944933848315,33.5123713067165,0.0 126.944954199776,33.5123805995871,0.0 126.945046571785,33.5124083476296,0.0 126.945127011135,33.5124279987337,0.0 126.945284199997,33.5124615122225,0.0 126.945379058266,33.5124867977337,0.0 126.945404858559,33.5124962899856,0.0 126.945436063966,33.5125108661168,0.0 126.945449201146,33.5125208483222,0.0 126.945459828206,33.5125333554645,0.0 126.945531701189,33.5126179423666,0.0 126.945625601119,33.5127289232038,0.0 126.945655656844,33.5127701468147,0.0 126.945672760419,33.5127930808507,0.0 126.945732972662,33.5129090046767,0.0 126.945907876933,33.5129446098348,0.0 126.945930028931,33.5129491190072,0.0 126.946112498178,33.5130000006339,0.0 126.946146887211,33.513013147398,0.0 126.946160085849,33.5130316620735,0.0 126.946178944023,33.513113434107,0.0 126.946188027288,33.5132122110137,0.0 126.946188479123,33.5132321677234,0.0 126.946188248075,33.5132599737773,0.0 126.946188658079,33.5132892811704,0.0 126.946194029867,33.5133340617569,0.0 126.9462033017,33.5133896309502,0.0 126.946210056789,33.5134065759515,0.0 126.946237005848,33.5134491364698,0.0 126.946254371439,33.5134721470151,0.0 126.946308115243,33.5135222904794,0.0 126.946364687316,33.5135716631925,0.0 126.946463686184,33.5136364628816,0.0 126.94654107176,33.5136831473663,0.0 126.946657298611,33.5137442231872,0.0 126.946697514808,33.513762205586,0.0 126.9468036408,33.5138038677527,0.0 126.946862503971,33.5138249980265,0.0 126.946942658352,33.513850148427,0.0 126.947087496029,33.5138833303444,0.0 126.947229285178,33.513914948269,0.0 126.947355214387,33.5139719863913,0.0 126.947393455857,33.5139984617475,0.0 126.947436086968,33.5140430996506,0.0 126.947528199683,33.5141608499839,0.0 126.947609139059,33.5143100233189,0.0 126.947644457049,33.5143509506181,0.0 126.947700003396,33.514383332882,0.0 126.947776457402,33.5144141397467,0.0 126.947824996514,33.5144166665843,0.0 126.947881115753,33.514408745031,0.0 126.947937687167,33.5143956446692,0.0 126.948043284843,33.5143810044251,0.0 126.948087505413,33.5143833368572,0.0 126.948412500908,33.5144666631354,0.0 126.948659885364,33.5145240314893,0.0 126.948699515571,33.5145401312098,0.0 126.948747316635,33.5145575978478,0.0 126.948988472923,33.5146812686754,0.0 126.949030457865,33.5146992581869,0.0 126.949074102281,33.5147140296584,0.0 126.949199999753,33.5147500051179,0.0 126.949405399435,33.5150767194789,0.0 126.949182274147,33.5155060497557,0.0 126.949169056305,33.5155480632857,0.0 126.949158996194,33.5156036833615,0.0 126.949137498893,33.5159333338793,0.0 126.949134171974,33.5159930801949,0.0 126.949083258323,33.5162681819524,0.0 126.949069115054,33.5163128756094,0.0 126.948937497846,33.5165499979634,0.0 126.948921720287,33.5165762936309,0.0 126.948905057535,33.5166249639113,0.0 126.948902134867,33.5166528499197,0.0 126.94891920128,33.5166627231715,0.0 126.949037499448,33.516733330253,0.0 126.94919610158,33.5168093390764,0.0 126.949175005571,33.5169166673882,0.0 126.949125686806,33.5170345345577,0.0 126.949053085675,33.5171035025504,0.0 126.948981428318,33.5171454994349,0.0 126.948907430161,33.5171823722286,0.0 126.948714433389,33.5173255991514,0.0 126.94868983018,33.5173627131027,0.0 126.948689039749,33.5173953165047,0.0 126.948688618796,33.5174127744254,0.0 126.948712498746,33.5175083337448,0.0 126.948787503484,33.5176500028981,0.0 126.948962498628,33.5178750051768,0.0 126.949325000695,33.5183749964417,0.0 126.949487505979,33.5187583335147,0.0 126.949574998737,33.5190250039606,0.0 126.94961250533,33.5192083376727,0.0 126.949612499318,33.5192416646178,0.0 126.949575699718,33.5193158070501,0.0 126.949537503243,33.5193583316628,0.0 126.949378468594,33.5194313411777,0.0 126.949126288452,33.5195163105091,0.0 126.948760282383,33.5196701324862,0.0 126.948699398437,33.5196957203517,0.0 126.948427708076,33.5198157863299,0.0 126.94802616401,33.5200086916436,0.0 126.947950205034,33.5200646074885,0.0 126.94785937533,33.5201458467958,0.0 126.947847171121,33.5201677569543,0.0 126.947844677064,33.5202034157445,0.0 126.947874995732,33.520258334849,0.0 126.947933914189,33.5203708066921,0.0 126.948077228937,33.5206397439404,0.0 126.948111172971,33.5207021615889,0.0 126.948199996708,33.5207750019882,0.0 126.94825071574,33.520809274392,0.0 126.948337505334,33.5208416639581,0.0 126.948525002654,33.5211166718775,0.0 126.948618428537,33.5213221020753,0.0 126.948643887168,33.521436149349,0.0 126.948639172941,33.5214819996554,0.0 126.948625001455,33.5215166700675,0.0 126.948480772736,33.521779062579,0.0 126.948465318381,33.5218203278001,0.0 126.948421428816,33.5220553797381,0.0 126.948362504304,33.5223249974389,0.0 126.948358200672,33.5223851329282,0.0 126.94836249584,33.5224416640292,0.0 126.948372342661,33.5224980238748,0.0 126.948381563174,33.5225243509461,0.0 126.948436458462,33.5226197780719,0.0 126.948512829807,33.5227099372365,0.0 126.948551485814,33.5227453845277,0.0 126.948674057378,33.5228609717067,0.0 126.948779658047,33.522927243977,0.0 126.948872394142,33.5229650369553,0.0 126.948950907496,33.5229855677494,0.0 126.949215949365,33.5230119651955,0.0 126.949574436019,33.5229967464011,0.0 126.949908492412,33.522991023813,0.0 126.950038886632,33.5230000090433,0.0 126.95014185797,33.523038889174,0.0 126.950238952945,33.5230993537162,0.0 126.950283513399,33.5231245135375,0.0 126.950307587965,33.5231272760127,0.0 126.950349277994,33.5231094490895,0.0 126.950435542765,33.5230690098081,0.0 126.950587927479,33.5230012460941,0.0 126.950704971066,33.5229576819599,0.0 126.950802085511,33.5229507452071,0.0 126.950936915858,33.5229819553875,0.0 126.951102858286,33.5230528492971,0.0 126.951140990027,33.5230701389447,0.0 126.951201856182,33.5231087182076,0.0 126.951309062243,33.5232205672565,0.0 126.951409687385,33.5233838410098,0.0 126.951510139737,33.523605262535,0.0 126.951619736364,33.523512513929,0.0 126.951725224542,33.5233797094406,0.0 126.951840831922,33.5232337358968,0.0 126.951943232002,33.5231345241584,0.0 126.952098967459,33.5229911270106,0.0 126.952185609787,33.5228906551698,0.0 126.952286739447,33.5227674272887,0.0 126.952418003084,33.5226383348034,0.0 126.952628149131,33.5224097458872,0.0 126.952471749227,33.5222999733618,0.0 126.952237130874,33.5222220900681,0.0 126.952187196456,33.5221846458024,0.0 126.952150002387,33.5221333323191,0.0 126.952087498766,33.5220416705314,0.0 126.952049997968,33.5219416679847,0.0 126.952012505748,33.5218249978532,0.0 126.951999997564,33.5214416700406,0.0 126.951962497772,33.5213416674643,0.0 126.951837499442,33.5211416672725,0.0 126.951806600466,33.5211004645727,0.0 126.951907300873,33.5208601830221,0.0 126.95197330102,33.520792756988,0.0 126.952039300163,33.5207603908689,0.0 126.952059099889,33.5207226329512,0.0 126.95206240153,33.5206457658017,0.0 126.952003000637,33.5204812441455,0.0 126.951983201375,33.5204448331853,0.0 126.951956800871,33.5204124700486,0.0 126.951904000764,33.5203989835874,0.0 126.951837999592,33.5203976362043,0.0 126.951795100272,33.5203854987571,0.0 126.95176540131,33.5203585274828,0.0 126.951748901494,33.5203207691412,0.0 126.951732400823,33.5202749189331,0.0 126.951745599149,33.5202344635492,0.0 126.951808300894,33.5200240917437,0.0 126.951795099963,33.5198959805426,0.0 126.951768699476,33.5198312515716,0.0 126.951769965154,33.5197696023551,0.0 126.952402909731,33.5198745437712,0.0 126.952527708249,33.5198531963656,0.0 126.952724515343,33.5198451908352,0.0 126.952986115842,33.5198558618402,0.0 126.953225311812,33.5198385272358,0.0 126.953701307556,33.5197978389687,0.0 126.953755706574,33.5198085142348,0.0 126.953781913959,33.5198297499006,0.0 126.953870800948,33.5197948396471,0.0 126.953900165006,33.5197809455636,0.0 126.95393350138,33.5197651735988,0.0 126.953954686881,33.5197504187914,0.0 126.953969772322,33.5197303632594,0.0 126.953975784953,33.5197173598782,0.0 126.953982972238,33.5197018188954,0.0 126.953983085262,33.5196814243109,0.0 126.953979700158,33.5196545926738,0.0 126.953978631898,33.5196231464628,0.0 126.953981085681,33.519566819771,0.0 126.953985915867,33.5195356247166,0.0 126.953992128069,33.5195128221363,0.0 126.954009556242,33.5194633095307,0.0 126.954117709369,33.5194180882926,0.0 126.954176112427,33.5194100836906,0.0 126.954323309134,33.5194227552396,0.0 126.95445000442,33.5194250000523,0.0 126.954511211486,33.5194045987237,0.0 126.954550001904,33.5193916713931,0.0 126.954787308363,33.5193560613588,0.0 126.95482251218,33.5193607348452,0.0 126.954896908129,33.5194227556302,0.0 126.954976908461,33.5194754474111,0.0 126.955080108255,33.5195221355581,0.0 126.955222506584,33.5196682007579,0.0 126.955280907913,33.519694875199,0.0 126.955330515365,33.519688211488,0.0 126.955396913651,33.5196621937333,0.0 126.955476108084,33.5196441875337,0.0 126.955588106326,33.5196548625082,0.0 126.955684912051,33.5197082145315,0.0 126.955791237003,33.519793527645,0.0 126.955854164799,33.5198088989304,0.0 126.955867856903,33.5198121811806,0.0 126.955890485709,33.5198137504305,0.0 126.95591824394,33.5198137985929,0.0 126.95593762907,33.5198114103238,0.0 126.955956399238,33.5198056282438,0.0 126.955989844074,33.5197893761601,0.0 126.956045499865,33.5197530357135,0.0 126.956130048959,33.5196912087914,0.0 126.956147380799,33.5196785352088,0.0 126.956165799335,33.5196632955394,0.0 126.956187913732,33.5196442405827,0.0 126.95620445874,33.519623180457,0.0 126.956213801024,33.5196087437561,0.0 126.956228028363,33.5195815237679,0.0 126.956242679617,33.5195505214717,0.0 126.956263300291,33.5195089514711,0.0 126.956311623127,33.5193991568407,0.0 126.956321372124,33.5193786388425,0.0 126.956341223057,33.5193443238494,0.0 126.956352900799,33.5193256287762,0.0 126.95636130231,33.5193145878494,0.0 126.956386429854,33.5192845244309,0.0 126.956407876366,33.5192623154146,0.0 126.956425000903,33.5192459877346,0.0 126.956530328003,33.5191737117513,0.0 126.956562743999,33.5191549237758,0.0 126.956595717023,33.5191375491783,0.0 126.956626329113,33.5191233494338,0.0 126.956643244166,33.5191136053874,0.0 126.956653257758,33.5191047812363,0.0 126.956660215149,33.5190935484339,0.0 126.95666404398,33.519076343248,0.0 126.956661744159,33.5190608105865,0.0 126.956656429533,33.5190397178179,0.0 126.956642800393,33.5189951596588,0.0 126.956641358259,33.5189870917457,0.0 126.956641943386,33.518977495717,0.0 126.956649485828,33.5189705533604,0.0 126.956662601018,33.5189654928497,0.0 126.956817700957,33.5189196416934,0.0 126.956972801214,33.5188643524945,0.0 126.957002529037,33.5188513307121,0.0 126.957012485449,33.5188448101418,0.0 126.957024204642,33.5188314385626,0.0 126.957032193556,33.5188202476943,0.0 126.957065200178,33.5187740002582,0.0 126.957102470604,33.5187226424501,0.0 126.957127900147,33.5186930888657,0.0 126.957154271453,33.5186951058808,0.0 126.957196701224,33.5186897052986,0.0 126.957219329696,33.518682761852,0.0 126.957247473456,33.5186681674339,0.0 126.957268412576,33.5186578975845,0.0 126.95727640136,33.5186539816163,0.0 126.95730795702,33.5186441915223,0.0 126.95735415707,33.5186395632467,0.0 126.957386214026,33.5186377983813,0.0 126.957429585993,33.518644962157,0.0 126.957870399811,33.5187348936669,0.0 126.957897244429,33.5187398489865,0.0 126.957914800326,33.5187391248331,0.0 126.957927058735,33.5187329533736,0.0 126.957972672954,33.518696647375,0.0 126.958399786016,33.5183417903062,0.0 126.958419584965,33.5183371618006,0.0 126.95843938669,33.5183417905887,0.0 126.958468258446,33.5183541815041,0.0 126.958554415222,33.5183849916763,0.0 126.958579871853,33.5183942484791,0.0 126.958653414199,33.5184127624263,0.0 126.95868727103,33.5184151399293,0.0 126.958705271631,33.5184150760101,0.0 126.958735055617,33.5184116487981,0.0 126.958794401502,33.5184004570578,0.0 126.958826900675,33.5183919346558,0.0 126.958858864778,33.5183756142124,0.0 126.958873601353,33.5183680909855,0.0 126.958936300575,33.5183222413958,0.0 126.959074899307,33.5182251475662,0.0 126.959115414059,33.5181990764231,0.0 126.959045486037,33.5181669177625,0.0 126.958999998084,33.5181416700432,0.0 126.958829956673,33.5179813822338,0.0 126.958711456028,33.5178671197555,0.0 126.958641628809,33.5177697832128,0.0 126.958634686617,33.5177336876636,0.0 126.958639114543,33.5176683444999,0.0 126.958662504264,33.5175749996584,0.0 126.958676829056,33.5175053656189,0.0 126.958674996519,33.5174416653239,0.0 126.958607768759,33.5172365397439,0.0 126.958523144441,33.5170657429701,0.0 126.958200686185,33.5165991504873,0.0 126.958175488081,33.5165724453901,0.0 126.958075005427,33.5164749964459,0.0 126.957924998089,33.5163749993205,0.0 126.957865028723,33.5163213527838,0.0 126.95782499647,33.516275005093,0.0 126.957749996684,33.5161166643353,0.0 126.957731142722,33.5160786151418,0.0 126.957692486352,33.5160316100722,0.0 126.957612498241,33.5159000013697,0.0 126.957587504454,33.5158416710992,0.0 126.957437503418,33.515466669854,0.0 126.957361542986,33.5152856774243,0.0 126.957251814441,33.515037633598,0.0 126.957232015634,33.5149296346941,0.0 126.957265372614,33.5147073493672,0.0 126.957273857772,33.5144530538509,0.0 126.957280458414,33.5143640518188,0.0 126.957251227849,33.5141124536732,0.0 126.95722577275,33.5140115061613,0.0 126.957174857924,33.513787648704,0.0 126.957274799756,33.5137313956042,0.0 126.957537505374,33.5135666692205,0.0 126.957712502449,33.5134416675928,0.0 126.957960495839,33.5132400493081,0.0 126.958161524465,33.5130601875008,0.0 126.958287496356,33.5129333383512,0.0 126.958459157149,33.5127369233004,0.0 126.958587257334,33.5125658770299,0.0 126.958674001343,33.5124811122405,0.0 126.958852200192,33.5123566607938,0.0 126.958990800952,33.5122788307469,0.0 126.959034171566,33.51225879679,0.0 126.959470900052,33.5123618204672,0.0 126.959982400138,33.5124589148356,0.0 126.959975004095,33.5125083306174,0.0 126.959962496232,33.5125666681711,0.0 126.959916685964,33.5126421656667,0.0 126.95974885661,33.5128879847307,0.0 126.959746028516,33.5129611906748,0.0 126.959779029536,33.5130525053898,0.0 126.959834657174,33.5130987415596,0.0 126.9599000028,33.5131333328514,0.0 126.960287501709,33.5131416690448,0.0 126.960424999452,33.5131333300121,0.0 126.960936857059,33.513038248939,0.0 126.961314943064,33.5130212953409,0.0 126.961537458531,33.5130189850319,0.0 126.96172508624,33.513023608838,0.0 126.961837497988,33.5130500012521,0.0 126.961912497444,33.5131083310202,0.0 126.961974996943,33.5132083308908,0.0 126.962074996682,33.5133750028512,0.0 126.962287497297,33.5135916716822,0.0 126.962350005213,33.5136416673656,0.0 126.96244999901,33.5136666703557,0.0 126.962587496699,33.5136583377345,0.0 126.963062504723,33.5136250049881,0.0 126.963212506514,33.5136250054668,0.0 126.963312504815,33.5136666666178,0.0 126.963462498029,33.5138250041484,0.0 126.96357500454,33.5139250034437,0.0 126.963737496835,33.514000000393,0.0 126.96398750578,33.514066671804,0.0 126.964087497445,33.5140833305612,0.0 126.964162504001,33.5140833302293,0.0 126.964224999876,33.5140500032125,0.0 126.964387497728,33.5139250013637,0.0 126.964500002296,33.5137999995447,0.0 126.964527371883,33.5136583192793,0.0 126.964587504309,33.5134250053374,0.0 126.964631849158,33.5132949089196,0.0 126.964673513944,33.5132178332727,0.0 126.964752715745,33.5131476343151,0.0 126.964864914199,33.5130504346366,0.0</coordinates>
</LineString>
<LineString>
<coordinates>126.964864914199,33.5130504346366,0.0 126.96494787515,33.5131678766432,0.0 126.964996915887,33.5132205345318,0.0 126.965112499871,33.5133083333282,0.0 126.965262504375,33.513424998258,0.0 126.965437502996,33.5135499970632,0.0 126.966112501676,33.5140833346406,0.0 126.966212499484,33.5141500045591,0.0 126.966285687026,33.5141733304691,0.0 126.966362498578,33.5141750035119,0.0 126.966524997112,33.5141583316705,0.0 126.966735869115,33.5141560395174,0.0 126.966800000058,33.5141916701161,0.0 126.966850001399,33.5142499977568,0.0 126.966899998446,33.5143250023637,0.0 126.966956178144,33.5143957803509,0.0</coordinates>
</LineString>
<LineString>
<coordinates>126.966956178144,33.5143957803509,0.0 126.967012501208,33.5144333326366,0.0 126.96706448669,33.5144449638648,0.0 126.967137085897,33.5144492018274,0.0 126.967394486368,33.5144769427726,0.0 126.967506686757,33.5144965915136,0.0 126.967549228126,33.5145080487201,0.0 126.967600722267,33.5145201956373,0.0 126.967694070001,33.5145519128328,0.0 126.968087506135,33.5146666688923,0.0 126.968177057444,33.514686158667,0.0 126.968276057621,33.5146842313425,0.0 126.96836374251,33.5146726732838,0.0 126.968646600294,33.5145821281231,0.0 126.968680542978,33.5145759632692,0.0 126.968802172637,33.5145817433165,0.0 126.968829292105,33.5145874318191,0.0 126.9689374991,33.5146333361077,0.0 126.969125005958,33.5147250018064,0.0 126.969216086075,33.5147666849471,0.0 126.96936249613,33.5148166649923,0.0 126.969474430066,33.5148402761028,0.0 126.969587505188,33.514841665899,0.0 126.969533828304,33.5148780352958,0.0 126.969463299305,33.5149279806222,0.0 126.96945442839,33.5149390672397,0.0 126.969446409894,33.5149557478883,0.0 126.969442370872,33.5149689658366,0.0 126.969442486113,33.5149832475374,0.0 126.96944680063,33.5150008018104,0.0 126.969470657406,33.5150244463419,0.0 126.969485744259,33.5150336950331,0.0 126.969511410326,33.5150488348427,0.0 126.969523570702,33.5150580759514,0.0 126.969531474614,33.5150738448896,0.0 126.969535901433,33.5150871084519,0.0 126.969531115075,33.5151028197439,0.0 126.969515085994,33.5151205626992,0.0 126.969493291571,33.5151421284432,0.0 126.969459015084,33.5151680678882,0.0 126.96944782986,33.5151789821938,0.0 126.969441542863,33.5151899917957,0.0 126.969439175819,33.5152027693436,0.0 126.969443315171,33.5152221048514,0.0 126.969449777265,33.5152617606469,0.0 126.969448144403,33.5152794771691,0.0 126.969442172785,33.5152854383372,0.0 126.969434648289,33.5152921365865,0.0 126.969347800897,33.5153298446817,0.0 126.969281458679,33.5153560794074,0.0 126.969252028935,33.5153658767252,0.0 126.969223585781,33.5153671509377,0.0 126.969182142533,33.5153611958044,0.0 126.969143600311,33.5153658756377,0.0 126.969120970794,33.5153697345894,0.0 126.969091290651,33.5153782376591,0.0 126.968984801035,33.5154215452794,0.0 126.968813286608,33.515482153275,0.0 126.968658100299,33.5155294279197,0.0 126.968532701026,33.515559094544,0.0 126.968426714264,33.5155862949559,0.0 126.968328100112,33.5156157338953,0.0 126.968273228533,33.5156293611949,0.0 126.968215900339,33.5156319166242,0.0 126.968110299151,33.5156157331088,0.0 126.96795850088,33.515575278057,0.0 126.967846299881,33.5155456094231,0.0 126.967783337579,33.5155278642434,0.0 126.967745342293,33.5155240192165,0.0 126.967687900343,33.515521335306,0.0 126.967621899746,33.5155159413338,0.0 126.967586001123,33.5155062770709,0.0 126.967549301429,33.5154916685709,0.0 126.967507744051,33.5154661628487,0.0 126.967459543579,33.5154236129908,0.0 126.967394200064,33.5153541181513,0.0 126.967229201084,33.5151626255605,0.0 126.96716767356,33.5150763186203,0.0 126.96711645844,33.5149948200826,0.0 126.967064900985,33.5148951043847,0.0 126.967044971299,33.5148513734913,0.0 126.967032902555,33.5148190911406,0.0 126.96701431413,33.5147585535843,0.0 126.96699577055,33.5146847055527,0.0 126.966983924685,33.5146249798202,0.0 126.966969372784,33.5145365913992,0.0 126.966956178144,33.5143957803509,0.0</coordinates>
</LineString>
</MultiGeometry>
</Placemark>
</Folder>
</Document></kml>
