<?xml version="1.0" encoding="UTF-8"?>

<kml xmlns:xsd="http://www.w3.org/2001/XMLSchema" xmlns:gx="http://www.google.com/kml/ext/2.2" xmlns:atom="http://www.w3.org/2005/Atom" xmlns="http://www.opengis.net/kml/2.2">
<Document>
<name>olle_4_course</name>
<visibility>1</visibility>
<Schema name="olle_4_course" id="kml_schema_ft_olle_4_course">
<SimpleField type="xsd:string" name="MEMO">
<displayName>MEMO</displayName>
</SimpleField>
</Schema>
<Folder id="kml_ft_olle_4_course">
<name>olle_4_course</name>
<Placemark id="kml_1">
<name>kml_1</name>
<snippet> </snippet>
<description><![CDATA[<center><table><tr><th colspan='2' align='center'><em>Attributes</em></th></tr><tr bgcolor="#E3E3F3">
<th>MEMO</th>
<td>올레 4 코스</td>
</tr></table></center>]]></description>
<ExtendedData>
<SchemaData schemaUrl="#kml_schema_ft_olle_4_course">
<SimpleData name="MEMO">올레 4 코스</SimpleData>
</SchemaData>
</ExtendedData>
<MultiGeometry>
<LineString>
<coordinates>126.719720186099,33.2779760608856,0.0 126.719764213091,33.2779606035103,0.0 126.719807872625,33.2779475501145,0.0 126.719961557169,33.2779063225483,0.0 126.720148801353,33.2778633713709,0.0 126.720426386297,33.2777845688116,0.0 126.720930900311,33.2776826675394,0.0 126.721158042881,33.277652027765,0.0 126.721329642781,33.2776450933317,0.0 126.721491901369,33.2776462554931,0.0 126.721641029579,33.2776643252296,0.0 126.721744743155,33.27768515317,0.0 126.721887899989,33.2777217744751,0.0 126.721991529635,33.2777545164868,0.0 126.722148286716,33.277821696384,0.0 126.722294756089,33.2778911673779,0.0 126.722371501396,33.2779329069568,0.0 126.72246107287,33.2779910885795,0.0 126.722535557255,33.2780538909431,0.0 126.72260612576,33.2781228202311,0.0 126.722655544114,33.2781796391109,0.0 126.722702784778,33.2782418361006,0.0 126.722752479414,33.278314234049,0.0 126.72278848681,33.2783593801257,0.0 126.72282883948,33.2784254740389,0.0 126.722854571522,33.2784636529442,0.0 126.722888428844,33.2785044095045,0.0 126.722935572994,33.2785576390098,0.0 126.723003458093,33.2786262947582,0.0 126.723045949894,33.2786725355282,0.0 126.723079836788,33.2787051638638,0.0 126.723105372646,33.2787274811472,0.0 126.723132085827,33.2787480017447,0.0 126.723163050081,33.2787691841975,0.0 126.723298045517,33.2788628539796,0.0 126.723335428595,33.278884082001,0.0 126.72337505478,33.2789062433857,0.0 126.723448800211,33.2789381522798,0.0 126.723542857409,33.2789774250781,0.0 126.723571057096,33.2789996664189,0.0 126.723661327815,33.2790321562515,0.0 126.723725772325,33.2790553390323,0.0 126.723850228529,33.2790915957815,0.0 126.723928860246,33.2791104161233,0.0 126.723987887019,33.2791201384286,0.0 126.72407910093,33.279133690618,0.0 126.724260094406,33.2791513533172,0.0 126.72430751589,33.279152538325,0.0 126.724348672147,33.2791473599018,0.0 126.724381057849,33.2791409668053,0.0 126.724439892411,33.2791257405475,0.0 126.724473458724,33.2791201381759,0.0 126.72452059969,33.279116281385,0.0 126.724559830274,33.2791212610976,0.0 126.724590601435,33.2791296447148,0.0 126.724635243064,33.2791485724304,0.0 126.724656371131,33.2791648816568,0.0 126.7246695713,33.279185709057,0.0 126.724678671695,33.2791970623913,0.0 126.724697529735,33.2792097763504,0.0 126.724715771991,33.2792211955077,0.0 126.724757257701,33.2792412524222,0.0 126.724787427771,33.2792551379455,0.0 126.724814771946,33.2792643963748,0.0 126.724847771371,33.2792728808058,0.0 126.724939229446,33.2792913962333,0.0 126.725171785446,33.2793411625432,0.0 126.725534785673,33.2794078195432,0.0 126.726122429874,33.2795365817523,0.0 126.726215858594,33.2795521379318,0.0 126.72638524352,33.2795607810614,0.0 126.726556842956,33.2795661764864,0.0 126.726662444512,33.2795576988018,0.0 126.726711714853,33.2795520107526,0.0 126.726827685567,33.279534266747,0.0 126.726967929132,33.2795072250872,0.0 126.727012484862,33.279497237802,0.0 126.727103944397,33.279474095804,0.0 126.727203643628,33.2794575225151,0.0 126.727365900833,33.279431715536,0.0 126.727818385986,33.2793997274296,0.0 126.727881800225,33.2793984962158,0.0 126.727940956387,33.2794055072647,0.0 126.728368071505,33.2794817957078,0.0 126.728486170851,33.2795041816269,0.0 126.728530801129,33.2795072332169,0.0 126.728577628248,33.2795088098303,0.0 126.728633958723,33.2795045284582,0.0 126.728701144296,33.2794980094067,0.0 126.728860486368,33.2794802678062,0.0 126.728916900283,33.2794694747757,0.0 126.728983448981,33.2794576352927,0.0 126.72902462858,33.2794503106567,0.0 126.729073658786,33.279438737922,0.0 126.729121743176,33.2794294802757,0.0 126.729273543073,33.2793916823351,0.0 126.729479086514,33.2793430815237,0.0 126.729831386843,33.2792637180108,0.0 126.729876971673,33.279253595689,0.0 126.730011801284,33.2792281388592,0.0 126.730035043987,33.2792255748422,0.0 126.730091700815,33.2792213454759,0.0 126.730146505802,33.2792195367928,0.0 126.730219142515,33.2792202965632,0.0 126.73027080547,33.2792201997393,0.0 126.730313965437,33.2792240877264,0.0 126.730383198998,33.2792303248786,0.0 126.730448967521,33.2792405780225,0.0 126.730508601151,33.2792534664588,0.0 126.730564229089,33.2792704391204,0.0 126.730599114301,33.2792804668874,0.0 126.730642485037,33.2792935810548,0.0 126.730694100271,33.2793061021275,0.0 126.730776064536,33.2793305276087,0.0 126.730848028723,33.2793552952392,0.0 126.730911199491,33.2793838383602,0.0 126.730966125843,33.2794076637243,0.0 126.731017742127,33.2794339811407,0.0 126.731066550002,33.2794629852962,0.0 126.731106372538,33.279492610438,0.0 126.731148800085,33.2795234677685,0.0 126.731201356717,33.2795642496665,0.0 126.731243086177,33.2796044680185,0.0 126.731294944138,33.2796569241938,0.0 126.731375087041,33.2797309802109,0.0 126.731475973067,33.279828953302,0.0 126.731666429959,33.280039552289,0.0 126.731700372707,33.2800758098439,0.0 126.731743501595,33.2801263957293,0.0 126.73179724349,33.2802053805723,0.0 126.73192169994,33.2804018815986,0.0 126.732069114094,33.2806645388489,0.0 126.732190500632,33.2808679042827,0.0 126.73233302915,33.2810902382553,0.0 126.732480114626,33.2813039240759,0.0 126.732511930004,33.2813597264369,0.0 126.732548001519,33.2814134664115,0.0 126.732590428332,33.2814605238174,0.0 126.732670572502,33.2815376674002,0.0 126.732721799336,33.2815799306944,0.0 126.732764857285,33.2816094090229,0.0 126.732819932995,33.2816416265547,0.0 126.732888372565,33.2816819244249,0.0 126.732943575915,33.2817116240817,0.0 126.733064687164,33.2817690959524,0.0 126.733145771869,33.2817937814589,0.0 126.733233215817,33.2818209256559,0.0 126.73331538904,33.2818390440614,0.0 126.733363572242,33.2818493242898,0.0 126.733421103002,33.2818537936519,0.0 126.733507587115,33.2818598398372,0.0 126.733594328164,33.2818644622619,0.0 126.733663400102,33.281863210697,0.0 126.733698599891,33.2818604257417,0.0 126.733740715608,33.2818554956613,0.0 126.733812128556,33.281842115724,0.0 126.733939657603,33.2818068952694,0.0 126.734229814975,33.2817407836525,0.0 126.734416499065,33.2817107309175,0.0 126.734785157957,33.281651780872,0.0 126.734892644003,33.2816271210024,0.0 126.734951343937,33.281613266885,0.0 126.735071401279,33.2815718390052,0.0 126.735102239679,33.2815601068076,0.0 126.735221241098,33.2815148313365,0.0 126.735262799961,33.2814990196737,0.0 126.735323772112,33.2814690096132,0.0 126.735427244073,33.2814071179847,0.0 126.735636557152,33.2812595502404,0.0 126.735707514975,33.2812059534404,0.0 126.735797399248,33.281124126355,0.0 126.735874157221,33.2810561135281,0.0 126.736276757977,33.280655406012,0.0 126.736605115564,33.280351209611,0.0 126.736729573033,33.280230094637,0.0 126.736739699711,33.2802142425065,0.0 126.736789914788,33.2801799536615,0.0 126.736826686213,33.2801544951101,0.0 126.736874342759,33.2801289062884,0.0 126.736910600655,33.2801120672884,0.0 126.736955028307,33.2800984807782,0.0 126.737005199817,33.2800857552821,0.0 126.737065457863,33.2800825748587,0.0 126.737111185654,33.2800801607333,0.0 126.737336808637,33.2800833509166,0.0 126.737413143175,33.2800873816239,0.0 126.737483903513,33.2800916164645,0.0 126.737566201211,33.2800965430124,0.0 126.7378195142,33.2801128381768,0.0 126.737956929966,33.2801287075492,0.0 126.738074086115,33.2801483232682,0.0 126.738162471701,33.2801576033323,0.0 126.738182588425,33.280172273453,0.0 126.738332523601,33.2801572096779,0.0 126.738377073088,33.2801540243013,0.0 126.738415836213,33.2801521511203,0.0 126.738476072585,33.280150938525,0.0 126.738520342961,33.2801534773029,0.0 126.738554701224,33.2801579900546,0.0 126.738579785655,33.2801632811238,0.0 126.738609958698,33.2801748522627,0.0 126.738634844264,33.2801872718343,0.0 126.738659929927,33.2802057097654,0.0 126.738683604023,33.2802297102671,0.0 126.738821187849,33.280421305493,0.0 126.738880363093,33.2805037106709,0.0 126.738902243532,33.2805381951834,0.0 126.738919475621,33.2805697412045,0.0 126.738986529104,33.2807093469242,0.0</coordinates>
</LineString>
<LineString>
<coordinates>126.739681043287,33.2807117675614,0.0 126.739731386516,33.2807158982628,0.0 126.739747415758,33.2807397862945,0.0 126.739735156208,33.2807398285736,0.0 126.739682958702,33.2807400124858,0.0</coordinates>
</LineString>
<LineString>
<coordinates>126.739681043287,33.2807117675614,0.0 126.739682958702,33.2807400124858,0.0</coordinates>
</LineString>
<LineString>
<coordinates>126.739682958702,33.2807400124858,0.0 126.739196787125,33.2807417117071,0.0 126.73912230442,33.2807396917983,0.0 126.739094015463,33.2807343922319,0.0 126.738986529104,33.2807093469242,0.0</coordinates>
</LineString>
<LineString>
<coordinates>126.739682958702,33.2807400124858,0.0 126.739690522926,33.2808515310673,0.0 126.739695187013,33.2808768524978,0.0 126.739700639541,33.2808974922087,0.0 126.739719128255,33.2809459196689,0.0 126.739775328747,33.2810812807216,0.0 126.73978758606,33.2811075106948,0.0 126.739795129514,33.2811337388136,0.0 126.739803614025,33.2811645964699,0.0 126.739812499812,33.2812070812728,0.0 126.739816801191,33.2812347060401,0.0 126.73982472849,33.281294610459,0.0 126.739827503222,33.2813298130991,0.0 126.739829072647,33.2813497381589,0.0 126.739804598748,33.2813502595661,0.0 126.739450415228,33.2813577996915,0.0 126.739428358266,33.2813535953207,0.0 126.739412329498,33.2813466532317,0.0 126.739400005471,33.2813333384671,0.0 126.739382599792,33.2813016686865,0.0 126.739370412923,33.2812794942057,0.0 126.739355673445,33.2812526753663,0.0 126.739326899076,33.2812137000289,0.0 126.739307460857,33.2811923162996,0.0 126.739278442597,33.2811653671289,0.0 126.739249586072,33.2811435756233,0.0 126.739151157927,33.2810851393014,0.0 126.739082360452,33.2810469797683,0.0 126.739015200404,33.2810123590282,0.0 126.738940900742,33.2809771385185,0.0 126.739000914553,33.2808264108088,0.0 126.738986529104,33.2807093469242,0.0</coordinates>
</LineString>
<LineString>
<coordinates>126.842844816819,33.3251683852342,0.0 126.843086286167,33.3251281016723,0.0 126.843421000952,33.3250460335689,0.0 126.843454943611,33.3250383279122,0.0 126.843703558947,33.324976255116,0.0 126.84375194315,33.3249620392888,0.0 126.843931087132,33.3248865220307,0.0 126.843993200986,33.3249965873676,0.0 126.844509058382,33.3251758794377,0.0 126.844654696452,33.3252293824179,0.0 126.844720226469,33.3252478373644,0.0 126.844801310793,33.3252411358638,0.0 126.844826100446,33.3252390893162,0.0 126.844847699875,33.3252336997146,0.0 126.844861377766,33.3252220662075,0.0 126.84486900027,33.3252148148095,0.0 126.845034000845,33.3249289260604,0.0 126.845051086684,33.324912208858,0.0 126.845076900808,33.3248992575138,0.0 126.845334151755,33.3247842143766,0.0 126.845390082997,33.324756028673,0.0 126.845449879392,33.3247417754271,0.0 126.845486099168,33.3247401313941,0.0 126.846803970986,33.3249847725149,0.0 126.846934801057,33.3250071402948,0.0 126.846969913992,33.3250086598885,0.0 126.847010700136,33.3250044437281,0.0 126.847047386819,33.3249984146237,0.0 126.847084000743,33.3249863134725,0.0 126.847122814191,33.3249691002073,0.0 126.84715589976,33.3249478055721,0.0 126.847176557496,33.3249343862768,0.0 126.847205786235,33.3249066148943,0.0 126.847241458172,33.3248614766155,0.0 126.847262110133,33.3248298291016,0.0 126.847271628492,33.3248152419653,0.0 126.847283099449,33.3247932149391,0.0 126.847291587015,33.3247662148291,0.0 126.847296118289,33.3247374620041,0.0 126.847303685585,33.3246877096879,0.0 126.847315942722,33.3245536262635,0.0 126.847320899997,33.3244677275859,0.0 126.847315215332,33.3244290029656,0.0 126.847305729709,33.3243959287014,0.0 126.847286714782,33.324365988008,0.0 126.847273671589,33.3243365295632,0.0 126.847265971354,33.3243128163125,0.0 126.847263187099,33.3242908118234,0.0 126.847264244329,33.3242524441269,0.0 126.847264799831,33.3242169001492,0.0 126.847264484484,33.3241922622963,0.0 126.847264085085,33.3241613948993,0.0 126.847257643072,33.3241328712331,0.0 126.847246080283,33.3241173563564,0.0 126.847233915129,33.3241001333615,0.0 126.847225200053,33.3240928339512,0.0 126.846984299733,33.3238042479488,0.0 126.846964257494,33.3237726331868,0.0 126.846957805214,33.3237561404541,0.0 126.846954043857,33.3237332720133,0.0 126.846948001168,33.3236828794801,0.0 126.846947999082,33.3236545867361,0.0 126.846944613343,33.3236268135091,0.0 126.846934801398,33.3236073628005,0.0 126.846680701269,33.3232001050203,0.0 126.846664428809,33.3231681043029,0.0 126.84665760138,33.3231353753766,0.0 126.846658419001,33.3231006778196,0.0 126.846661758241,33.3230744714904,0.0 126.846670243997,33.3230482432313,0.0 126.846692308427,33.3230133160911,0.0 126.846704185816,33.3229927000225,0.0 126.846714443092,33.3229700280591,0.0 126.846811178649,33.3227419096446,0.0 126.846839014869,33.3226910714931,0.0 126.84686243015,33.3226498810295,0.0 126.846915000643,33.322579778724,0.0 126.846943891089,33.322548296774,0.0 126.846964499639,33.3225258377517,0.0 126.846977614648,33.3225113289937,0.0 126.846999300037,33.322499757152,0.0 126.847029364275,33.3224895461852,0.0 126.847047001337,33.3224826847528,0.0 126.847065938525,33.3224754134096,0.0 126.847083214055,33.3224642709004,0.0 126.847096500624,33.3224503190537,0.0 126.847118886091,33.3224048329447,0.0 126.847182301228,33.3222291597441,0.0 126.847198517741,33.3221698089008,0.0 126.847213330036,33.3221086433272,0.0 126.847230592236,33.3220084171009,0.0 126.847312436441,33.3215234603127,0.0 126.84731515706,33.3214969011289,0.0 126.847318174772,33.3214760540233,0.0 126.847318771493,33.3214585485011,0.0 126.847317042826,33.3214359577433,0.0 126.847312329812,33.3214182145774,0.0 126.847305729627,33.3214074139813,0.0 126.847298212453,33.3213997277991,0.0 126.847281300669,33.3213849781135,0.0 126.847236743436,33.3213602971685,0.0 126.847081329366,33.3212839857939,0.0 126.847051944223,33.3212697535184,0.0 126.847034257084,33.3212612921387,0.0 126.847017214647,33.3212515855716,0.0 126.847009671553,33.3212407855089,0.0 126.847004956574,33.3212261290724,0.0 126.84701399958,33.3210721170426,0.0 126.847014000208,33.3210440709328,0.0 126.847008728776,33.3210000992677,0.0 126.847005899802,33.3209723295082,0.0 126.846997995436,33.32094112812,0.0 126.846987987096,33.3209183297811,0.0 126.846958946268,33.3208774680099,0.0 126.846921600569,33.3208698375027,0.0 126.846777685206,33.3208609612809,0.0 126.846746700145,33.3208590488096,0.0 126.846711729547,33.3208604718773,0.0 126.846686354797,33.3208645598061,0.0 126.846660900347,33.3208698375294,0.0 126.846476101047,33.3209318700457,0.0 126.846443858327,33.3209432150507,0.0 126.846395714148,33.3209530400875,0.0 126.846363205487,33.3209582828377,0.0 126.846342130094,33.3209615290042,0.0 126.84631557134,33.3209607451538,0.0 126.84627479977,33.3209561435401,0.0 126.846162601391,33.3209426583128,0.0 126.846105471123,33.3209337568851,0.0 126.845997985809,33.3209191005927,0.0 126.845901657293,33.3209048778528,0.0 126.845872221497,33.3208968543192,0.0 126.8458555152,33.3208922994541,0.0 126.845838677134,33.3208820350271,0.0 126.84582544252,33.320869728986,0.0 126.845690699522,33.320748469829,0.0 126.845671757375,33.3207331862403,0.0 126.845654399196,33.320726892684,0.0 126.84560820157,33.3207214992552,0.0 126.8455726009,33.3207130011117,0.0 126.845534886155,33.3206983601576,0.0 126.845489400292,33.3206756489535,0.0 126.845469043984,33.3206637584299,0.0 126.845448142861,33.3206451883568,0.0 126.845426700743,33.3206109196267,0.0 126.845411528879,33.3205781290398,0.0 126.845403044441,33.3205449569465,0.0 126.845400204229,33.3205127956151,0.0 126.845397000967,33.3204787622627,0.0 126.845387958162,33.3204446722657,0.0 126.845370600432,33.3204140331385,0.0 126.845346086684,33.3203854124823,0.0 126.845324400064,33.3203600916575,0.0 126.845298355466,33.3203342430379,0.0 126.845279529107,33.3203189297212,0.0 126.845248788747,33.3202972138518,0.0 126.845218246422,33.3202795332107,0.0 126.845192686007,33.320268214176,0.0 126.845168815274,33.3202642804259,0.0 126.845119800002,33.3202576035729,0.0 126.845104156467,33.3202533575449,0.0 126.845086800641,33.3202414194665,0.0 126.845066999896,33.3202144492789,0.0 126.845050414419,33.3201985862133,0.0 126.845029672951,33.3201908714645,0.0 126.845011758801,33.3201874794179,0.0 126.844984500664,33.3201874799382,0.0 126.844935001061,33.3201928727565,0.0 126.844898776726,33.3201959903542,0.0 126.844872300235,33.3201982675077,0.0 126.84485037149,33.3201932379479,0.0 126.84483599983,33.3201793876597,0.0 126.844815642824,33.3201492137903,0.0 126.844803000888,33.3201335377458,0.0 126.84476010153,33.3200957788602,0.0 126.844735500916,33.3200805572212,0.0 126.844710042573,33.3200674439391,0.0 126.844675682381,33.3200568248837,0.0 126.843862500473,33.3198179814554,0.0 126.843847090812,33.3198132586558,0.0 126.843819542523,33.3198020295854,0.0 126.843803958373,33.3197951285623,0.0 126.843793650935,33.3197874323856,0.0 126.843772842956,33.3197673585103,0.0 126.843674355132,33.3196736543506,0.0 126.843661694778,33.3196616093066,0.0 126.84363220008,33.3196414944693,0.0 126.84359882075,33.3196271681605,0.0 126.843571071696,33.3196169283554,0.0 126.843542786035,33.3196115297118,0.0 126.843522601022,33.3196089589353,0.0 126.843498313675,33.3196099002488,0.0 126.843479701112,33.3196197469888,0.0 126.843374801433,33.3197247174309,0.0 126.843219486661,33.3196145867899,0.0 126.843061086645,33.3194943756317,0.0 126.843012058755,33.3194469849164,0.0 126.843009030009,33.3194296727423,0.0 126.843010099794,33.3193369040976,0.0 126.842991299874,33.3193190229623,0.0 126.842839499222,33.3192017003046,0.0 126.842805372623,33.3191681578725,0.0 126.842766914251,33.319124492171,0.0 126.842746915671,33.3190925576539,0.0 126.842728759092,33.3190499572441,0.0 126.842690544231,33.3189684463823,0.0 126.842678086183,33.3189274726153,0.0 126.842674515626,33.3188879205129,0.0 126.842666771216,33.3188511011157,0.0 126.842650000463,33.3186501929575,0.0 126.842615115628,33.3186209107688,0.0 126.84259530091,33.3183291995445,0.0 126.842535900583,33.3179623974249,0.0 126.842434087074,33.3176075840135,0.0 126.842463300209,33.3174324246514,0.0 126.842397300541,33.3173245410715,0.0 126.842327542602,33.317227296683,0.0 126.842313803288,33.3172022684373,0.0 126.842132372527,33.3169649106364,0.0 126.842098428719,33.3169394814018,0.0 126.842034299285,33.3169118900665,0.0 126.841951799559,33.3168282803687,0.0 126.841861771365,33.3167495308928,0.0 126.841773601595,33.3166799424525,0.0 126.84170525743,33.316644345562,0.0 126.841625101271,33.3165922872207,0.0 126.841585515189,33.3165722951372,0.0 126.84148980118,33.3165396943311,0.0 126.841390343836,33.3165071793071,0.0 126.841342058446,33.3164959283923,0.0 126.841307171347,33.3164882156547,0.0 126.841252534131,33.3164802825803,0.0 126.841207229296,33.3164758716334,0.0 126.841154418981,33.3164729815859,0.0 126.840829143555,33.3164589009482,0.0 126.840374885549,33.3164478435561,0.0 126.840140099417,33.3164331597506,0.0 126.840050542209,33.3164235702443,0.0 126.839948699799,33.316404840124,0.0 126.839859600844,33.316377870873,0.0 126.839753544318,33.3163260915514,0.0 126.839693200826,33.3162944959502,0.0 126.839676229949,33.316228226383,0.0 126.839364143665,33.3160236338403,0.0 126.838792772145,33.3157134704678,0.0 126.838755602234,33.3157176833916,0.0 126.838609856716,33.3156903533924,0.0 126.838516515795,33.3156468147953,0.0 126.838440600414,33.3155997663301,0.0 126.838331714135,33.315528143842,0.0 126.838245915589,33.3154676518338,0.0 126.838172370711,33.3153932897902,0.0 126.83797437129,33.3151825344928,0.0 126.837932887313,33.3151409216709,0.0 126.83782680109,33.3150414717858,0.0 126.837726400869,33.3149652272593,0.0 126.837628800997,33.3149066202006,0.0 126.837452971878,33.3148222831181,0.0 126.837228572988,33.3147328938961,0.0 126.837061200528,33.3146611856554,0.0 126.836955601266,33.3146126390365,0.0 126.836905915434,33.3145820155761,0.0 126.836878772551,33.3145610512347,0.0 126.836846714,33.3145317704054,0.0 126.836818429726,33.3144920840117,0.0 126.836804084761,33.3144624429936,0.0 126.836790599887,33.3144278904427,0.0 126.83677977231,33.3143892105311,0.0 126.836776358393,33.3143491735303,0.0 126.836774100662,33.3143227036015,0.0 126.836775056977,33.3142747778897,0.0 126.836782783859,33.3142488534221,0.0 126.836794657655,33.3142217564667,0.0 126.836939114919,33.3139823388406,0.0 126.83697353647,33.3139133885275,0.0 126.836982485619,33.3138786942153,0.0 126.837011950427,33.3137433525326,0.0 126.837015486898,33.3137118603221,0.0 126.837043571021,33.3131301861784,0.0 126.837053749063,33.3127730287854,0.0 126.837051115545,33.3127352150826,0.0 126.837047542052,33.3126946812103,0.0 126.837035286009,33.3126338034184,0.0 126.837015000518,33.3125871411903,0.0 126.8369730573,33.31251243617,0.0 126.836931571045,33.3124588795128,0.0 126.836890918156,33.3124167609933,0.0 126.836804286333,33.3123405947034,0.0 126.836772230004,33.3123120818346,0.0 126.836685485682,33.312241187721,0.0 126.836609099746,33.3121852777954,0.0 126.836541368054,33.3121433124078,0.0 126.836508228699,33.3121275255131,0.0 126.83644793972,33.3121019920373,0.0 126.836413943698,33.3120901516088,0.0 126.836344170883,33.3120631817776,0.0 126.836226300419,33.3120301965463,0.0 126.836163182943,33.3120164399133,0.0 126.836128256719,33.3120119366928,0.0 126.836060600846,33.3120042186109,0.0 126.835942241497,33.3120046089427,0.0 126.835534257622,33.3119761047438,0.0 126.83539140054,33.3119600720647,0.0 126.835293829156,33.311936804369,0.0 126.835226400577,33.3119155701871,0.0 126.835181628512,33.3119013573896,0.0 126.835097700793,33.3118616293941,0.0 126.834966658552,33.3117938595864,0.0 126.834769599166,33.3116782705587,0.0 126.834445256962,33.3114856228446,0.0 126.834420894292,33.3114665622365,0.0 126.834369829227,33.3114266739713,0.0 126.834054915473,33.3112544460117,0.0 126.833773944436,33.3110964754525,0.0 126.833451486051,33.3109516036848,0.0 126.832959300111,33.3107140266793,0.0 126.832897085828,33.3106876762957,0.0 126.832816944455,33.310639899809,0.0 126.832575571415,33.3104522603741,0.0 126.832425656802,33.3103478459064,0.0 126.832324771945,33.3102900521851,0.0 126.832173901363,33.310216418333,0.0 126.832107914352,33.3101844804429,0.0 126.831947629795,33.3101286132214,0.0 126.831230101254,33.3098644503044,0.0 126.831161836645,33.3098388421705,0.0 126.831107342301,33.309816129534,0.0 126.831065952098,33.3097889236309,0.0 126.831019658506,33.3097690726562,0.0 126.830988543596,33.3097497850951,0.0 126.83095619995,33.3097268993321,0.0 126.830860500211,33.3096432910438,0.0 126.830704943953,33.3094763075119,0.0 126.830154114842,33.308838728739,0.0 126.830086429115,33.3087692909111,0.0 126.830038256788,33.3087280616454,0.0 126.830012887063,33.3087111103868,0.0 126.829870514651,33.308630583601,0.0 126.829804809907,33.3085960393145,0.0 126.82973191418,33.3085643133906,0.0 126.82962631476,33.3084953457229,0.0 126.829519772333,33.3084167448714,0.0 126.829466972901,33.3083724366948,0.0 126.829411342744,33.3083069353489,0.0 126.829213342877,33.3080615033075,0.0 126.829115949841,33.3079317450867,0.0 126.829100044346,33.3079105567583,0.0 126.82907075843,33.3078722653597,0.0 126.829050970584,33.3078443579113,0.0 126.828971028338,33.3077490285016,0.0 126.828859770902,33.3076257331547,0.0 126.828755114277,33.3075259419427,0.0 126.828649500737,33.30744248209,0.0 126.828413800497,33.3072808948359,0.0 126.828057400662,33.3070797697602,0.0 126.827794800583,33.3069408284091,0.0 126.827735887084,33.3069129364474,0.0 126.827690749863,33.3068963936029,0.0 126.827463399449,33.3068516740267,0.0 126.827369117137,33.306837569204,0.0 126.827332343029,33.3068331812421,0.0 126.827207886259,33.3068297130031,0.0 126.82657709977,33.3068423854344,0.0 126.82645925763,33.306840886263,0.0 126.826371570485,33.3068324102452,0.0 126.826266900018,33.3068100207818,0.0 126.826195660091,33.306791825792,0.0 126.826134914959,33.3067711481382,0.0 126.825959543375,33.3066952450519,0.0 126.825893542826,33.3066659628059,0.0 126.825827543485,33.3066405336057,0.0 126.825613499824,33.3065807694855,0.0 126.825359886958,33.3065361182356,0.0 126.82302820163,33.3061431165946,0.0 126.822750500128,33.3060931621855,0.0 126.82261428631,33.306068369234,0.0 126.822514800182,33.3060561900101,0.0 126.822354876574,33.3060667296495,0.0 126.822309743752,33.3060726080183,0.0 126.822274128087,33.3060782184284,0.0 126.822157942871,33.3061057425596,0.0 126.82204723778,33.3061493875623,0.0 126.821943915157,33.3061901230766,0.0 126.82190525797,33.3062078468894,0.0 126.821873698763,33.3062247847512,0.0 126.821842829405,33.3062444145475,0.0 126.82157411495,33.3064588717347,0.0 126.821540370951,33.3064779368929,0.0 126.821495484116,33.3065030662562,0.0 126.821452200842,33.3065214340943,0.0 126.821271698585,33.3065978295787,0.0 126.82117265861,33.3066316716828,0.0 126.821082600049,33.3066778635449,0.0 126.821009344396,33.3067242429497,0.0 126.820960314598,33.3067674427882,0.0 126.820934857956,33.3067913574344,0.0 126.820921656297,33.3068029298342,0.0 126.82088835441,33.3068356335484,0.0 126.820713486919,33.3070327643805,0.0 126.820422601524,33.3073858436297,0.0 126.820254300855,33.3075611530533,0.0 126.820211885768,33.3076076247121,0.0 126.820125601003,33.3076825212203,0.0 126.820040172814,33.3077424912199,0.0 126.819995971504,33.3077702194697,0.0 126.819917715163,33.3078079783688,0.0 126.819831900844,33.3078429977601,0.0 126.819739500746,33.3078672707202,0.0 126.819607501155,33.3078780587594,0.0 126.819499085109,33.3078746348407,0.0 126.819429314924,33.3078723226007,0.0 126.819270900635,33.3078551341936,0.0 126.818244600945,33.3076204888698,0.0 126.818112142804,33.3075972222061,0.0 126.81805085806,33.3075902868219,0.0 126.817888199745,33.3075813806711,0.0 126.817714257409,33.3075891299079,0.0 126.817591200135,33.3076056545052,0.0 126.817495574374,33.3076259179296,0.0 126.817411600382,33.3076465392649,0.0 126.817264501076,33.3076933101086,0.0 126.817021257373,33.3078079788969,0.0 126.816907172271,33.3078723221655,0.0 126.816827028358,33.3079139350127,0.0 126.816698673936,33.3079804259227,0.0 126.816664857502,33.3079936896424,0.0 126.816636418215,33.3080023817023,0.0 126.816509893951,33.3080256096214,0.0 126.816469685817,33.3080295233765,0.0 126.816440198434,33.3080301940944,0.0 126.816239437249,33.3080125189205,0.0 126.815918115432,33.3079520789323,0.0 126.815501664593,33.3078659097735,0.0 126.815462715253,33.3078569100488,0.0 126.815427016949,33.3078479463904,0.0 126.815381343297,33.3078249490269,0.0 126.815353342519,33.3078099049063,0.0 126.815309501137,33.3077829164532,0.0 126.815271301478,33.3077566912623,0.0 126.815195400068,33.3076933103176,0.0 126.815154401346,33.3076519331934,0.0 126.814976199571,33.3074962742674,0.0 126.814793285624,33.3073433108587,0.0 126.814279428736,33.3069464572009,0.0 126.814202100452,33.3068868867153,0.0 126.814177600451,33.3068767177653,0.0 126.813972056791,33.3067769276767,0.0 126.813881542125,33.3067318475728,0.0 126.813811771698,33.3067071883405,0.0 126.813773154757,33.3066940087467,0.0 126.81355154404,33.30662281008,0.0 126.812996741598,33.3064657977996,0.0 126.812730314412,33.3063916314284,0.0 126.812486099604,33.3063083651259,0.0 126.812169315821,33.3061431160655,0.0 126.811949628281,33.3060209764836,0.0 126.811713915227,33.305900764844,0.0 126.811525799994,33.3057905287161,0.0 126.811463129233,33.3057463713035,0.0 126.811434830045,33.3057208328938,0.0 126.811411997255,33.3057009081159,0.0 126.811350900486,33.305626007477,0.0 126.811097397816,33.305192527744,0.0 126.810954914615,33.3049340598687,0.0 126.810889857264,33.304813847634,0.0 126.810860628774,33.3047691514434,0.0 126.810804058225,33.304685158518,0.0 126.810722971836,33.3045634050257,0.0 126.810648000527,33.3044784043571,0.0 126.810555144253,33.3044119845655,0.0 126.810436343413,33.3043349251213,0.0 126.810090754725,33.3041203662611,0.0 126.809766901481,33.3039241575599,0.0 126.809421828986,33.3037161387609,0.0 126.809339662268,33.3036764847174,0.0 126.808797658043,33.3033693740966,0.0 126.808411085775,33.3031586162564,0.0 126.808310143536,33.303108172049,0.0 126.808169700616,33.3030422161299,0.0 126.808096115582,33.3030156007041,0.0 126.807984899748,33.302980183204,0.0 126.807846315876,33.3029405404403,0.0 126.807674700897,33.3029033163434,0.0 126.807542175315,33.302884958614,0.0 126.807482372951,33.3028823594239,0.0 126.807404499303,33.3028819562429,0.0 126.807334800143,33.3028871345808,0.0 126.807204108455,33.3029123810756,0.0 126.807158029141,33.3029274395567,0.0 126.807104136357,33.3029484672025,0.0 126.807005686252,33.3030010783547,0.0 126.80698548725,33.3030125898792,0.0 126.806959921388,33.3030309936726,0.0 126.806866628949,33.3031012291097,0.0 126.80673090148,33.303210782399,0.0 126.806530085805,33.3033878676051,0.0 126.806353243482,33.3035515397231,0.0 126.806324542557,33.3035851383228,0.0 126.80630280116,33.3036288854646,0.0 126.806294314359,33.3036605148445,0.0 126.806269780319,33.3036945391205,0.0 126.806266752249,33.3037011410832,0.0 126.80624709126,33.303744031663,0.0 126.806234971531,33.3037704669952,0.0 126.806197257387,33.3039523262112,0.0 126.806166143334,33.3042147111673,0.0 126.806210457452,33.3043372367011,0.0 126.806348101344,33.3045256031931,0.0 126.806381058355,33.3046031997739,0.0 126.806394300177,33.3046415764652,0.0 126.806414115126,33.3046959460313,0.0 126.806424000411,33.3047683386009,0.0 126.806427257824,33.3048029997209,0.0 126.806421657435,33.3048789607366,0.0 126.806401801361,33.3050953726668,0.0 126.806380131791,33.3052298756959,0.0 126.806375400832,33.305257371836,0.0 126.806368801624,33.3052882294637,0.0 126.80636125798,33.3053252580694,0.0 126.80635277166,33.3053545714213,0.0 126.806342400458,33.3053861996342,0.0 126.806332972606,33.3054132005116,0.0 126.806318827978,33.3054533153472,0.0 126.806299029095,33.3054965156423,0.0 126.806280172413,33.3055296852691,0.0 126.806261315012,33.3055605427173,0.0 126.806242457536,33.3055867714151,0.0 126.806224542375,33.3056122296926,0.0 126.806200970786,33.3056415435854,0.0 126.806185386493,33.3056576269051,0.0 126.806176458362,33.3056708577252,0.0 126.806158543083,33.3056893723213,0.0 126.806126486718,33.3057271718345,0.0 126.806090657536,33.3057734574089,0.0 126.806058657608,33.3058098352334,0.0 126.806020942402,33.3058614662333,0.0 126.805996429953,33.3058714836152,0.0 126.805899358397,33.3059296628587,0.0 126.805853100762,33.305952352206,0.0 126.805562700803,33.3060858572832,0.0 126.805546729764,33.3060926428806,0.0 126.805529757825,33.3060918714415,0.0 126.805500001209,33.3060831600068,0.0 126.80545049992,33.3060588873946,0.0 126.805430742076,33.3060482956638,0.0 126.805412842886,33.3060387019468,0.0 126.805394313511,33.3060259001455,0.0 126.805381201152,33.3060103386036,0.0 126.805369916425,33.3059939818709,0.0 126.805226387579,33.3057859329333,0.0 126.805202914718,33.3057458715922,0.0 126.805179931492,33.3057063233137,0.0 126.805119270874,33.3055901680007,0.0 126.805104059091,33.3055575259111,0.0 126.805088830039,33.3055206150147,0.0 126.805080876787,33.3054944028144,0.0 126.805070352362,33.3054570111998,0.0 126.80505738713,33.3054206871488,0.0 126.805008358714,33.3053035574575,0.0 126.804994360843,33.3052772448304,0.0 126.804979456158,33.3052506144361,0.0 126.804966042699,33.305232122966,0.0 126.804945515069,33.3052058712512,0.0 126.804922926008,33.3051841877526,0.0 126.80488328631,33.3051534145226,0.0 126.804851904116,33.3051290068596,0.0 126.804771085021,33.3050809003064,0.0 126.804715745104,33.3050485907701,0.0 126.804617328489,33.3049984533367,0.0 126.804579686013,33.3049860140434,0.0 126.804550457141,33.30497984322,0.0 126.804511360597,33.3049783796826,0.0 126.804484458483,33.304974442652,0.0 126.804466589208,33.3049689668338,0.0 126.804447301175,33.3049611797085,0.0 126.803952041501,33.3047705607401,0.0 126.803884801064,33.3047468718824,0.0 126.803795338449,33.304718749038,0.0 126.80356611316,33.3046536249323,0.0 126.803534058658,33.3046481289329,0.0 126.803485967034,33.3046396841996,0.0 126.803458301186,33.3046369961939,0.0 126.80343378586,33.3046335286943,0.0 126.803397015558,33.3046107970646,0.0 126.803293196443,33.3045432870178,0.0 126.803264400955,33.304522385939,0.0 126.803235171636,33.3044969290952,0.0 126.803212214909,33.3044720898649,0.0 126.803183400057,33.304431206545,0.0 126.803168227875,33.3044059006303,0.0 126.803154700379,33.3043734549237,0.0 126.803144658213,33.3043233577174,0.0 126.803140618727,33.3042894298254,0.0 126.803128227925,33.3041477860904,0.0 126.803121087296,33.3040988716983,0.0 126.803104199907,33.3040212509868,0.0 126.803090585369,33.303975443186,0.0 126.803049299078,33.3039738766261,0.0 126.803010771823,33.3039746707304,0.0 126.802980143426,33.3039773495081,0.0 126.802951371785,33.303980842999,0.0 126.802912713829,33.3039893298145,0.0 126.802877828311,33.3039955002865,0.0 126.802860000394,33.3039969769495,0.0 126.802837900182,33.3039935537118,0.0 126.80281469986,33.3039879882921,0.0 126.802777501312,33.3039780976382,0.0 126.802493239746,33.3039037531838,0.0 126.802448500594,33.3038949172851,0.0 126.802354592397,33.3038835828933,0.0 126.802325400362,33.3038810033286,0.0 126.802186801123,33.303872912014,0.0 126.802092429314,33.3038736140762,0.0 126.802040573026,33.3038767013418,0.0 126.801995400956,33.3038837012212,0.0 126.801954608354,33.3038948138248,0.0 126.801912342457,33.3039083294023,0.0 126.801882269248,33.3039241865501,0.0 126.801843599588,33.3039457339808,0.0 126.801777601637,33.3039861894946,0.0 126.80175576731,33.3040014834826,0.0 126.801731400623,33.3040185540681,0.0 126.80170364249,33.3040247626091,0.0 126.801665400238,33.3040266457189,0.0 126.801607472028,33.3040201378522,0.0 126.801583804696,33.3040135395612,0.0 126.801562542905,33.3040055294983,0.0 126.801546186944,33.3039943237301,0.0 126.801526801308,33.3039754014005,0.0 126.801512708619,33.3039475706275,0.0 126.801498449463,33.3039194047532,0.0 126.801476415052,33.3038926061449,0.0 126.801454115743,33.3038759278475,0.0 126.8014311581,33.3038625528004,0.0 126.801404941373,33.3038497616922,0.0 126.801023778011,33.3037482284585,0.0 126.800985600546,33.3037380598083,0.0 126.800953456816,33.3037370724785,0.0 126.800938044383,33.3037404132922,0.0 126.800906401338,33.3037542409749,0.0 126.800833799054,33.3037920003845,0.0 126.800787599544,33.3038189706501,0.0 126.80076455828,33.3038309578738,0.0 126.800747586796,33.3038363515764,0.0 126.800724103802,33.3038360790482,0.0 126.800705157062,33.3038286466973,0.0 126.800688599997,33.3038135772587,0.0 126.800671981404,33.3037975925126,0.0 126.800645143476,33.3037741006552,0.0 126.800621572218,33.3037609868046,0.0 126.800584470516,33.3037542840846,0.0 126.800480700001,33.3037515441413,0.0 126.80041964933,33.3037567061688,0.0 126.80038020009,33.3037648431171,0.0 126.800338800238,33.303781211959,0.0 126.800305385773,33.3037866484448,0.0 126.800272800481,33.3037866053416,0.0 126.800210100557,33.3037785152956,0.0 126.800165141137,33.303764790398,0.0 126.799969923182,33.3037052000295,0.0 126.799936115036,33.3036992715303,0.0 126.799908881824,33.3036989408358,0.0 126.799866956991,33.3037014990492,0.0 126.799776379022,33.303704376553,0.0 126.799729298985,33.3036995727855,0.0 126.79967117185,33.3036846152162,0.0 126.799583100578,33.3036679358326,0.0 126.798428099879,33.3034319416766,0.0 126.798257644385,33.3034018618068,0.0 126.798225001707,33.3033583341722,0.0 126.798200000653,33.3033416692143,0.0 126.79812499807,33.3033250009503,0.0 126.798062504648,33.3033249997336,0.0 126.797987505676,33.303333334229,0.0 126.797662499211,33.3033833338225,0.0 126.797375002978,33.3034666648536,0.0 126.796897664602,33.3036327588386,0.0 126.796731519649,33.3036922284975,0.0 126.796678214165,33.303706699367,0.0 126.796639657279,33.3037129915409,0.0 126.796602171503,33.3037170150308,0.0 126.796560847439,33.3037210024677,0.0 126.796416940716,33.3037302880705,0.0 126.796357027704,33.3037363001352,0.0 126.796312502389,33.3037432961028,0.0 126.796237101307,33.3037582874108,0.0 126.796186043862,33.3037725847252,0.0 126.796162800583,33.3037818140602,0.0 126.796137343624,33.3037964727092,0.0 126.796110721392,33.3038149981874,0.0 126.795395599815,33.3043273678636,0.0 126.795377401471,33.3043434151767,0.0 126.795365901232,33.3043624303187,0.0 126.795365899951,33.3043804426637,0.0 126.795365899683,33.3044055842042,0.0 126.795362929394,33.3044210374275,0.0 126.795352700661,33.3044339028007,0.0 126.795193214822,33.304544717933,0.0 126.795167321279,33.3045550842772,0.0 126.795140743103,33.3045632710909,0.0 126.795122643378,33.304568107655,0.0 126.795059000514,33.304580891855,0.0 126.795032314995,33.3045887284584,0.0 126.795015600942,33.3046007703215,0.0 126.795007471367,33.3046144557331,0.0 126.795010630129,33.3046311565078,0.0 126.795025832308,33.3046503264122,0.0 126.795049099065,33.3046779864399,0.0 126.795055980687,33.3046936750142,0.0 126.795057771719,33.3047044439198,0.0 126.7950555582,33.3047200280465,0.0 126.795034814498,33.3047581718135,0.0 126.79500558706,33.3047990128703,0.0 126.794991443429,33.3048202045842,0.0 126.79496806292,33.3048461928377,0.0 126.794854400809,33.3049288140605,0.0 126.794826252995,33.3049518200604,0.0 126.79481230072,33.3049658456643,0.0 126.794802089576,33.3049815578106,0.0 126.794785101003,33.3050232120177,0.0 126.794672901225,33.3052389782754,0.0 126.794652015287,33.3052571297105,0.0 126.794619014394,33.3052763943287,0.0 126.794596714969,33.305282244147,0.0 126.794570600581,33.3052848270088,0.0 126.794501299881,33.3052821302039,0.0 126.794331526534,33.3052863360788,0.0 126.794305692546,33.3052879664323,0.0 126.794270485587,33.3052915006332,0.0 126.794230700823,33.3053010105534,0.0 126.794138300834,33.305333374659,0.0 126.794072299626,33.305354952112,0.0 126.79405330006,33.3053592328895,0.0 126.794030671391,33.305359232599,0.0 126.794006301351,33.3053495564429,0.0 126.793971272419,33.30532725198,0.0 126.793958729459,33.3053167164951,0.0 126.793938600644,33.3052915002236,0.0 126.793923185813,33.3052667621584,0.0 126.793887317185,33.3051945794137,0.0 126.793877875882,33.3051694134043,0.0 126.793870714534,33.3051418424821,0.0 126.793866365902,33.3051117353491,0.0 126.793864729739,33.3050929941783,0.0 126.793865671261,33.3050667938444,0.0 126.793862844336,33.3050348136931,0.0 126.793859589478,33.3050233097716,0.0 126.793851042407,33.3050035191294,0.0 126.793836442224,33.3049928161451,0.0 126.793820796017,33.3049837796834,0.0 126.79379510062,33.3049719676575,0.0 126.793560989611,33.3048486044857,0.0 126.793535057459,33.3048309572374,0.0 126.793511299185,33.3048128406415,0.0 126.793395801639,33.3047049581776,0.0 126.793389857012,33.3046959570108,0.0 126.793385757664,33.3046791858877,0.0 126.793388586914,33.3046576090688,0.0 126.793409330071,33.3045959618277,0.0 126.793410272767,33.3045736151181,0.0 126.793382600772,33.3044190681669,0.0 126.793382599153,33.3044109772168,0.0 126.793371943729,33.3043981864804,0.0 126.793359776909,33.3043895683209,0.0 126.793340828316,33.3043842994717,0.0 126.793300101074,33.3043786127859,0.0 126.79327388608,33.3043742715097,0.0 126.793250929966,33.3043624732999,0.0 126.793234636284,33.3043492799859,0.0 126.793219199963,33.304332614484,0.0 126.793204958558,33.3043158197994,0.0 126.793133400406,33.3042037856294,0.0 126.793120023406,33.3041880132067,0.0 126.793067072472,33.3041328364915,0.0 126.793021183056,33.3040907548784,0.0 126.792982542991,33.3040564426463,0.0 126.792931788239,33.3040201473225,0.0 126.7927655011,33.303901232483,0.0 126.792731742271,33.3038821009215,0.0 126.792697800154,33.3038697583781,0.0 126.79267310027,33.3038661704491,0.0 126.792587300076,33.3038580782922,0.0 126.792570184923,33.3038561949805,0.0 126.792557600832,33.3038499883822,0.0 126.792539400573,33.3038257859042,0.0 126.792525256523,33.3038119000749,0.0 126.792504801482,33.3038014399598,0.0 126.792419657323,33.3037887584637,0.0 126.792221001452,33.3037609848629,0.0 126.792151700393,33.3037528927938,0.0 126.792114787109,33.3037490821375,0.0 126.792099086963,33.303740928732,0.0 126.792085701248,33.3037286199987,0.0 126.791917401533,33.3035155514924,0.0 126.791896372249,33.3034894439781,0.0 126.791885057623,33.3034763278567,0.0 126.791869643001,33.3034724409007,0.0 126.791831314777,33.3034771006024,0.0 126.791772199898,33.3034885810822,0.0 126.791620399262,33.3035101570656,0.0 126.791589000409,33.3035141289618,0.0 126.791561001494,33.3035101575632,0.0 126.791537434378,33.3035032782736,0.0 126.791514799956,33.3034966712979,0.0 126.791493443802,33.3034932464348,0.0 126.791475059304,33.3034990079146,0.0 126.791459828382,33.303507186524,0.0 126.79144757191,33.3035280153441,0.0 126.791441077545,33.3035468169866,0.0 126.791435600648,33.3035721887888,0.0 126.791430271933,33.3036307966654,0.0 126.791424942172,33.3036437292852,0.0 126.791412686492,33.3036522155266,0.0 126.791252399797,33.3037378431505,0.0 126.791174866111,33.3038143119028,0.0 126.791152285447,33.303837358185,0.0 126.791121171584,33.3038612718431,0.0 126.791083300442,33.3038866338879,0.0 126.79096087986,33.3039761177132,0.0 126.790948628146,33.3039885582897,0.0 126.790934312539,33.304002866551,0.0 126.790857880102,33.3040958177877,0.0 126.790842084839,33.3041089004019,0.0 126.790803430005,33.3041312718856,0.0 126.790753458468,33.3041482431604,0.0 126.790733499674,33.3041513310435,0.0 126.790711575141,33.3041537982812,0.0 126.790605272847,33.3041509453523,0.0 126.790435557686,33.3041343780212,0.0 126.790339543898,33.3041343582173,0.0 126.790320687193,33.3041374435197,0.0 126.790232952238,33.3041685255431,0.0 126.790199844185,33.3041736780896,0.0 126.790075385379,33.3041730177476,0.0 126.790048722517,33.3041700908133,0.0 126.790031230032,33.3041659858646,0.0 126.790003344979,33.3041546620685,0.0 126.789903182469,33.3041137919298,0.0 126.789878329566,33.3041089484949,0.0 126.789853805924,33.3041061097153,0.0 126.78977744258,33.304105866512,0.0 126.789751985594,33.3041066376187,0.0 126.789700285612,33.3041088998028,0.0 126.789533060118,33.3042824073809,0.0 126.789492603899,33.3043267711896,0.0 126.789446764367,33.3043770426211,0.0 126.789394963393,33.3044338514566,0.0 126.789362383314,33.3044538333029,0.0 126.789266034234,33.3044905786312,0.0 126.789190101451,33.304526439284,0.0 126.789098357358,33.3045874104169,0.0 126.789001836168,33.3046453329137,0.0 126.788928399095,33.3046701224884,0.0 126.788795986035,33.3047127128941,0.0 126.788579188171,33.3047961577759,0.0 126.788438522067,33.3048205621376,0.0 126.788218772178,33.304824336391,0.0 126.788030293816,33.3048212455801,0.0 126.787933013414,33.3048257297852,0.0 126.787842733375,33.3048544453674,0.0 126.787530663891,33.3049897735118,0.0 126.787478771983,33.3050227403567,0.0 126.787464111693,33.3050528988969,0.0 126.787473893619,33.3050902876909,0.0 126.787495552161,33.3051730498618,0.0 126.787511525752,33.3052759833738,0.0 126.787514493049,33.3053536237133,0.0 126.787517287991,33.3054471377465,0.0 126.787519210424,33.3055119368095,0.0 126.7875217906,33.3055512408379,0.0 126.78753843564,33.3058054203778,0.0 126.787547046754,33.3059274602624,0.0 126.787545534521,33.3059667683492,0.0 126.787532785144,33.3059837964793,0.0 126.787513976102,33.3060089347478,0.0 126.787460741191,33.3060590314396,0.0 126.787273776905,33.3061638228655,0.0 126.786850283974,33.3064184713613,0.0 126.786611401104,33.3065592499454,0.0 126.786524417819,33.3066009442699,0.0 126.786509240899,33.3065717777692,0.0 126.786480695461,33.306560438382,0.0 126.786327777876,33.3065746591926,0.0 126.786301646345,33.3065782250857,0.0 126.786259652566,33.3065839641325,0.0 126.786230133901,33.3065827210657,0.0 126.786211006203,33.3065664386814,0.0 126.786201625972,33.3065391006751,0.0 126.786200419931,33.306526267826,0.0 126.786186208373,33.3064471920995,0.0 126.786170107161,33.3064339576854,0.0 126.786150558813,33.3064178897786,0.0 126.786099865875,33.3064103196186,0.0 126.785904036622,33.3064414127547,0.0 126.785718340086,33.3064445034799,0.0 126.785323950563,33.3063871527672,0.0 126.78517572563,33.3063488771789,0.0 126.785136296518,33.3063220967605,0.0 126.785053859761,33.3062660704552,0.0 126.785039207198,33.3062595638283,0.0 126.78499218895,33.3062386924262,0.0 126.784945255185,33.3062259482087,0.0 126.784857336299,33.3062296002848,0.0 126.784831526515,33.306237127582,0.0 126.784807633426,33.306246785392,0.0 126.784673693279,33.30629560432,0.0 126.784497548221,33.3063247793528,0.0 126.784280299337,33.3063558726541,0.0 126.784016910846,33.3063769946772,0.0 126.783769101009,33.3063766488387,0.0 126.78374682314,33.3063766140126,0.0 126.783683109796,33.3063718415071,0.0 126.783528790346,33.3064011404299,0.0 126.783482455631,33.3064148899377,0.0 126.783142040578,33.3065361693759,0.0 126.783017609851,33.3065744632055,0.0 126.782963533869,33.3065865438278,0.0 126.782840331977,33.3066066957153,0.0 126.782638025596,33.3066730938239,0.0 126.782483589873,33.306788609796,0.0 126.782351467684,33.3069011335721,0.0 126.782205356989,33.3070813101995,0.0 126.782192533479,33.3071119609537,0.0 126.782193062311,33.3071305571266,0.0 126.782195928311,33.3072311914404,0.0 126.782201674535,33.3072478028653,0.0 126.782019015901,33.3072535122879,0.0 126.782029013545,33.3075055212693,0.0 126.782112014413,33.3075062909589,0.0 126.782130843942,33.3075116852468,0.0 126.782153900483,33.3075229036349,0.0 126.782174215865,33.3075401981895,0.0 126.782193344144,33.3076325993435,0.0 126.782212200678,33.3077136004967,0.0 126.782277957135,33.3079983139689,0.0 126.782303415262,33.3081158298529,0.0 126.782349615365,33.3083165675163,0.0 126.782393928623,33.3085045927644,0.0 126.782400584869,33.3085365066106,0.0 126.782405214435,33.3086440688634,0.0 126.782414644117,33.3086841403007,0.0 126.782440657874,33.308718900347,0.0 126.782462728644,33.3087430908401,0.0 126.782474071668,33.308754648907,0.0 126.782499528297,33.3087793076161,0.0 126.782692813743,33.309032833343,0.0 126.782733357205,33.3090829204325,0.0 126.782826287115,33.3091401005,0.0 126.782787497502,33.30925000449,0.0 126.782737498071,33.3093333369821,0.0 126.782687506525,33.3094000015385,0.0 126.782487498628,33.30954166366,0.0 126.782425005265,33.3096250047955,0.0 126.78232500311,33.3098666678052,0.0 126.781400002521,33.3103499970124,0.0 126.781275001532,33.3104500056597,0.0 126.781225001222,33.3105083347489,0.0 126.781174995438,33.3106000007939,0.0 126.781112502726,33.3107916678011,0.0 126.781112497687,33.3109166705382,0.0 126.781224998412,33.3110833370086,0.0 126.781237499488,33.3111583355633,0.0 126.781162496002,33.3113416680687,0.0 126.781100005856,33.3114583361582,0.0 126.781075004543,33.3116250009307,0.0 126.781037498637,33.3117250013578,0.0 126.781012498837,33.3117749965216,0.0 126.780975006543,33.3117999986612,0.0 126.780612498844,33.312033330869,0.0 126.780449999943,33.3121416627588,0.0 126.780425003166,33.3121833329243,0.0 126.780425005341,33.3123583323557,0.0 126.780387496425,33.3124166706624,0.0 126.780342246349,33.3124719280276,0.0 126.780250005709,33.3125666642177,0.0 126.780037496949,33.3126999970478,0.0 126.779800002082,33.3128083355235,0.0 126.779412506374,33.3129416630099,0.0 126.779350006121,33.3129416704556,0.0 126.779287501601,33.3131666634418,0.0 126.779173021462,33.3133176882317,0.0 126.779083314695,33.3134778399617,0.0 126.779062500902,33.3136583354558,0.0 126.779100002593,33.3137250007687,0.0 126.779124996173,33.3137999998608,0.0 126.779124999377,33.3139666644366,0.0 126.779100005259,33.314283334168,0.0 126.779100000351,33.3143583324417,0.0 126.779112501267,33.3145166637059,0.0 126.779189330744,33.3148714946364,0.0 126.779250004226,33.3152416660154,0.0 126.779337506428,33.315783333557,0.0 126.779325005585,33.315883334179,0.0 126.779262498695,33.3160666651585,0.0 126.779237500197,33.3161083355867,0.0 126.77921249986,33.3161333369614,0.0 126.779137503076,33.3161333350912,0.0 126.778850000378,33.316133335214,0.0 126.778749996356,33.3161500001223,0.0 126.77869999671,33.3161750010458,0.0 126.778650006166,33.3162250041798,0.0 126.778625003678,33.3162749987915,0.0 126.778512498796,33.3165833312477,0.0 126.778400004728,33.316824999618,0.0 126.778337501002,33.3169750024952,0.0 126.778249996375,33.3171916689035,0.0 126.778250001183,33.3172666671934,0.0 126.77826250421,33.3175249989051,0.0 126.77830000224,33.3177500039683,0.0 126.778324999982,33.3178166689608,0.0 126.778362504934,33.3178583323097,0.0 126.778412501455,33.3178833364114,0.0 126.778499998393,33.3179166668123,0.0 126.778559356159,33.3179428367094,0.0 126.778598093392,33.3179760589464,0.0 126.778623576434,33.3180135373118,0.0 126.778629692585,33.318066352311,0.0 126.778634791111,33.3183074170181,0.0 126.778624597335,33.3185612606483,0.0 126.77867760515,33.3189641701689,0.0 126.778700001509,33.3192500007167,0.0 126.778699998544,33.3193416674175,0.0 126.77869999953,33.3197250016576,0.0 126.778725004726,33.3199499967536,0.0 126.778725000106,33.320108336787,0.0 126.77858750092,33.3202666712009,0.0 126.778550005262,33.3203333343503,0.0 126.778525003829,33.3203999973805,0.0 126.778512498901,33.3204833381454,0.0 126.778573628711,33.3207836282402,0.0 126.778537500523,33.3211416639847,0.0 126.778487502813,33.3212416718162,0.0 126.778387505731,33.3214666713916,0.0 126.778300004239,33.3217750043448,0.0 126.778262498828,33.3218583352478,0.0 126.77824801456,33.3218728446789,0.0 126.778212500454,33.3219583341396,0.0 126.778112503902,33.3221166694915,0.0 126.777937536576,33.3223357333457,0.0 126.777821327031,33.3224856476817,0.0 126.777674539182,33.3227326643598,0.0 126.77756240667,33.3229456095845,0.0 126.777387502202,33.3232083298454,0.0 126.777305523889,33.3233732026107,0.0 126.777237504013,33.3235250019953,0.0 126.777187503732,33.32366667103,0.0 126.777100003673,33.3240000051329,0.0 126.777087503945,33.324049999989,0.0 126.77706249817,33.3241000040902,0.0 126.777012499637,33.3241749997486,0.0 126.776859828726,33.3243323387288,0.0 126.776804199987,33.3243901315435,0.0 126.776675971413,33.3244987858487,0.0 126.776575003715,33.3245666642126,0.0 126.776450004995,33.3246333306731,0.0 126.776262503984,33.3247083370512,0.0 126.776000722362,33.3248126908394,0.0 126.77568750588,33.3249083328745,0.0 126.775437498961,33.3249750004292,0.0 126.7747875006,33.3251416690739,0.0 126.77473545432,33.3251648000367,0.0 126.774715363165,33.3250007672529,0.0 126.774709136364,33.3249499091146,0.0 126.774698014303,33.3248962004598,0.0 126.774681000331,33.3248440615991,0.0 126.774677828182,33.3248292871052,0.0 126.774681000878,33.3248143927615,0.0 126.774700801246,33.3247631487355,0.0 126.774705558467,33.3247396013076,0.0 126.774706172317,33.3247202014816,0.0 126.774696744058,33.3246516190227,0.0 126.774699571408,33.3246154018115,0.0 126.77470705743,33.3245739428326,0.0 126.774711997324,33.3245568396841,0.0 126.774780658023,33.3243765184112,0.0 126.774790568145,33.3243505975173,0.0 126.774797958378,33.3243214859973,0.0 126.774803101474,33.324293859857,0.0 126.77480970091,33.3241428236144,0.0 126.774816861613,33.3241194107729,0.0 126.774825857828,33.3240979712279,0.0 126.774834496193,33.3240854539737,0.0 126.774862500071,33.3240511227952,0.0 126.77487055769,33.3240337438633,0.0 126.77487239993,33.324016061651,0.0 126.774857971346,33.3239661779402,0.0 126.774531719751,33.3238787545867,0.0 126.774493414968,33.3238632574246,0.0 126.77446041502,33.323846286129,0.0 126.774426471616,33.3238270004589,0.0 126.774382157287,33.3238007722275,0.0 126.774081385905,33.323600201322,0.0 126.774046501542,33.3235739719235,0.0 126.774008786337,33.3235415712262,0.0 126.773986158335,33.3235199727945,0.0 126.773969185743,33.3234991428982,0.0 126.77395410007,33.323479857209,0.0 126.773941844481,33.3234567151937,0.0 126.773929257085,33.3234294616517,0.0 126.773885701435,33.3233323546099,0.0 126.773633802389,33.3228331089441,0.0 126.773622771908,33.3228143143116,0.0 126.773605956351,33.3227932364509,0.0 126.773572963842,33.3227599466305,0.0 126.773549228906,33.3227487425058,0.0 126.773525340779,33.3227407486285,0.0 126.773501200883,33.3227367021107,0.0 126.773464757823,33.3227323436101,0.0 126.773419354064,33.3227313728511,0.0 126.773381457327,33.3227328484282,0.0 126.772859401125,33.3228091233572,0.0 126.772822342787,33.3228126042382,0.0 126.772774200319,33.3228127716393,0.0 126.772739499849,33.3228164342054,0.0 126.772707002116,33.3228234022814,0.0 126.772498338557,33.3228681445251,0.0 126.772453628966,33.3228791153712,0.0 126.77241385977,33.3228907179495,0.0 126.772159799682,33.3229736443684,0.0 126.772117414457,33.322983058095,0.0 126.772086655755,33.3229855979545,0.0 126.77203915697,33.3229915431814,0.0 126.772009599217,33.3229987028148,0.0 126.771990358519,33.3230058436293,0.0 126.771804057499,33.3230749912073,0.0 126.771777985294,33.3230818012716,0.0 126.771755971545,33.3230861644162,0.0 126.771718258574,33.3230853928137,0.0 126.771655085904,33.3230561111101,0.0 126.771633517601,33.3230433465062,0.0 126.771599400434,33.3230264581887,0.0 126.771566265362,33.3230124349894,0.0 126.77153291149,33.3230013816214,0.0 126.771460201113,33.3229898265866,0.0 126.771433515502,33.3229875291344,0.0 126.771384300778,33.322989825701,0.0 126.771358029045,33.3229940564508,0.0 126.771328201491,33.3230006137285,0.0 126.771296743134,33.3230148862426,0.0 126.771280764321,33.3230278275766,0.0 126.771259085109,33.3230518729133,0.0 126.771150000514,33.323042419222,0.0 126.77099508554,33.3230195072843,0.0 126.770816700468,33.3229938710775,0.0 126.770747401082,33.3229803862788,0.0 126.770730142823,33.3229705761043,0.0 126.770713172926,33.3229536225019,0.0 126.770692429763,33.3229143228608,0.0 126.770647501547,33.3228550005199,0.0 126.770573958272,33.3227709153916,0.0 126.770521771823,33.3227151254229,0.0 126.770448228641,33.3226419178228,0.0 126.770369970598,33.322564087899,0.0 126.770320001396,33.3225190084526,0.0 126.770186115057,33.3224014937704,0.0 126.7701276577,33.322357955365,0.0 126.770077348476,33.3223096428581,0.0 126.770071085103,33.3223036296784,0.0 126.770049400705,33.3222755020312,0.0 126.770034315238,33.3222446798549,0.0 126.770023001514,33.3222169373937,0.0 126.76996548685,33.3221668489332,0.0 126.769937528993,33.3221429723518,0.0 126.769878129026,33.3221013149008,0.0 126.769835223902,33.3220694566287,0.0 126.769812685853,33.3220532816333,0.0 126.76978902782,33.322030343044,0.0 126.769774404368,33.3220117576203,0.0 126.769724114911,33.3219368282942,0.0 126.769687344319,33.3218751813961,0.0 126.769654342323,33.3218173860169,0.0 126.769642029169,33.3218025664621,0.0 126.76962322868,33.3217934979685,0.0 126.769599452114,33.3217881629775,0.0 126.76957514408,33.3217827092491,0.0 126.769530828903,33.3217653706415,0.0 126.769460114536,33.3217256855651,0.0 126.769374299803,33.3216843580897,0.0 126.769311128971,33.3216535001922,0.0 126.769265872477,33.3216365297529,0.0 126.769200830117,33.321614721698,0.0 126.769134214594,33.3215983434305,0.0 126.769080144264,33.3215877499701,0.0 126.769057397839,33.3215854135299,0.0 126.769019742443,33.3215834820697,0.0 126.768985201031,33.3215900473854,0.0 126.768961640793,33.3215966696048,0.0 126.76892639995,33.3216089379649,0.0 126.768899401045,33.3216278070353,0.0 126.768884028691,33.3216416913592,0.0 126.768854742478,33.3216768239998,0.0 126.768835795417,33.3217069153243,0.0 126.768805771708,33.3217588216209,0.0 126.76876711496,33.3218320282207,0.0 126.768734087154,33.321889909158,0.0 126.768637001434,33.321868244692,0.0 126.768672657923,33.3217634441022,0.0 126.768687743968,33.3217349337209,0.0 126.76870027431,33.3217108531413,0.0 126.768775428531,33.3216004638912,0.0 126.768960228756,33.3213550314193,0.0 126.769014914925,33.3212879906889,0.0 126.769058933217,33.3212308811943,0.0 126.769195871731,33.3210881414493,0.0 126.769220457538,33.3210679869795,0.0 126.769289286475,33.321022521378,0.0 126.769348199903,33.3209818595589,0.0 126.76937724213,33.3209653057541,0.0 126.769294246557,33.3208967862061,0.0 126.76913624175,33.3207996808632,0.0 126.769051633632,33.3207758313746,0.0 126.768975606447,33.3207735056675,0.0 126.768737200884,33.3207935604868,0.0 126.768431608958,33.3208042623571,0.0 126.768162497836,33.3207999985194,0.0 126.767962501511,33.320791667908,0.0 126.767923184281,33.3207809428772,0.0 126.767885467016,33.3207545365177,0.0 126.767762122445,33.3206173966371,0.0 126.767600003694,33.320416669409,0.0 126.767546015311,33.3203584486138,0.0 126.767441018162,33.3202894534939,0.0 126.767278938861,33.3202085316577,0.0 126.767097490614,33.3201574240312,0.0 126.766797792271,33.3200952422112,0.0 126.766657029908,33.3200372283922,0.0 126.766643924054,33.3200462917589,0.0 126.766630113666,33.3200620435619,0.0 126.766621628251,33.320080557347,0.0 126.766618703133,33.3200973021242,0.0 126.766603819755,33.3201844789605,0.0 126.766598056499,33.3202201864963,0.0 126.766586742937,33.3202495000778,0.0 126.766577972539,33.3202748688262,0.0 126.766564306867,33.3203043386279,0.0 126.766545771743,33.3203400709506,0.0 126.766529228713,33.3203690706872,0.0 126.766514142557,33.3203868155108,0.0 126.76649999981,33.3203976151155,0.0 126.766476428324,33.3204030135577,0.0 126.766449599865,33.3203994061766,0.0 126.766418487261,33.3203878471945,0.0 126.766393897006,33.3203722419081,0.0 126.766374900571,33.3203601841304,0.0 126.766340229292,33.320338144902,0.0 126.766311429467,33.3203251005025,0.0 126.766282500744,33.3203170319798,0.0 126.766155372182,33.3202997155736,0.0 126.766106830148,33.3202911579026,0.0 126.76606628648,33.3202803578788,0.0 126.766038300521,33.3202738792478,0.0 126.766009285104,33.3202730290368,0.0 126.765982200354,33.3202792731367,0.0 126.765868359162,33.3203178504358,0.0 126.765840943576,33.3203328143393,0.0 126.76582637294,33.3203520154812,0.0 126.765820014835,33.3203664239381,0.0 126.765811715206,33.3203960712527,0.0 126.765801850766,33.320427545282,0.0 126.765794099945,33.3204734618684,0.0 126.765788142811,33.3205079284595,0.0 126.76577965875,33.3205287565518,0.0 126.765772628294,33.32053849763,0.0 126.76575339392,33.3205486433238,0.0 126.765720257517,33.3205580710023,0.0 126.765691799348,33.3205678588346,0.0 126.765631846292,33.3205879048341,0.0 126.765621256963,33.3205958714794,0.0 126.765611811521,33.3206043502576,0.0 126.765606172516,33.3206190150887,0.0 126.765605553487,33.3206382502327,0.0 126.765606001306,33.3206514685126,0.0 126.765623289106,33.3207645108024,0.0 126.765639000552,33.3208672342994,0.0 126.765639172854,33.3208851572919,0.0 126.765636344407,33.3209059868747,0.0 126.765630612366,33.3209154020079,0.0 126.765614228571,33.3209392051582,0.0 126.765605447442,33.3209580711012,0.0 126.765512871274,33.3212863555289,0.0 126.765409034304,33.3212456168252,0.0 126.765367629177,33.321229986226,0.0 126.765328800652,33.3212196458726,0.0 126.76521681525,33.3211884917085,0.0 126.765070671676,33.3211445676957,0.0 126.764883300048,33.321078954296,0.0 126.764835857055,33.3210595013589,0.0 126.764801914503,33.3210363583833,0.0 126.764777700791,33.3210169217812,0.0 126.764750705347,33.3209932826049,0.0 126.764719886598,33.3209646144226,0.0 126.764691601443,33.3209445569492,0.0 126.764648229231,33.3209121579336,0.0 126.764607686031,33.3208874707297,0.0 126.764553001206,33.3208489006189,0.0 126.764301800214,33.3206368896639,0.0 126.764070300549,33.3204279175905,0.0 126.763899900982,33.3202617407302,0.0 126.763860987312,33.3202252533199,0.0 126.763826056767,33.3202001289816,0.0 126.763793058543,33.3201785294631,0.0 126.763757229706,33.3201584722153,0.0 126.763712914604,33.3201399578482,0.0 126.763488557213,33.3200561070378,0.0 126.763197000865,33.3199569736057,0.0 126.763004871968,33.3198908155467,0.0 126.762502294641,33.3197636597206,0.0 126.762479658158,33.3197519298689,0.0 126.762463672138,33.3197378524683,0.0 126.762480643814,33.319717818187,0.0 126.762504763003,33.3196976127348,0.0 126.762523029685,33.3196840442109,0.0 126.762545469691,33.3196710625321,0.0 126.762607929705,33.3196361360003,0.0 126.762670846112,33.3196096906065,0.0 126.762712543765,33.3195945578274,0.0 126.762756373653,33.3195796000893,0.0 126.763062527536,33.3194871884227,0.0 126.763114500306,33.3194715015344,0.0 126.763225374256,33.319432165964,0.0 126.763329215485,33.3193953253585,0.0 126.763448015784,33.3193475493182,0.0 126.763634701412,33.3192797371844,0.0 126.763739440155,33.3192457603702,0.0 126.763831715101,33.3192204154354,0.0 126.763925498766,33.3191954652808,0.0 126.763999542807,33.3191787576637,0.0 126.764095038377,33.3191605282852,0.0 126.764678701087,33.3190615468781,0.0 126.764734071448,33.3190477896997,0.0 126.764752398087,33.3190398309335,0.0 126.76476450023,33.319034575785,0.0 126.764780229963,33.3190190717175,0.0 126.764795313999,33.3189990149309,0.0 126.764807571416,33.3189681573994,0.0 126.764825485699,33.3189373008618,0.0 126.764846671683,33.318912184071,0.0 126.764865129909,33.3188913583558,0.0 126.764888657033,33.3188694142594,0.0 126.764919814369,33.3188474354814,0.0 126.764949096738,33.3188317363236,0.0 126.765243215456,33.3186740523161,0.0 126.765280013312,33.3186579103228,0.0 126.765309214038,33.3186416887087,0.0 126.765338701031,33.3186205752624,0.0 126.765402558758,33.3185673256594,0.0 126.765431681582,33.3185383409914,0.0 126.765554357684,33.3184016486529,0.0 126.765607157429,33.3183453954751,0.0 126.765668443594,33.318296463624,0.0 126.765707100559,33.3182648691041,0.0 126.765768387083,33.3181985976664,0.0 126.765807044176,33.31814773898,0.0 126.765826404733,33.3181176290762,0.0 126.765846601174,33.318090272825,0.0 126.765864557667,33.3180718359735,0.0 126.76584321154,33.3180212414641,0.0 126.765825857138,33.3179892151538,0.0 126.765806057822,33.3179598999871,0.0 126.765777772416,33.3179259576921,0.0 126.765751200928,33.317901806502,0.0 126.765616544292,33.3178110147671,0.0 126.765470401665,33.3177238439721,0.0 126.765383884884,33.3176808371467,0.0 126.765348771675,33.3176659852924,0.0 126.765315771583,33.3176521005156,0.0 126.765269572174,33.3176389865627,0.0 126.765189472954,33.3176245072048,0.0 126.765148886904,33.317619699532,0.0 126.765096086617,33.317613528089,0.0 126.765041400268,33.3176112150286,0.0 126.765023481286,33.3176111106733,0.0 126.765008444014,33.3176110217123,0.0 126.764994048967,33.3176144923188,0.0 126.764974885154,33.3176191106077,0.0 126.764942958623,33.3176329471589,0.0 126.764920359986,33.3176446995963,0.0 126.764897143956,33.3176567296889,0.0 126.764874665031,33.3176735915956,0.0 126.764586044409,33.3178757211348,0.0 126.764569030197,33.3178850710903,0.0 126.764540743164,33.3179012726185,0.0 126.764520001596,33.3179128427448,0.0 126.7644945675,33.3179252240698,0.0 126.76446720004,33.3179344428015,0.0 126.764443464417,33.3179418046766,0.0 126.76441534198,33.3179491009364,0.0 126.76401372886,33.3180290676943,0.0 126.763893985337,33.3180175346064,0.0 126.763720458633,33.3180038720291,0.0 126.763644052958,33.3179961782789,0.0 126.76355242932,33.3179869524772,0.0 126.76345928647,33.3179776427314,0.0 126.763397100953,33.317968191115,0.0 126.763326352518,33.3179503996056,0.0 126.763286230163,33.3179384814346,0.0 126.763254344904,33.3179246093296,0.0 126.763226847828,33.3179111860352,0.0 126.76319717122,33.3178943289155,0.0 126.763163999055,33.3178694421812,0.0 126.763150973076,33.3177863281663,0.0 126.763126216891,33.3177656620303,0.0 126.763091572915,33.3177392724524,0.0 126.763063722058,33.3177193559147,0.0 126.763028401323,33.3177014715977,0.0 126.763012459602,33.3176943959635,0.0 126.762977486456,33.3176814149189,0.0 126.762944485955,33.3176737002225,0.0 126.762878929383,33.3176635088272,0.0 126.762799287208,33.3176590439392,0.0 126.762671057292,33.3176567283211,0.0 126.762608828911,33.3176528720309,0.0 126.762556029336,33.3176451569738,0.0 126.76249945878,33.3176374431809,0.0 126.762440058024,33.3176274141648,0.0 126.762392913653,33.3176158437823,0.0 126.762306193806,33.3175945690069,0.0 126.762136845888,33.3175530273454,0.0 126.762052586704,33.3175331928388,0.0 126.761873399889,33.3175240429651,0.0 126.76185077229,33.3175086147008,0.0 126.761819657891,33.3174746712221,0.0 126.761787495698,33.3174333380183,0.0 126.761699998704,33.3173333319743,0.0 126.761662501997,33.3172916637034,0.0 126.76156249785,33.3172250005227,0.0 126.761425004271,33.3170916673771,0.0 126.761337496809,33.3169916698243,0.0 126.761287500624,33.3169583334695,0.0 126.761175001479,33.3169250047162,0.0 126.760812505382,33.316825003439,0.0 126.76073750414,33.3167999965503,0.0 126.760675002291,33.3167833354699,0.0 126.760649999626,33.316758337586,0.0 126.76062499804,33.3167166712457,0.0 126.760599997759,33.3165666709419,0.0 126.760587506614,33.3165166638938,0.0 126.760562504049,33.3164916659926,0.0 126.760375006004,33.3164166698454,0.0 126.760274996181,33.3163916673872,0.0 126.760200001533,33.3163583353453,0.0 126.75996249951,33.316233334366,0.0 126.759875005301,33.31620833402,0.0 126.759775000832,33.3161916648717,0.0 126.75968749929,33.3161916664866,0.0 126.759562503755,33.3162083299486,0.0 126.759562501953,33.3160916700025,0.0 126.759437501506,33.3149833339903,0.0 126.759430914715,33.3148526451116,0.0 126.75943738551,33.3147690754792,0.0 126.759514779357,33.3143677634288,0.0 126.759535751913,33.3142747155838,0.0 126.759539684637,33.3141449735151,0.0 126.759551481183,33.3140977992585,0.0 126.759666796364,33.313918256418,0.0 126.7596956274,33.3138841895424,0.0 126.759725006375,33.3138666683208,0.0 126.760099997794,33.3137500053394,0.0 126.760175000876,33.3137083304968,0.0 126.760223762303,33.3136535380579,0.0 126.760322050279,33.3134215789419,0.0 126.760531732389,33.3129091775899,0.0 126.760650005741,33.3127083382242,0.0 126.760812498366,33.3125083387608,0.0 126.76085000476,33.3124416634094,0.0 126.760979649774,33.3120693379038,0.0 126.761020186451,33.3118929927529,0.0 126.761024238692,33.3116609057205,0.0 126.761038426212,33.3115747624975,0.0 126.761188425511,33.3111744341859,0.0 126.761237505682,33.3108166648752,0.0 126.76124762406,33.3106945003849,0.0 126.761237495634,33.3106166634907,0.0 126.761212505947,33.310574997861,0.0 126.761149998218,33.3105416685278,0.0 126.760975004872,33.3104833352199,0.0 126.760937505976,33.3104500009351,0.0 126.760910024137,33.310405794661,0.0 126.760903190313,33.3103665458245,0.0 126.760903498879,33.3103528987565,0.0 126.760910014594,33.310291064651,0.0 126.761012505983,33.3100250001318,0.0 126.761086700798,33.3098137416102,0.0 126.761112498081,33.3096666676375,0.0 126.761113891274,33.309500254846,0.0 126.761337499543,33.3085333361114,0.0 126.761324996936,33.3084083307579,0.0 126.761298767733,33.3081577771131,0.0 126.761288642638,33.3081233433361,0.0 126.761313490538,33.3081102142982,0.0 126.761279192478,33.3080303305579,0.0 126.761260356168,33.3080408891946,0.0 126.761235465508,33.3079697600539,0.0 126.761138329346,33.3075936412178,0.0 126.76109288281,33.3073017572968,0.0 126.761092589751,33.3071849242279,0.0 126.760925001367,33.3071333363216,0.0 126.760625005944,33.3070833325486,0.0 126.760012506132,33.3069333337287,0.0 126.759450003111,33.3067500050028,0.0 126.759287994991,33.3067158201963,0.0 126.759219239368,33.3067093920874,0.0 126.759154471208,33.3067105699529,0.0 126.759493660479,33.3059178126735,0.0 126.759505415727,33.3058908997994,0.0 126.759518615002,33.3058700726612,0.0 126.75953576996,33.3058443964881,0.0 126.759550500839,33.30582433433,0.0 126.759610118269,33.3057532779045,0.0 126.759634585788,33.3057219579206,0.0 126.759652501281,33.3056957291409,0.0 126.759670219346,33.3056640782633,0.0 126.759780078084,33.3054335358211,0.0 126.759811843567,33.3053694150119,0.0 126.759861385788,33.3052859988385,0.0 126.759875952634,33.3052629827003,0.0 126.759893872558,33.3052328722291,0.0 126.759913671653,33.3052105005236,0.0 126.759932528977,33.3051950718035,0.0 126.760032986436,33.305133806521,0.0 126.760108415282,33.3050875714723,0.0 126.760191323922,33.305043746472,0.0 126.760242729909,33.3050145581372,0.0 126.760289870809,33.3049844718249,0.0 126.760337957852,33.3049451292646,0.0 126.760380899406,33.3049030139437,0.0 126.760406785824,33.3048710708045,0.0 126.76042615665,33.3048382845779,0.0 126.760447328757,33.3048001002601,0.0 126.760463600863,33.3047526656519,0.0 126.760476557457,33.3047129284266,0.0 126.760483207625,33.3046814350631,0.0 126.760489757223,33.3046512149919,0.0 126.760490043594,33.3046198500101,0.0 126.760489216965,33.304598400334,0.0 126.760478443783,33.3045570999018,0.0 126.76046405505,33.3045181143358,0.0 126.760449213837,33.3044853568024,0.0 126.76042960538,33.3044536465998,0.0 126.760360585394,33.3043387870463,0.0 126.76029441823,33.3042443399123,0.0 126.760276015088,33.304221070198,0.0 126.760250420026,33.3041918110042,0.0 126.760212964936,33.3041594583198,0.0 126.760183329949,33.3041389860515,0.0 126.760142013891,33.3041117747389,0.0 126.760083497941,33.3040798361208,0.0 126.760049444421,33.3040649296409,0.0 126.76000093805,33.3040458329944,0.0 126.759923615816,33.3040210716729,0.0 126.75980901409,33.303993958303,0.0 126.759780728227,33.3039862439008,0.0 126.759755785481,33.3039713695924,0.0 126.7597353001,33.3039552666591,0.0 126.75966930139,33.3038959303865,0.0 126.759564234613,33.3038100615423,0.0 126.759537472755,33.303792614805,0.0 126.759502596649,33.3037731323491,0.0 126.759483729527,33.3037640723964,0.0 126.75946727075,33.3037567603648,0.0 126.759438344912,33.3037503121092,0.0 126.759395100034,33.3037432423041,0.0 126.759352564571,33.3037385714522,0.0 126.759240986966,33.3037332572586,0.0 126.759204937695,33.3037335928685,0.0 126.759179098464,33.3037328057313,0.0 126.759149958476,33.3037293575391,0.0 126.759105214003,33.3037216984501,0.0 126.758959801417,33.3036909527164,0.0 126.75891047235,33.3036853856993,0.0 126.758869935241,33.3036839680322,0.0 126.758815757135,33.3036858651144,0.0 126.75876432898,33.3036830711241,0.0 126.758724604435,33.3036783672788,0.0 126.758585699802,33.3036565826762,0.0 126.758452722846,33.3036328266664,0.0 126.758407928831,33.3036229011121,0.0 126.758370215486,33.3036105575505,0.0 126.758344329025,33.3036003297293,0.0 126.758307043921,33.3035835581609,0.0 126.758248157883,33.3035525540017,0.0 126.758220301461,33.303534958416,0.0 126.758202900968,33.3035209589974,0.0 126.758189699084,33.3035047765258,0.0 126.758184470741,33.3034917570169,0.0 126.758185929539,33.3034770344984,0.0 126.758193307598,33.3034521104921,0.0 126.75820050112,33.3034184723849,0.0 126.758210444028,33.3033722356413,0.0 126.758214214156,33.3033506581456,0.0 126.758095414973,33.3033437236938,0.0 126.758042615788,33.3033352470639,0.0 126.757734834261,33.3032838262823,0.0 126.757694186511,33.3032749860815,0.0 126.757664733378,33.3032676666534,0.0 126.757425044172,33.3031984661593,0.0 126.75717801466,33.3031318103975,0.0 126.757068643929,33.303097904903,0.0 126.756947957856,33.3030478169808,0.0 126.756928585464,33.303034299956,0.0 126.756918215612,33.3030204139675,0.0 126.756909702061,33.3029986078115,0.0 126.756901243899,33.3029710441513,0.0 126.756900600277,33.3029479098707,0.0 126.756902000782,33.3029192903727,0.0 126.756905015227,33.3028777004869,0.0 126.756910107977,33.302841282454,0.0 126.756930482229,33.3027126151913,0.0 126.756933299236,33.3026709575103,0.0 126.75693004221,33.3026340078448,0.0 126.756921986464,33.3025722150255,0.0 126.756907935774,33.3025065024733,0.0 126.756893701224,33.3024472430561,0.0 126.756877067625,33.3023907185614,0.0 126.756861361159,33.3023467045546,0.0 126.756846556529,33.3023184147909,0.0 126.756822407133,33.3022906598408,0.0 126.756800358078,33.3022736717562,0.0 126.756786369299,33.3022644423874,0.0 126.756761700686,33.302252843584,0.0 126.756737631214,33.3022438044,0.0 126.756676919645,33.3022280840878,0.0 126.756608957399,33.3022111863097,0.0 126.75654861451,33.3021988433475,0.0 126.756509014638,33.3021903575075,0.0 126.756471633457,33.3021812347722,0.0 126.756450556569,33.3021749285782,0.0 126.756436256285,33.302165794197,0.0 126.756422838999,33.3021542753127,0.0 126.756403107191,33.3021373324035,0.0 126.756376072631,33.3021101293349,0.0 126.756323853865,33.3020563921191,0.0 126.75628883189,33.30202035281,0.0 126.756266701059,33.3020013564141,0.0 126.756246242831,33.3019867411135,0.0 126.756195043832,33.3019558442042,0.0 126.756179015808,33.3019396424015,0.0 126.756162985784,33.3019219007945,0.0 126.756150642365,33.3018981101752,0.0 126.755969986826,33.3015617601103,0.0 126.755916242985,33.3014754539373,0.0 126.755900214097,33.3014477127499,0.0 126.755815584755,33.3014573172713,0.0 126.755665672498,33.3014700314413,0.0 126.755350663991,33.3014537019797,0.0 126.755144525024,33.301440452658,0.0 126.754969614229,33.3014253659824,0.0 126.754854586887,33.3014099544196,0.0 126.754781043779,33.3013876062169,0.0 126.75472070092,33.3013652600673,0.0 126.754655644389,33.3013132453449,0.0 126.754439729318,33.3011209825519,0.0 126.75439599366,33.3010783349022,0.0 126.754352987117,33.3010481607742,0.0 126.754168412908,33.3009355303682,0.0 126.754140842675,33.3009206287102,0.0 126.754103822028,33.3009060584346,0.0 126.753983715498,33.300868228896,0.0 126.753650557678,33.3007988750995,0.0 126.753193499729,33.3006824869338,0.0 126.753203144284,33.3006497584312,0.0 126.753090643308,33.3006018448168,0.0 126.753196328352,33.300388891231,0.0 126.753255000302,33.3002771567799,0.0 126.753440828909,33.2999576093823,0.0 126.753501599865,33.2998462821316,0.0 126.753541200843,33.2997545829153,0.0 126.753570642565,33.2996737834157,0.0 126.753615256777,33.2995387243452,0.0 126.753674356677,33.2993443560884,0.0 126.753700641467,33.2992526362929,0.0 126.753741601559,33.2991175243912,0.0 126.75375328951,33.299074435852,0.0 126.753769432822,33.2990151652512,0.0 126.753806253335,33.298895463254,0.0 126.753825453998,33.2988379032851,0.0 126.75384908713,33.2987734664674,0.0 126.753860681042,33.2987398709824,0.0 126.753883029175,33.2986862952605,0.0 126.753909943455,33.2986357808363,0.0 126.753934885926,33.2985906375044,0.0 126.753954395068,33.2985558106817,0.0 126.753977136033,33.2985183767495,0.0 126.754074129642,33.2983680171007,0.0 126.754350386697,33.2979553650106,0.0 126.754435230037,33.2978389292171,0.0 126.754449372778,33.2978018999834,0.0 126.754363586605,33.2977469211786,0.0 126.754281557935,33.2976714036712,0.0 126.7539750054,33.297341669234,0.0 126.753934752855,33.2973173453011,0.0 126.753906300696,33.2973115372123,0.0 126.753873300634,33.2973169312208,0.0 126.753574996702,33.2973500006972,0.0 126.753417071458,33.2973594424724,0.0 126.753287506313,33.2973583304197,0.0 126.753241586781,33.2973539201294,0.0 126.753193500004,33.2973373524341,0.0 126.7531232646,33.2972986348581,0.0 126.753035586051,33.2972409412906,0.0 126.752954957074,33.2971743711429,0.0 126.752927615667,33.297146630378,0.0 126.752920072838,33.2971096421642,0.0 126.752928314438,33.2970865744763,0.0 126.752969353263,33.297024991715,0.0 126.753200677987,33.2967622508963,0.0 126.753240783855,33.2966928693398,0.0 126.753269696403,33.2966273798177,0.0 126.753278095221,33.2964698931959,0.0 126.753282762826,33.2962749887506,0.0 126.753275004224,33.2961166656941,0.0 126.753262235523,33.2960824223427,0.0 126.753225001625,33.2960416647212,0.0 126.75302998139,33.2958633467884,0.0 126.752887499137,33.2957083355736,0.0 126.752796799262,33.2956185407443,0.0 126.752719376937,33.2954969145191,0.0 126.752691396666,33.2954228484008,0.0 126.752673823654,33.2953774006377,0.0 126.752662482502,33.2952528884552,0.0 126.752618644258,33.2950571962968,0.0 126.752572149352,33.2948964755922,0.0 126.752527238226,33.2946611354319,0.0 126.752469401671,33.2943991815617,0.0 126.75240690632,33.2941886750227,0.0 126.752313630797,33.2938658961351,0.0 126.752207302292,33.2934480075524,0.0 126.752207304443,33.2933193603638,0.0 126.752212503644,33.293183330651,0.0 126.752215701438,33.2931408220216,0.0 126.752232486533,33.2931057373685,0.0 126.752332289405,33.2929716387884,0.0 126.752390123922,33.2929100393961,0.0 126.752412502884,33.292850004321,0.0 126.752425000306,33.292558329945,0.0 126.752455417336,33.2924032664216,0.0 126.752572936313,33.2921826131238,0.0 126.752723110735,33.2920204501494,0.0 126.75275000534,33.2920416635713,0.0 126.752911316529,33.2921285275403,0.0 126.753074999309,33.292216668437,0.0 126.753119291677,33.2922367074889,0.0 126.753178290074,33.2922488848995,0.0 126.753213074739,33.2922469309413,0.0 126.753262495341,33.2922333356269,0.0 126.753353645201,33.2921880726492,0.0 126.753399351891,33.2921631281094,0.0 126.753733275229,33.2918458020706,0.0 126.754265300726,33.2913254231343,0.0 126.754418742517,33.2911699267858,0.0 126.753198000676,33.2904766676855,0.0 126.753191372875,33.2904732812755,0.0 126.753180102012,33.2904675239706,0.0 126.753154742617,33.2904545076854,0.0 126.753077099004,33.29041532002,0.0 126.752643344095,33.2901980196522,0.0 126.752038961037,33.2898860070409,0.0 126.752002913365,33.2898649277565,0.0 126.751987571344,33.2898535630626,0.0 126.751968257447,33.2898373827729,0.0 126.751946800554,33.2898161529136,0.0 126.751931257911,33.2897954998047,0.0 126.751917785899,33.2897736293048,0.0 126.751906744457,33.2897522997262,0.0 126.751895209824,33.2897286963005,0.0 126.751881514447,33.2896959787413,0.0 126.751872641537,33.2896765548856,0.0 126.751863372475,33.2896512441818,0.0 126.751857714368,33.2896296425677,0.0 126.751856989936,33.2896173655593,0.0 126.751855357504,33.2895896658914,0.0 126.75185039985,33.2895318434551,0.0 126.751833325912,33.2894623558728,0.0 126.751829900148,33.2894409427587,0.0 126.751824714108,33.2894144152165,0.0 126.751811601267,33.2893584578288,0.0 126.751790772055,33.2892516441334,0.0 126.751729486526,33.2889600435204,0.0 126.751714630185,33.2888945649117,0.0 126.75169742847,33.2888204136674,0.0 126.75166654377,33.2887439146644,0.0 126.751622942534,33.2886468439309,0.0 126.751604086839,33.2886098150056,0.0 126.751578628583,33.2885681583207,0.0 126.75154469952,33.2885158983333,0.0 126.751506029402,33.288464014965,0.0 126.75145322951,33.2884053868976,0.0 126.751449001029,33.2883904842911,0.0 126.751373315191,33.2883044105668,0.0 126.751339372174,33.2882704672022,0.0 126.7512950568,33.2882349821114,0.0 126.751254680702,33.2882102701082,0.0 126.751226228477,33.288193323936,0.0 126.751185686906,33.288170952808,0.0 126.750944087103,33.2880381852144,0.0 126.750604884829,33.2878546673604,0.0 126.750448372874,33.2877644106588,0.0 126.750341848941,33.2877023031158,0.0 126.750051430099,33.2875414063587,0.0 126.750000001312,33.2875114793869,0.0 126.749933571798,33.2874728242761,0.0 126.749796858709,33.2873922976945,0.0 126.749721428626,33.2873522267193,0.0 126.749559759219,33.2872840217163,0.0 126.749488543464,33.2872539767162,0.0 126.749470399563,33.287239758537,0.0 126.749419715454,33.2872002221652,0.0 126.749389314387,33.2871734145274,0.0 126.749376151752,33.2871561055423,0.0 126.749354657583,33.2871260573993,0.0 126.749318201773,33.2870678772648,0.0 126.749291256812,33.2870199011216,0.0 126.749270125299,33.2869648077838,0.0 126.749264142879,33.2869445836828,0.0 126.749242458256,33.2868540398333,0.0 126.74922510078,33.2867111036466,0.0 126.74921300051,33.2865763292293,0.0 126.749210171919,33.2864513571471,0.0 126.749212056966,33.2863935005042,0.0 126.749221801363,33.2863389090996,0.0 126.749238801665,33.2862890067743,0.0 126.749250943398,33.2862533642912,0.0 126.749284886443,33.2861828549852,0.0 126.749358428677,33.2860491571296,0.0 126.749423101299,33.2859599699318,0.0 126.749501513674,33.2858411570661,0.0 126.749536865121,33.2857811963667,0.0 126.749548656158,33.2857501281719,0.0 126.749567515708,33.2857015290811,0.0 126.749579085669,33.2856651955143,0.0 126.749593100262,33.2856175569953,0.0 126.749607114897,33.2855364432484,0.0 126.749612886422,33.2854870285427,0.0 126.749612772812,33.2854099297418,0.0 126.749610580667,33.2853064139918,0.0 126.749604515139,33.2852080579644,0.0 126.749602400112,33.2851538155132,0.0 126.749607113308,33.2851260434584,0.0 126.749614499928,33.2850106018986,0.0 126.749613587923,33.2850055002657,0.0 126.749594700234,33.2849000224211,0.0 126.749583772567,33.2848412565726,0.0 126.74955840079,33.2847867454376,0.0 126.749518800799,33.2847301065266,0.0 126.749377058213,33.2845359000307,0.0 126.749228400416,33.2842972277083,0.0 126.749116114534,33.2841165152637,0.0 126.749047285854,33.2840009276298,0.0 126.749007300139,33.2839209867308,0.0 126.748946171073,33.2837768148676,0.0 126.748928791762,33.2837185748022,0.0 126.748894314848,33.283615585662,0.0 126.748825801243,33.2834530451833,0.0 126.748814887187,33.2834251335693,0.0 126.748800029672,33.2833949580721,0.0 126.748783057405,33.2833671865581,0.0 126.748760428279,33.2833347862454,0.0 126.748741573031,33.28330547236,0.0 126.748709772386,33.2832706807656,0.0 126.74867742039,33.2832330754456,0.0 126.748652257811,33.2832081963658,0.0 126.748617343529,33.2831806323711,0.0 126.748545160975,33.2831267673189,0.0 126.748498315065,33.2830902430744,0.0 126.748456827783,33.283063243762,0.0 126.748383601363,33.2830134235534,0.0 126.748205343243,33.2829088809811,0.0 126.74804664231,33.2828219727901,0.0 126.747938515542,33.2827630822813,0.0 126.747737686238,33.2826489104777,0.0 126.747668829353,33.2826073134804,0.0 126.747642456991,33.2825802534376,0.0 126.747310543218,33.2823541745855,0.0 126.747131220021,33.2822096268321,0.0 126.747091800563,33.2821765530846,0.0 126.747078600241,33.2821160611358,0.0 126.747049371406,33.2820112617921,0.0 126.747038671232,33.2819860070074,0.0 126.747019772911,33.2819564663384,0.0 126.746989188908,33.2819130160006,0.0 126.746974515095,33.281894752366,0.0 126.746955016064,33.2818744897508,0.0 126.746928314556,33.2818430674745,0.0 126.746919314031,33.2818326907671,0.0 126.746903800656,33.2818122106141,0.0 126.746895687054,33.2817866340214,0.0 126.746889228496,33.2817544111642,0.0 126.746888715693,33.2817196391062,0.0 126.746888713871,33.2816895528346,0.0 126.746889539087,33.2816539862302,0.0 126.746892000402,33.281632523854,0.0 126.746886828544,33.2816070096749,0.0 126.746873629558,33.2815830962075,0.0 126.746855700188,33.2815623993707,0.0 126.746833086947,33.28154606672,0.0 126.746796299461,33.2815354296995,0.0 126.746771229961,33.2815323391348,0.0 126.746745399658,33.2815344953288,0.0 126.746713058697,33.2815385818094,0.0 126.746637900483,33.2815516106647,0.0 126.746590771742,33.2815591814393,0.0 126.746567193039,33.2815590275144,0.0 126.746539858226,33.2815568667571,0.0 126.746524771148,33.2815522385022,0.0 126.746515799715,33.2815435195462,0.0 126.746492701582,33.2815192465524,0.0 126.746483124585,33.2815009867808,0.0 126.746478001333,33.2814911119438,0.0 126.746470084785,33.2814835813375,0.0 126.746455371828,33.2814814877167,0.0 126.746416800662,33.281481488406,0.0 126.746390886307,33.281477409421,0.0 126.74637145777,33.2814722318362,0.0 126.746348954827,33.2814630597804,0.0 126.746330281943,33.2814508742955,0.0 126.745984501441,33.2812252666206,0.0 126.745915728515,33.2811819069654,0.0 126.745898936221,33.2811713188618,0.0 126.745874572732,33.2811470435826,0.0 126.745855221826,33.2811237813812,0.0 126.745842234727,33.2810967630785,0.0 126.745830830034,33.2810708669683,0.0 126.745822452149,33.2810448174602,0.0 126.745812900918,33.2810148956583,0.0 126.745801029277,33.2809925398343,0.0 126.745779900669,33.2809717419559,0.0 126.745753095606,33.2809592224254,0.0 126.745710601535,33.2809393777583,0.0 126.745674314836,33.2809235245531,0.0 126.745644600471,33.2809016175587,0.0 126.745627171192,33.2808834091614,0.0 126.745611600728,33.2808611624454,0.0 126.745602606051,33.2808399261959,0.0 126.745522499573,33.2806507902135,0.0 126.745516857323,33.2806203526081,0.0 126.745515900084,33.2805968485636,0.0 126.745522972891,33.2805371147896,0.0 126.745520057158,33.2805070669826,0.0 126.745511533543,33.2804870023309,0.0 126.745499400129,33.280464693334,0.0 126.744981686026,33.2796544077166,0.0 126.7449486872,33.2796062463043,0.0 126.744937944017,33.2795912664615,0.0 126.744926627785,33.2795827819816,0.0 126.744906406103,33.2795739428235,0.0 126.744871001034,33.2795573245691,0.0 126.744838944027,33.2795426677646,0.0 126.744784629201,33.2795172430569,0.0 126.744771381058,33.2795078924245,0.0 126.744759744162,33.2794909819812,0.0 126.744761057177,33.2794779438238,0.0 126.744769172037,33.2794601250193,0.0 126.744771057323,33.2794462392403,0.0 126.744763886728,33.2794216888921,0.0 126.744754448717,33.2793941310597,0.0 126.744741829346,33.2793621536208,0.0 126.744729572379,33.2793390103153,0.0 126.744713914736,33.2793176591963,0.0 126.744692801194,33.2793004390299,0.0 126.744666771737,33.2792799018564,0.0 126.744639522105,33.2792626889876,0.0 126.744611713933,33.2792495245187,0.0 126.74458357116,33.2792362479069,0.0 126.744539486576,33.2792186387333,0.0 126.744489142915,33.2792016950628,0.0 126.744446701002,33.279191675899,0.0 126.744419200802,33.2791860575344,0.0 126.74438448533,33.279180867648,0.0 126.744354686654,33.2791801090183,0.0 126.744303085371,33.2791822489821,0.0 126.744261915668,33.2791885812169,0.0 126.744221894844,33.2792023744135,0.0 126.744100199966,33.2792456179559,0.0 126.743984699821,33.2792914677623,0.0 126.743359030021,33.2790518054963,0.0 126.743033744107,33.278939684422,0.0 126.742783499219,33.2788585892493,0.0 126.742760314199,33.2788537647748,0.0 126.742697700905,33.2788504986358,0.0 126.742639002889,33.2788540089517,0.0 126.742585515387,33.2788599534407,0.0 126.742546286649,33.2788668650668,0.0 126.742466379498,33.2788825704706,0.0 126.742281344174,33.2788757261644,0.0 126.74204185838,33.2788822756071,0.0 126.741413914447,33.278939300333,0.0 126.741051856924,33.2789493178676,0.0 126.740435228749,33.2789323645118,0.0 126.740079757087,33.278917162328,0.0 126.74002225774,33.2789092467174,0.0 126.739942115701,33.2788861299669,0.0 126.739844999207,33.2788703308729,0.0 126.739800730219,33.278862786737,0.0 126.739683911742,33.2788665914698,0.0 126.739353633672,33.278880227044,0.0 126.7393188864,33.2788876704453,0.0 126.739284316086,33.2789109059221,0.0 126.739260427948,33.2789254293347,0.0 126.739251696436,33.2789484034349,0.0 126.739251001547,33.2789963238059,0.0 126.739253736168,33.2790336242403,0.0 126.739284316997,33.2791239578378,0.0 126.73960032334,33.2798926444814,0.0 126.739663525763,33.2800903508749,0.0 126.739681873764,33.2801653442839,0.0 126.739677272886,33.2804649107752,0.0 126.739678913809,33.28056374723,0.0 126.739681043287,33.2807117675614,0.0</coordinates>
</LineString>
</MultiGeometry>
</Placemark>
</Folder>
</Document></kml>
